Experiment1/Part1/logs/1.sw,esl,pico_ALL.csv

Model,MSO68B
Channel,CH1,,Channel,CH2
Label,,,Label,
Waveform Type,ANALOG,,Waveform Type,ANALOG
Digital Type,None,,Digital Type,None
Horizontal Units,s,,Horizontal Units,s
Sample Interval,1.60000000e-10,,Sample Interval,1.60000000e-10
Record Length,13750,,Record Length,13750
Zero Index,7287.21484375,,Zero Index,7287.21484375
Vertical Units,V,,Vertical Units,V
,,,,
ANALOG_Thumbnail,,,ANALOG_Thumbnail,
yOffset,0.000000,,yOffset,0.000000
yPosition,-2.580000,,yPosition,-3.620000

Labels,,
TIME,CH1,CH2
-1.16595437e-06,-3.21281250e-01,-3.14062500e-01
-1.16579437e-06,-3.40687500e-01,-2.95312500e-01
-1.16563437e-06,-3.65125000e-01,-3.17187500e-01
-1.16547438e-06,-3.93875000e-01,-3.48437500e-01
-1.16531437e-06,-4.25500000e-01,-3.19531250e-01
-1.16515437e-06,-4.58562500e-01,-2.58593750e-01
-1.16499437e-06,-4.91625000e-01,-1.89843750e-01
-1.16483437e-06,-5.23250000e-01,-1.78906250e-01
-1.16467437e-06,-5.52000000e-01,-1.89843750e-01
-1.16451437e-06,-5.77875000e-01,-2.27343750e-01
-1.16435438e-06,-6.00156250e-01,-2.86718750e-01
-1.16419437e-06,-6.18843750e-01,-3.35937500e-01
-1.16403437e-06,-6.34656250e-01,-3.71875000e-01
-1.16387437e-06,-6.47593750e-01,-3.45312500e-01
-1.16371437e-06,-6.59812500e-01,-3.32031250e-01
-1.16355437e-06,-6.70593750e-01,-3.62500000e-01
-1.16339437e-06,-6.81375000e-01,-4.15625000e-01
-1.16323438e-06,-6.92156250e-01,-4.33593750e-01
-1.16307437e-06,-7.02937500e-01,-3.71093750e-01
-1.16291437e-06,-7.14437500e-01,-2.60937500e-01
-1.16275437e-06,-7.26656250e-01,-2.25000000e-01
-1.16259437e-06,-7.37437500e-01,-2.31250000e-01
-1.16243437e-06,-7.47500000e-01,-2.32031250e-01
-1.16227437e-06,-7.56125000e-01,-2.50781250e-01
-1.16211438e-06,-7.62593750e-01,-3.25781250e-01
-1.16195437e-06,-7.66187500e-01,-3.79687500e-01
-1.16179437e-06,-7.66906250e-01,-3.56250000e-01
-1.16163437e-06,-7.65468750e-01,-3.12500000e-01
-1.16147437e-06,-7.61156250e-01,-2.28906250e-01
-1.16131437e-06,-7.55406250e-01,-1.75781250e-01
-1.16115437e-06,-7.47500000e-01,-1.60937500e-01
-1.16099438e-06,-7.38875000e-01,-1.20312500e-01
-1.16083437e-06,-7.30250000e-01,-1.85156250e-01
-1.16067437e-06,-7.20906250e-01,-3.35937500e-01
-1.16051437e-06,-7.13000000e-01,-3.78125000e-01
-1.16035437e-06,-7.05812500e-01,-2.78125000e-01
-1.16019437e-06,-6.98625000e-01,-2.23437500e-01
-1.16003437e-06,-6.93593750e-01,-2.77343750e-01
-1.15987438e-06,-6.87843750e-01,-2.92968750e-01
-1.15971437e-06,-6.82812500e-01,-2.46093750e-01
-1.15955437e-06,-6.77062500e-01,-2.44531250e-01
-1.15939437e-06,-6.71312500e-01,-2.78906250e-01
-1.15923437e-06,-6.63406250e-01,-2.46093750e-01
-1.15907437e-06,-6.54781250e-01,-2.04687500e-01
-1.15891437e-06,-6.44000000e-01,-2.30468750e-01
-1.15875438e-06,-6.31781250e-01,-2.63281250e-01
-1.15859437e-06,-6.17406250e-01,-2.98437500e-01
-1.15843437e-06,-6.00156250e-01,-2.68750000e-01
-1.15827437e-06,-5.81468750e-01,-1.71875000e-01
-1.15811437e-06,-5.60625000e-01,-1.64062500e-01
-1.15795437e-06,-5.37625000e-01,-2.77343750e-01
-1.15779437e-06,-5.12468750e-01,-3.21875000e-01
-1.15763438e-06,-4.86593750e-01,-2.96875000e-01
-1.15747437e-06,-4.60000000e-01,-2.89843750e-01
-1.15731437e-06,-4.34125000e-01,-3.28906250e-01
-1.15715437e-06,-4.07531250e-01,-3.45312500e-01
-1.15699437e-06,-3.82375000e-01,-3.53906250e-01
-1.15683437e-06,-3.57937500e-01,-3.66406250e-01
-1.15667437e-06,-3.34937500e-01,-2.98437500e-01
-1.15651438e-06,-3.12656250e-01,-2.65625000e-01
-1.15635437e-06,-2.91093750e-01,-2.64062500e-01
-1.15619437e-06,-2.70968750e-01,-2.24218750e-01
-1.15603437e-06,-2.52281250e-01,-2.29687500e-01
-1.15587437e-06,-2.35750000e-01,-2.76562500e-01
-1.15571437e-06,-2.22093750e-01,-2.79687500e-01
-1.15555437e-06,-2.12031250e-01,-2.13281250e-01
-1.15539438e-06,-2.06281250e-01,-1.64843750e-01
-1.15523437e-06,-2.04843750e-01,-2.16406250e-01
-1.15507437e-06,-2.07718750e-01,-3.19531250e-01
-1.15491437e-06,-2.14187500e-01,-3.79687500e-01
-1.15475437e-06,-2.23531250e-01,-3.26562500e-01
-1.15459437e-06,-2.35031250e-01,-2.17187500e-01
-1.15443437e-06,-2.48687500e-01,-1.31250000e-01
-1.15427438e-06,-2.62343750e-01,-1.02343750e-01
-1.15411437e-06,-2.76000000e-01,-1.60937500e-01
-1.15395437e-06,-2.89656250e-01,-2.35937500e-01
-1.15379437e-06,-3.04750000e-01,-1.31250000e-01
-1.15363437e-06,-3.19125000e-01,-6.17187500e-02
-1.15347437e-06,-3.34218750e-01,-1.77343750e-01
-1.15331437e-06,-3.50750000e-01,-3.17968750e-01
-1.15315438e-06,-3.68000000e-01,-3.68750000e-01
-1.15299437e-06,-3.86687500e-01,-3.20312500e-01
-1.15283437e-06,-4.04656250e-01,-2.50000000e-01
-1.15267437e-06,-4.21906250e-01,-2.72656250e-01
-1.15251437e-06,-4.37718750e-01,-3.21875000e-01
-1.15235437e-06,-4.51375000e-01,-2.85156250e-01
-1.15219437e-06,-4.62875000e-01,-2.82812500e-01
-1.15203438e-06,-4.71500000e-01,-3.53906250e-01
-1.15187437e-06,-4.79406250e-01,-3.56250000e-01
-1.15171437e-06,-4.86593750e-01,-2.93750000e-01
-1.15155437e-06,-4.95937500e-01,-2.64062500e-01
-1.15139437e-06,-5.06718750e-01,-3.49218750e-01
-1.15123437e-06,-5.19656250e-01,-4.10937500e-01
-1.15107437e-06,-5.36187500e-01,-3.54687500e-01
-1.15091438e-06,-5.55593750e-01,-3.06250000e-01
-1.15075437e-06,-5.75718750e-01,-2.92968750e-01
-1.15059437e-06,-5.97281250e-01,-2.83593750e-01
-1.15043437e-06,-6.18843750e-01,-2.96875000e-01
-1.15027437e-06,-6.39687500e-01,-2.70312500e-01
-1.15011437e-06,-6.61250000e-01,-1.73437500e-01
-1.14995437e-06,-6.81375000e-01,-1.13281250e-01
-1.14979438e-06,-7.00781250e-01,-2.41406250e-01
-1.14963437e-06,-7.19468750e-01,-3.22656250e-01
-1.14947437e-06,-7.36718750e-01,-2.07812500e-01
-1.14931437e-06,-7.52531250e-01,-9.37500000e-02
-1.14915437e-06,-7.65468750e-01,-1.14062500e-01
-1.14899437e-06,-7.75531250e-01,-2.11718750e-01
-1.14883437e-06,-7.82000000e-01,-2.28906250e-01
-1.14867438e-06,-7.85593750e-01,-1.69531250e-01
-1.14851437e-06,-7.85593750e-01,-2.22656250e-01
-1.14835437e-06,-7.82718750e-01,-3.27343750e-01
-1.14819437e-06,-7.77687500e-01,-2.55468750e-01
-1.14803437e-06,-7.69062500e-01,-1.41406250e-01
-1.14787437e-06,-7.59718750e-01,-2.07812500e-01
-1.14771437e-06,-7.49656250e-01,-3.43750000e-01
-1.14755438e-06,-7.38875000e-01,-3.07031250e-01
-1.14739437e-06,-7.28093750e-01,-2.42968750e-01
-1.14723437e-06,-7.17312500e-01,-2.57812500e-01
-1.14707437e-06,-7.06531250e-01,-2.78125000e-01
-1.14691437e-06,-6.95750000e-01,-2.98437500e-01
-1.14675437e-06,-6.84250000e-01,-3.34375000e-01
-1.14659437e-06,-6.71312500e-01,-3.04687500e-01
-1.14643438e-06,-6.56218750e-01,-1.66406250e-01
-1.14627437e-06,-6.39687500e-01,-1.44531250e-01
-1.14611437e-06,-6.21000000e-01,-2.44531250e-01
-1.14595437e-06,-6.00875000e-01,-3.10937500e-01
-1.14579437e-06,-5.79312500e-01,-2.92187500e-01
-1.14563437e-06,-5.58468750e-01,-2.60937500e-01
-1.14547437e-06,-5.37625000e-01,-2.23437500e-01
-1.14531438e-06,-5.18937500e-01,-2.22656250e-01
-1.14515437e-06,-5.01687500e-01,-3.20312500e-01
-1.14499437e-06,-4.86593750e-01,-3.67187500e-01
-1.14483437e-06,-4.72937500e-01,-3.42187500e-01
-1.14467437e-06,-4.60718750e-01,-3.35156250e-01
-1.14451437e-06,-4.49218750e-01,-2.79687500e-01
-1.14435437e-06,-4.37718750e-01,-2.49218750e-01
-1.14419438e-06,-4.24781250e-01,-2.21875000e-01
-1.14403437e-06,-4.11843750e-01,-1.69531250e-01
-1.14387437e-06,-3.97468750e-01,-1.61718750e-01
-1.14371437e-06,-3.82375000e-01,-2.17187500e-01
-1.14355437e-06,-3.67281250e-01,-2.67187500e-01
-1.14339437e-06,-3.52906250e-01,-2.32031250e-01
-1.14323437e-06,-3.38531250e-01,-2.21875000e-01
-1.14307438e-06,-3.25593750e-01,-2.58593750e-01
-1.14291437e-06,-3.14093750e-01,-2.54687500e-01
-1.14275437e-06,-3.04750000e-01,-2.17968750e-01
-1.14259437e-06,-2.96125000e-01,-1.95312500e-01
-1.14243437e-06,-2.89656250e-01,-2.41406250e-01
-1.14227437e-06,-2.83906250e-01,-2.65625000e-01
-1.14211437e-06,-2.79593750e-01,-2.29687500e-01
-1.14195438e-06,-2.77437500e-01,-1.98437500e-01
-1.14179437e-06,-2.76000000e-01,-2.57031250e-01
-1.14163437e-06,-2.76000000e-01,-3.57812500e-01
-1.14147437e-06,-2.76718750e-01,-3.69531250e-01
-1.14131437e-06,-2.78156250e-01,-3.03125000e-01
-1.14115437e-06,-2.80312500e-01,-2.64843750e-01
-1.14099437e-06,-2.82468750e-01,-2.97656250e-01
-1.14083438e-06,-2.84625000e-01,-2.75781250e-01
-1.14067437e-06,-2.87500000e-01,-2.11718750e-01
-1.14051437e-06,-2.91812500e-01,-2.07812500e-01
-1.14035437e-06,-2.98281250e-01,-1.87500000e-01
-1.14019437e-06,-3.07625000e-01,-1.75000000e-01
-1.14003437e-06,-3.19843750e-01,-2.07812500e-01
-1.13987437e-06,-3.36375000e-01,-2.66406250e-01
-1.13971438e-06,-3.56500000e-01,-3.10156250e-01
-1.13955437e-06,-3.78781250e-01,-3.94531250e-01
-1.13939437e-06,-4.04656250e-01,-3.57812500e-01
-1.13923437e-06,-4.31250000e-01,-1.92187500e-01
-1.13907437e-06,-4.58562500e-01,-1.57031250e-01
-1.13891437e-06,-4.85156250e-01,-2.14062500e-01
-1.13875437e-06,-5.11031250e-01,-2.35156250e-01
-1.13859438e-06,-5.34031250e-01,-1.83593750e-01
-1.13843437e-06,-5.56312500e-01,-1.33593750e-01
-1.13827437e-06,-5.76437500e-01,-1.50781250e-01
-1.13811437e-06,-5.94406250e-01,-2.29687500e-01
-1.13795437e-06,-6.11656250e-01,-2.67187500e-01
-1.13779437e-06,-6.27468750e-01,-2.39843750e-01
-1.13763437e-06,-6.43281250e-01,-2.93750000e-01
-1.13747438e-06,-6.57656250e-01,-3.76562500e-01
-1.13731437e-06,-6.72031250e-01,-3.81250000e-01
-1.13715437e-06,-6.84968750e-01,-3.10937500e-01
-1.13699437e-06,-6.97187500e-01,-3.03125000e-01
-1.13683437e-06,-7.07968750e-01,-3.25000000e-01
-1.13667437e-06,-7.17312500e-01,-3.15625000e-01
-1.13651437e-06,-7.24500000e-01,-3.21093750e-01
-1.13635438e-06,-7.30968750e-01,-2.54687500e-01
-1.13619437e-06,-7.35281250e-01,-1.96875000e-01
-1.13603437e-06,-7.37437500e-01,-2.32812500e-01
-1.13587437e-06,-7.39593750e-01,-2.83593750e-01
-1.13571437e-06,-7.39593750e-01,-2.71875000e-01
-1.13555437e-06,-7.38875000e-01,-2.34375000e-01
-1.13539437e-06,-7.37437500e-01,-1.98437500e-01
-1.13523438e-06,-7.35281250e-01,-1.94531250e-01
-1.13507437e-06,-7.32406250e-01,-2.79687500e-01
-1.13491437e-06,-7.28812500e-01,-3.64843750e-01
-1.13475437e-06,-7.25218750e-01,-3.26562500e-01
-1.13459437e-06,-7.20187500e-01,-2.40625000e-01
-1.13443437e-06,-7.14437500e-01,-2.51562500e-01
-1.13427437e-06,-7.07968750e-01,-2.82812500e-01
-1.13411438e-06,-7.00781250e-01,-3.39843750e-01
-1.13395437e-06,-6.94312500e-01,-3.60156250e-01
-1.13379437e-06,-6.86406250e-01,-2.64843750e-01
-1.13363437e-06,-6.79218750e-01,-1.42187500e-01
-1.13347437e-06,-6.71312500e-01,-1.52343750e-01
-1.13331437e-06,-6.64125000e-01,-2.54687500e-01
-1.13315437e-06,-6.55500000e-01,-3.02343750e-01
-1.13299438e-06,-6.46156250e-01,-2.99218750e-01
-1.13283437e-06,-6.35375000e-01,-2.96093750e-01
-1.13267437e-06,-6.23156250e-01,-2.98437500e-01
-1.13251437e-06,-6.09500000e-01,-2.67968750e-01
-1.13235437e-06,-5.94406250e-01,-2.35937500e-01
-1.13219437e-06,-5.77875000e-01,-2.28906250e-01
-1.13203437e-06,-5.59906250e-01,-2.44531250e-01
-1.13187438e-06,-5.41218750e-01,-2.60156250e-01
-1.13171437e-06,-5.21812500e-01,-2.71875000e-01
-1.13155437e-06,-5.00250000e-01,-2.89062500e-01
-1.13139437e-06,-4.78687500e-01,-3.89062500e-01
-1.13123437e-06,-4.55687500e-01,-4.16406250e-01
-1.13107437e-06,-4.31968750e-01,-3.50781250e-01
-1.13091437e-06,-4.07531250e-01,-2.96875000e-01
-1.13075438e-06,-3.83093750e-01,-2.96093750e-01
-1.13059437e-06,-3.59375000e-01,-2.87500000e-01
-1.13043437e-06,-3.38531250e-01,-2.46875000e-01
-1.13027437e-06,-3.20562500e-01,-2.71875000e-01
-1.13011437e-06,-3.06906250e-01,-3.60156250e-01
-1.12995437e-06,-2.96843750e-01,-3.38281250e-01
-1.12979437e-06,-2.91093750e-01,-2.52343750e-01
-1.12963438e-06,-2.88937500e-01,-2.47656250e-01
-1.12947437e-06,-2.88937500e-01,-1.89843750e-01
-1.12931437e-06,-2.90375000e-01,-1.27343750e-01
-1.12915437e-06,-2.92531250e-01,-1.42187500e-01
-1.12899437e-06,-2.94687500e-01,-2.12500000e-01
-1.12883437e-06,-2.96125000e-01,-2.31250000e-01
-1.12867437e-06,-2.97562500e-01,-2.14843750e-01
-1.12851438e-06,-2.99000000e-01,-2.18750000e-01
-1.12835437e-06,-3.01156250e-01,-2.86718750e-01
-1.12819437e-06,-3.04031250e-01,-3.84375000e-01
-1.12803437e-06,-3.09062500e-01,-3.76562500e-01
-1.12787437e-06,-3.14812500e-01,-3.42968750e-01
-1.12771437e-06,-3.22718750e-01,-3.22656250e-01
-1.12755437e-06,-3.30625000e-01,-2.96875000e-01
-1.12739438e-06,-3.39968750e-01,-3.00000000e-01
-1.12723437e-06,-3.48593750e-01,-3.44531250e-01
-1.12707437e-06,-3.56500000e-01,-3.56250000e-01
-1.12691437e-06,-3.64406250e-01,-2.85937500e-01
-1.12675437e-06,-3.71593750e-01,-2.60156250e-01
-1.12659437e-06,-3.78781250e-01,-2.40625000e-01
-1.12643437e-06,-3.85250000e-01,-1.75781250e-01
-1.12627438e-06,-3.91718750e-01,-1.75781250e-01
-1.12611437e-06,-3.97468750e-01,-2.32812500e-01
-1.12595437e-06,-4.04656250e-01,-2.10156250e-01
-1.12579437e-06,-4.11843750e-01,-1.84375000e-01
-1.12563437e-06,-4.19750000e-01,-2.44531250e-01
-1.12547437e-06,-4.29093750e-01,-2.81250000e-01
-1.12531437e-06,-4.39156250e-01,-2.21093750e-01
-1.12515438e-06,-4.51375000e-01,-1.40625000e-01
-1.12499437e-06,-4.64312500e-01,-1.97656250e-01
-1.12483437e-06,-4.78687500e-01,-3.18750000e-01
-1.12467437e-06,-4.94500000e-01,-3.73437500e-01
-1.12451437e-06,-5.11750000e-01,-3.67187500e-01
-1.12435437e-06,-5.29000000e-01,-3.06250000e-01
-1.12419437e-06,-5.46968750e-01,-2.46875000e-01
-1.12403438e-06,-5.64218750e-01,-1.74218750e-01
-1.12387437e-06,-5.80750000e-01,-6.48437500e-02
-1.12371437e-06,-5.97281250e-01,-8.04687500e-02
-1.12355437e-06,-6.11656250e-01,-2.37500000e-01
-1.12339437e-06,-6.24593750e-01,-2.72656250e-01
-1.12323437e-06,-6.35375000e-01,-2.00000000e-01
-1.12307437e-06,-6.44718750e-01,-1.64062500e-01
-1.12291438e-06,-6.51906250e-01,-1.57812500e-01
-1.12275437e-06,-6.58375000e-01,-1.72656250e-01
-1.12259437e-06,-6.64125000e-01,-1.86718750e-01
-1.12243437e-06,-6.69875000e-01,-1.77343750e-01
-1.12227437e-06,-6.75625000e-01,-1.41406250e-01
-1.12211437e-06,-6.81375000e-01,-1.57031250e-01
-1.12195437e-06,-6.86406250e-01,-2.55468750e-01
-1.12179438e-06,-6.90718750e-01,-3.42187500e-01
-1.12163437e-06,-6.93593750e-01,-3.32031250e-01
-1.12147437e-06,-6.94312500e-01,-3.07031250e-01
-1.12131437e-06,-6.92156250e-01,-3.28906250e-01
-1.12115437e-06,-6.86406250e-01,-3.21875000e-01
-1.12099437e-06,-6.78500000e-01,-2.20312500e-01
-1.12083438e-06,-6.68437500e-01,-1.19531250e-01
-1.12067438e-06,-6.56218750e-01,-1.20312500e-01
-1.12051437e-06,-6.44000000e-01,-1.66406250e-01
-1.12035437e-06,-6.30343750e-01,-2.08593750e-01
-1.12019437e-06,-6.17406250e-01,-2.71093750e-01
-1.12003437e-06,-6.03750000e-01,-2.89843750e-01
-1.11987437e-06,-5.90093750e-01,-2.15625000e-01
-1.11971438e-06,-5.75718750e-01,-1.53906250e-01
-1.11955438e-06,-5.60625000e-01,-2.30468750e-01
-1.11939437e-06,-5.44093750e-01,-2.93750000e-01
-1.11923437e-06,-5.27562500e-01,-2.25000000e-01
-1.11907437e-06,-5.11031250e-01,-2.09375000e-01
-1.11891437e-06,-4.94500000e-01,-1.41406250e-01
-1.11875437e-06,-4.79406250e-01,-9.68750000e-02
-1.11859438e-06,-4.67187500e-01,-1.47656250e-01
-1.11843438e-06,-4.56406250e-01,-2.20312500e-01
-1.11827437e-06,-4.48500000e-01,-2.72656250e-01
-1.11811437e-06,-4.42031250e-01,-2.42187500e-01
-1.11795437e-06,-4.35562500e-01,-2.75000000e-01
-1.11779437e-06,-4.30531250e-01,-3.72656250e-01
-1.11763437e-06,-4.23343750e-01,-4.32812500e-01
-1.11747438e-06,-4.14718750e-01,-4.08593750e-01
-1.11731438e-06,-4.03937500e-01,-3.69531250e-01
-1.11715437e-06,-3.91000000e-01,-3.46093750e-01
-1.11699437e-06,-3.76625000e-01,-3.28906250e-01
-1.11683437e-06,-3.63687500e-01,-3.36718750e-01
-1.11667437e-06,-3.50750000e-01,-3.02343750e-01
-1.11651437e-06,-3.39968750e-01,-3.00000000e-01
-1.11635438e-06,-3.31343750e-01,-3.33593750e-01
-1.11619438e-06,-3.23437500e-01,-3.50000000e-01
-1.11603437e-06,-3.17687500e-01,-3.24218750e-01
-1.11587437e-06,-3.11218750e-01,-2.34375000e-01
-1.11571437e-06,-3.04750000e-01,-1.90625000e-01
-1.11555437e-06,-2.97562500e-01,-2.25000000e-01
-1.11539437e-06,-2.90375000e-01,-2.26562500e-01
-1.11523438e-06,-2.83187500e-01,-1.38281250e-01
-1.11507438e-06,-2.77437500e-01,-9.37500000e-02
-1.11491437e-06,-2.73843750e-01,-1.59375000e-01
-1.11475437e-06,-2.73843750e-01,-2.61718750e-01
-1.11459437e-06,-2.76718750e-01,-3.21875000e-01
-1.11443437e-06,-2.84625000e-01,-3.18750000e-01
-1.11427437e-06,-2.94687500e-01,-2.32031250e-01
-1.11411438e-06,-3.07625000e-01,-1.53906250e-01
-1.11395438e-06,-3.21281250e-01,-1.96093750e-01
-1.11379437e-06,-3.36375000e-01,-2.43750000e-01
-1.11363437e-06,-3.50750000e-01,-2.92187500e-01
-1.11347437e-06,-3.65125000e-01,-3.10156250e-01
-1.11331437e-06,-3.79500000e-01,-2.89062500e-01
-1.11315437e-06,-3.93156250e-01,-2.20312500e-01
-1.11299438e-06,-4.06812500e-01,-2.19531250e-01
-1.11283438e-06,-4.21187500e-01,-2.16406250e-01
-1.11267437e-06,-4.34843750e-01,-2.16406250e-01
-1.11251437e-06,-4.47781250e-01,-2.56250000e-01
-1.11235437e-06,-4.60718750e-01,-2.74218750e-01
-1.11219437e-06,-4.72937500e-01,-3.62500000e-01
-1.11203437e-06,-4.85156250e-01,-4.35937500e-01
-1.11187438e-06,-4.97375000e-01,-4.07812500e-01
-1.11171438e-06,-5.10312500e-01,-3.61718750e-01
-1.11155437e-06,-5.22531250e-01,-3.16406250e-01
-1.11139437e-06,-5.36187500e-01,-3.11718750e-01
-1.11123437e-06,-5.49843750e-01,-2.70312500e-01
-1.11107437e-06,-5.63500000e-01,-2.22656250e-01
-1.11091437e-06,-5.76437500e-01,-2.68750000e-01
-1.11075438e-06,-5.87937500e-01,-2.64843750e-01
-1.11059438e-06,-5.96562500e-01,-2.07812500e-01
-1.11043437e-06,-6.03031250e-01,-2.04687500e-01
-1.11027437e-06,-6.07343750e-01,-2.12500000e-01
-1.11011437e-06,-6.08781250e-01,-2.16406250e-01
-1.10995437e-06,-6.09500000e-01,-2.50000000e-01
-1.10979437e-06,-6.08781250e-01,-2.47656250e-01
-1.10963438e-06,-6.07343750e-01,-2.53125000e-01
-1.10947438e-06,-6.07343750e-01,-2.63281250e-01
-1.10931437e-06,-6.07343750e-01,-2.21875000e-01
-1.10915437e-06,-6.09500000e-01,-1.97656250e-01
-1.10899437e-06,-6.12375000e-01,-1.43750000e-01
-1.10883437e-06,-6.16687500e-01,-1.28125000e-01
-1.10867437e-06,-6.23156250e-01,-1.88281250e-01
-1.10851438e-06,-6.29625000e-01,-2.00781250e-01
-1.10835438e-06,-6.36812500e-01,-2.18750000e-01
-1.10819437e-06,-6.43281250e-01,-3.37500000e-01
-1.10803437e-06,-6.48312500e-01,-4.43750000e-01
-1.10787437e-06,-6.51187500e-01,-4.55468750e-01
-1.10771437e-06,-6.50468750e-01,-4.10156250e-01
-1.10755437e-06,-6.46875000e-01,-3.11718750e-01
-1.10739438e-06,-6.38968750e-01,-2.43750000e-01
-1.10723438e-06,-6.28906250e-01,-2.49218750e-01
-1.10707437e-06,-6.15250000e-01,-2.53906250e-01
-1.10691437e-06,-6.00156250e-01,-2.19531250e-01
-1.10675437e-06,-5.83625000e-01,-2.44531250e-01
-1.10659437e-06,-5.67093750e-01,-3.17968750e-01
-1.10643437e-06,-5.51281250e-01,-2.72656250e-01
-1.10627438e-06,-5.34750000e-01,-2.21093750e-01
-1.10611438e-06,-5.19656250e-01,-2.35937500e-01
-1.10595437e-06,-5.03125000e-01,-2.51562500e-01
-1.10579437e-06,-4.85875000e-01,-2.73437500e-01
-1.10563437e-06,-4.67906250e-01,-3.05468750e-01
-1.10547437e-06,-4.49218750e-01,-3.53906250e-01
-1.10531437e-06,-4.30531250e-01,-3.71875000e-01
-1.10515438e-06,-4.11125000e-01,-3.53125000e-01
-1.10499438e-06,-3.92437500e-01,-2.56250000e-01
-1.10483437e-06,-3.75906250e-01,-2.38281250e-01
-1.10467437e-06,-3.61531250e-01,-3.17968750e-01
-1.10451437e-06,-3.50031250e-01,-3.71875000e-01
-1.10435437e-06,-3.40687500e-01,-4.10937500e-01
-1.10419437e-06,-3.33500000e-01,-3.42187500e-01
-1.10403438e-06,-3.29187500e-01,-2.30468750e-01
-1.10387438e-06,-3.27031250e-01,-1.91406250e-01
-1.10371437e-06,-3.25593750e-01,-2.37500000e-01
-1.10355437e-06,-3.26312500e-01,-2.73437500e-01
-1.10339437e-06,-3.26312500e-01,-3.05468750e-01
-1.10323437e-06,-3.27031250e-01,-3.37500000e-01
-1.10307437e-06,-3.27750000e-01,-3.63281250e-01
-1.10291438e-06,-3.27750000e-01,-3.70312500e-01
-1.10275437e-06,-3.27031250e-01,-3.61718750e-01
-1.10259437e-06,-3.25593750e-01,-3.64843750e-01
-1.10243437e-06,-3.22718750e-01,-3.81250000e-01
-1.10227437e-06,-3.18406250e-01,-3.33593750e-01
-1.10211437e-06,-3.14093750e-01,-2.00000000e-01
-1.10195437e-06,-3.09781250e-01,-1.49218750e-01
-1.10179438e-06,-3.06187500e-01,-2.55468750e-01
-1.10163437e-06,-3.03312500e-01,-3.74218750e-01
-1.10147437e-06,-3.03312500e-01,-3.58593750e-01
-1.10131437e-06,-3.04750000e-01,-2.57031250e-01
-1.10115437e-06,-3.09062500e-01,-2.81250000e-01
