Experiment1/Part1/logs/2.sw,esl,tpp1000_ALL.csv

Model,MSO68B
Channel,CH2
Label,
Waveform Type,ANALOG
Digital Type,None
Horizontal Units,s
Sample Interval,1.60000000e-10
Record Length,12500
Zero Index,8499.83593750
Vertical Units,V
,
ANALOG_Thumbnail,
yOffset,0.000000
yPosition,-3.620000

Labels,
TIME,CH2
-1.35997375e-06,2.83593750e-01
-1.35981375e-06,3.10937500e-01
-1.35965375e-06,3.10937500e-01
-1.35949375e-06,3.88281250e-01
-1.35933375e-06,4.83593750e-01
-1.35917375e-06,5.39843750e-01
-1.35901375e-06,6.53906250e-01
-1.35885375e-06,7.90625000e-01
-1.35869375e-06,8.85156250e-01
-1.35853375e-06,8.74218750e-01
-1.35837375e-06,8.01562500e-01
-1.35821375e-06,8.25000000e-01
-1.35805375e-06,9.42187500e-01
-1.35789375e-06,1.08906250e+00
-1.35773375e-06,1.18828125e+00
-1.35757375e-06,1.22109375e+00
-1.35741375e-06,1.28906250e+00
-1.35725375e-06,1.37031250e+00
-1.35709375e-06,1.43125000e+00
-1.35693375e-06,1.52968750e+00
-1.35677375e-06,1.61484375e+00
-1.35661375e-06,1.59921875e+00
-1.35645375e-06,1.64218750e+00
-1.35629375e-06,1.72265625e+00
-1.35613375e-06,1.77500000e+00
-1.35597375e-06,1.78515625e+00
-1.35581375e-06,1.80625000e+00
-1.35565375e-06,1.85312500e+00
-1.35549375e-06,1.87968750e+00
-1.35533375e-06,1.94453125e+00
-1.35517375e-06,1.96796875e+00
-1.35501375e-06,1.94609375e+00
-1.35485375e-06,1.92734375e+00
-1.35469375e-06,1.90937500e+00
-1.35453375e-06,1.90312500e+00
-1.35437375e-06,1.88515625e+00
-1.35421375e-06,1.86875000e+00
-1.35405375e-06,1.81718750e+00
-1.35389375e-06,1.75625000e+00
-1.35373375e-06,1.74687500e+00
-1.35357375e-06,1.71796875e+00
-1.35341375e-06,1.63906250e+00
-1.35325375e-06,1.56484375e+00
-1.35309375e-06,1.50468750e+00
-1.35293375e-06,1.43984375e+00
-1.35277375e-06,1.42421875e+00
-1.35261375e-06,1.38125000e+00
-1.35245375e-06,1.29140625e+00
-1.35229375e-06,1.27343750e+00
-1.35213375e-06,1.24218750e+00
-1.35197375e-06,1.15937500e+00
-1.35181375e-06,1.09218750e+00
-1.35165375e-06,1.02343750e+00
-1.35149375e-06,8.96093750e-01
-1.35133375e-06,8.00000000e-01
-1.35117375e-06,7.71093750e-01
-1.35101375e-06,7.25781250e-01
-1.35085375e-06,6.11718750e-01
-1.35069375e-06,5.31250000e-01
-1.35053375e-06,5.32031250e-01
-1.35037375e-06,5.04687500e-01
-1.35021375e-06,4.57031250e-01
-1.35005375e-06,4.00781250e-01
-1.34989375e-06,3.57031250e-01
-1.34973375e-06,3.17187500e-01
-1.34957375e-06,2.38281250e-01
-1.34941375e-06,2.03125000e-01
-1.34925375e-06,1.98437500e-01
-1.34909375e-06,1.30468750e-01
-1.34893375e-06,4.37500000e-02
-1.34877375e-06,5.07812500e-02
-1.34861375e-06,7.57812500e-02
-1.34845375e-06,8.98437500e-02
-1.34829375e-06,8.51562500e-02
-1.34813375e-06,6.40625000e-02
-1.34797375e-06,8.04687500e-02
-1.34781375e-06,9.53125000e-02
-1.34765375e-06,1.34375000e-01
-1.34749375e-06,2.11718750e-01
-1.34733375e-06,2.68750000e-01
-1.34717375e-06,2.75000000e-01
-1.34701375e-06,3.02343750e-01
-1.34685375e-06,3.39062500e-01
-1.34669375e-06,3.64843750e-01
-1.34653375e-06,4.64062500e-01
-1.34637375e-06,5.84375000e-01
-1.34621375e-06,6.79687500e-01
-1.34605375e-06,7.21093750e-01
-1.34589375e-06,6.96875000e-01
-1.34573375e-06,6.77343750e-01
-1.34557375e-06,7.32812500e-01
-1.34541375e-06,8.57031250e-01
-1.34525375e-06,9.81250000e-01
-1.34509375e-06,1.06093750e+00
-1.34493375e-06,1.08671875e+00
-1.34477375e-06,1.11250000e+00
-1.34461375e-06,1.18515625e+00
-1.34445375e-06,1.30156250e+00
-1.34429375e-06,1.36093750e+00
-1.34413375e-06,1.32812500e+00
-1.34397375e-06,1.31406250e+00
-1.34381375e-06,1.35078125e+00
-1.34365375e-06,1.48515625e+00
-1.34349375e-06,1.60937500e+00
-1.34333375e-06,1.64609375e+00
-1.34317375e-06,1.65000000e+00
-1.34301375e-06,1.63046875e+00
-1.34285375e-06,1.63671875e+00
-1.34269375e-06,1.65937500e+00
-1.34253375e-06,1.77031250e+00
-1.34237375e-06,1.90703125e+00
-1.34221375e-06,1.91484375e+00
-1.34205375e-06,1.81875000e+00
-1.34189375e-06,1.74453125e+00
-1.34173375e-06,1.72812500e+00
-1.34157375e-06,1.71250000e+00
-1.34141375e-06,1.69609375e+00
-1.34125375e-06,1.65781250e+00
-1.34109375e-06,1.67500000e+00
-1.34093375e-06,1.70234375e+00
-1.34077375e-06,1.63515625e+00
-1.34061375e-06,1.56406250e+00
-1.34045375e-06,1.57031250e+00
-1.34029375e-06,1.57812500e+00
-1.34013375e-06,1.54609375e+00
-1.33997375e-06,1.52734375e+00
-1.33981375e-06,1.46562500e+00
-1.33965375e-06,1.40000000e+00
-1.33949375e-06,1.36328125e+00
-1.33933375e-06,1.22421875e+00
-1.33917375e-06,1.08671875e+00
-1.33901375e-06,1.05703125e+00
-1.33885375e-06,9.97656250e-01
-1.33869375e-06,9.10937500e-01
-1.33853375e-06,8.87500000e-01
-1.33837375e-06,8.44531250e-01
-1.33821375e-06,7.76562500e-01
-1.33805375e-06,7.27343750e-01
-1.33789375e-06,6.67968750e-01
-1.33773375e-06,5.96093750e-01
-1.33757375e-06,6.15625000e-01
-1.33741375e-06,6.53906250e-01
-1.33725375e-06,5.34375000e-01
-1.33709375e-06,3.64062500e-01
-1.33693375e-06,2.35937500e-01
-1.33677375e-06,1.73437500e-01
-1.33661375e-06,2.10156250e-01
-1.33645375e-06,3.59375000e-01
-1.33629375e-06,4.25000000e-01
-1.33613375e-06,2.90625000e-01
-1.33597375e-06,1.47656250e-01
-1.33581375e-06,5.23437500e-02
-1.33565375e-06,3.43750000e-02
-1.33549375e-06,1.09375000e-01
-1.33533375e-06,1.96093750e-01
-1.33517375e-06,2.75000000e-01
-1.33501375e-06,3.44531250e-01
-1.33485375e-06,3.85156250e-01
-1.33469375e-06,3.30468750e-01
-1.33453375e-06,2.87500000e-01
-1.33437375e-06,3.59375000e-01
-1.33421375e-06,3.82031250e-01
-1.33405375e-06,2.57812500e-01
-1.33389375e-06,2.03906250e-01
-1.33373375e-06,3.55468750e-01
-1.33357375e-06,4.78125000e-01
-1.33341375e-06,5.35937500e-01
-1.33325375e-06,6.08593750e-01
-1.33309375e-06,6.66406250e-01
-1.33293375e-06,7.16406250e-01
-1.33277375e-06,7.32812500e-01
-1.33261375e-06,7.23437500e-01
-1.33245375e-06,7.21875000e-01
-1.33229375e-06,8.28906250e-01
-1.33213375e-06,9.92968750e-01
-1.33197375e-06,1.10000000e+00
-1.33181375e-06,1.08671875e+00
-1.33165375e-06,1.06640625e+00
-1.33149375e-06,1.14843750e+00
-1.33133375e-06,1.25546875e+00
-1.33117375e-06,1.33359375e+00
-1.33101375e-06,1.38515625e+00
-1.33085375e-06,1.41250000e+00
-1.33069375e-06,1.42812500e+00
-1.33053375e-06,1.47968750e+00
-1.33037375e-06,1.53125000e+00
-1.33021375e-06,1.56250000e+00
-1.33005375e-06,1.59921875e+00
-1.32989375e-06,1.62421875e+00
-1.32973375e-06,1.64453125e+00
-1.32957375e-06,1.62812500e+00
-1.32941375e-06,1.62656250e+00
-1.32925375e-06,1.69921875e+00
-1.32909375e-06,1.73515625e+00
-1.32893375e-06,1.69687500e+00
-1.32877375e-06,1.67265625e+00
-1.32861375e-06,1.62578125e+00
-1.32845375e-06,1.54218750e+00
-1.32829375e-06,1.53906250e+00
-1.32813375e-06,1.57578125e+00
-1.32797375e-06,1.58593750e+00
-1.32781375e-06,1.57109375e+00
-1.32765375e-06,1.57734375e+00
-1.32749375e-06,1.57187500e+00
-1.32733375e-06,1.51250000e+00
-1.32717375e-06,1.42890625e+00
-1.32701375e-06,1.38515625e+00
-1.32685375e-06,1.30078125e+00
-1.32669375e-06,1.21328125e+00
-1.32653375e-06,1.17890625e+00
-1.32637375e-06,1.20000000e+00
-1.32621375e-06,1.13828125e+00
-1.32605375e-06,9.75000000e-01
-1.32589375e-06,8.72656250e-01
-1.32573375e-06,8.86718750e-01
-1.32557375e-06,8.71875000e-01
-1.32541375e-06,7.53906250e-01
-1.32525375e-06,6.17187500e-01
-1.32509375e-06,5.46093750e-01
-1.32493375e-06,5.87500000e-01
-1.32477375e-06,6.46875000e-01
-1.32461375e-06,6.79687500e-01
-1.32445375e-06,6.44531250e-01
-1.32429375e-06,6.20312500e-01
-1.32413375e-06,5.21093750e-01
-1.32397375e-06,3.41406250e-01
-1.32381375e-06,2.39843750e-01
-1.32365375e-06,1.90625000e-01
-1.32349375e-06,1.78906250e-01
-1.32333375e-06,2.41406250e-01
-1.32317375e-06,3.17968750e-01
-1.32301375e-06,2.60156250e-01
-1.32285375e-06,1.32031250e-01
-1.32269375e-06,9.29687500e-02
-1.32253375e-06,1.32031250e-01
-1.32237375e-06,1.96875000e-01
-1.32221375e-06,2.42968750e-01
-1.32205375e-06,2.64062500e-01
-1.32189375e-06,2.00781250e-01
-1.32173375e-06,1.95312500e-01
-1.32157375e-06,2.67968750e-01
-1.32141375e-06,3.28125000e-01
-1.32125375e-06,3.41406250e-01
-1.32109375e-06,3.27343750e-01
-1.32093375e-06,3.64062500e-01
-1.32077375e-06,3.82812500e-01
-1.32061375e-06,4.53125000e-01
-1.32045375e-06,5.42968750e-01
-1.32029375e-06,5.67187500e-01
-1.32013375e-06,5.96093750e-01
-1.31997375e-06,6.60156250e-01
-1.31981375e-06,6.70312500e-01
-1.31965375e-06,6.95312500e-01
-1.31949375e-06,8.77343750e-01
-1.31933375e-06,1.01171875e+00
-1.31917375e-06,9.53906250e-01
-1.31901375e-06,9.57031250e-01
-1.31885375e-06,1.07187500e+00
-1.31869375e-06,1.14062500e+00
-1.31853375e-06,1.12968750e+00
-1.31837375e-06,1.09609375e+00
-1.31821375e-06,1.08515625e+00
-1.31805375e-06,1.17421875e+00
-1.31789375e-06,1.34453125e+00
-1.31773375e-06,1.44218750e+00
-1.31757375e-06,1.40859375e+00
-1.31741375e-06,1.35937500e+00
-1.31725375e-06,1.37031250e+00
-1.31709375e-06,1.46875000e+00
-1.31693375e-06,1.58593750e+00
-1.31677375e-06,1.57343750e+00
-1.31661375e-06,1.54453125e+00
-1.31645375e-06,1.55000000e+00
-1.31629375e-06,1.54218750e+00
-1.31613375e-06,1.48984375e+00
-1.31597375e-06,1.50546875e+00
-1.31581375e-06,1.53203125e+00
-1.31565375e-06,1.49843750e+00
-1.31549375e-06,1.55156250e+00
-1.31533375e-06,1.61171875e+00
-1.31517375e-06,1.56562500e+00
-1.31501375e-06,1.50312500e+00
-1.31485375e-06,1.42265625e+00
-1.31469375e-06,1.37968750e+00
-1.31453375e-06,1.39140625e+00
-1.31437375e-06,1.39296875e+00
-1.31421375e-06,1.36718750e+00
-1.31405375e-06,1.34531250e+00
-1.31389375e-06,1.31328125e+00
-1.31373375e-06,1.16328125e+00
-1.31357375e-06,1.03671875e+00
-1.31341375e-06,1.02890625e+00
-1.31325375e-06,1.03984375e+00
-1.31309375e-06,9.96093750e-01
-1.31293375e-06,9.50000000e-01
-1.31277375e-06,9.19531250e-01
-1.31261375e-06,8.78125000e-01
-1.31245375e-06,8.38281250e-01
-1.31229375e-06,8.32812500e-01
-1.31213375e-06,8.28125000e-01
-1.31197375e-06,7.24218750e-01
-1.31181375e-06,6.28125000e-01
-1.31165375e-06,6.10156250e-01
-1.31149375e-06,5.96875000e-01
-1.31133375e-06,5.85937500e-01
-1.31117375e-06,4.78906250e-01
-1.31101375e-06,3.89843750e-01
-1.31085375e-06,4.10156250e-01
-1.31069375e-06,4.14062500e-01
-1.31053375e-06,3.25781250e-01
-1.31037375e-06,2.74218750e-01
-1.31021375e-06,2.75000000e-01
-1.31005375e-06,2.75781250e-01
-1.30989375e-06,3.26562500e-01
-1.30973375e-06,3.34375000e-01
-1.30957375e-06,3.24218750e-01
-1.30941375e-06,2.96875000e-01
-1.30925375e-06,2.68750000e-01
-1.30909375e-06,2.33593750e-01
-1.30893375e-06,2.64843750e-01
-1.30877375e-06,4.22656250e-01
-1.30861375e-06,4.45312500e-01
-1.30845375e-06,3.63281250e-01
-1.30829375e-06,3.05468750e-01
-1.30813375e-06,3.55468750e-01
-1.30797375e-06,4.34375000e-01
-1.30781375e-06,5.59375000e-01
-1.30765375e-06,6.45312500e-01
-1.30749375e-06,6.18750000e-01
-1.30733375e-06,6.38281250e-01
-1.30717375e-06,6.17968750e-01
-1.30701375e-06,5.96875000e-01
-1.30685375e-06,6.52343750e-01
-1.30669375e-06,7.68750000e-01
-1.30653375e-06,8.92968750e-01
-1.30637375e-06,9.47656250e-01
-1.30621375e-06,1.00156250e+00
-1.30605375e-06,1.01953125e+00
-1.30589375e-06,1.04296875e+00
-1.30573375e-06,1.11875000e+00
-1.30557375e-06,1.19453125e+00
-1.30541375e-06,1.17265625e+00
-1.30525375e-06,1.19609375e+00
-1.30509375e-06,1.26875000e+00
-1.30493375e-06,1.24609375e+00
-1.30477375e-06,1.26406250e+00
-1.30461375e-06,1.33281250e+00
-1.30445375e-06,1.39843750e+00
-1.30429375e-06,1.44140625e+00
-1.30413375e-06,1.45234375e+00
-1.30397375e-06,1.42343750e+00
-1.30381375e-06,1.41953125e+00
-1.30365375e-06,1.49218750e+00
-1.30349375e-06,1.49765625e+00
-1.30333375e-06,1.46718750e+00
-1.30317375e-06,1.51953125e+00
-1.30301375e-06,1.55234375e+00
-1.30285375e-06,1.53671875e+00
-1.30269375e-06,1.57343750e+00
-1.30253375e-06,1.61406250e+00
-1.30237375e-06,1.58671875e+00
-1.30221375e-06,1.54375000e+00
-1.30205375e-06,1.54140625e+00
-1.30189375e-06,1.50781250e+00
-1.30173375e-06,1.39921875e+00
-1.30157375e-06,1.26640625e+00
-1.30141375e-06,1.18359375e+00
-1.30125375e-06,1.25937500e+00
-1.30109375e-06,1.39687500e+00
-1.30093375e-06,1.32109375e+00
-1.30077375e-06,1.18046875e+00
-1.30061375e-06,1.14062500e+00
-1.30045375e-06,1.10078125e+00
-1.30029375e-06,1.03437500e+00
-1.30013375e-06,1.00312500e+00
-1.29997375e-06,9.25781250e-01
-1.29981375e-06,8.19531250e-01
-1.29965375e-06,7.93750000e-01
-1.29949375e-06,8.11718750e-01
-1.29933375e-06,8.50781250e-01
-1.29917375e-06,8.32031250e-01
-1.29901375e-06,7.53125000e-01
-1.29885375e-06,6.83593750e-01
-1.29869375e-06,6.76562500e-01
-1.29853375e-06,7.07031250e-01
-1.29837375e-06,6.25781250e-01
-1.29821375e-06,4.89843750e-01
-1.29805375e-06,4.39843750e-01
-1.29789375e-06,4.50000000e-01
-1.29773375e-06,4.55468750e-01
-1.29757375e-06,4.30468750e-01
-1.29741375e-06,3.14843750e-01
-1.29725375e-06,2.86718750e-01
-1.29709375e-06,4.10156250e-01
-1.29693375e-06,4.53906250e-01
-1.29677375e-06,3.57031250e-01
-1.29661375e-06,3.13281250e-01
-1.29645375e-06,3.93750000e-01
-1.29629375e-06,4.50000000e-01
-1.29613375e-06,4.18750000e-01
-1.29597375e-06,3.85937500e-01
-1.29581375e-06,3.75781250e-01
-1.29565375e-06,4.08593750e-01
-1.29549375e-06,4.75000000e-01
-1.29533375e-06,4.29687500e-01
-1.29517375e-06,3.58593750e-01
-1.29501375e-06,4.48437500e-01
-1.29485375e-06,6.03125000e-01
-1.29469375e-06,5.97656250e-01
-1.29453375e-06,5.21875000e-01
-1.29437375e-06,5.55468750e-01
-1.29421375e-06,6.67968750e-01
-1.29405375e-06,7.96093750e-01
-1.29389375e-06,8.84375000e-01
-1.29373375e-06,8.24218750e-01
-1.29357375e-06,7.59375000e-01
-1.29341375e-06,8.53906250e-01
-1.29325375e-06,9.71875000e-01
-1.29309375e-06,9.57031250e-01
-1.29293375e-06,9.46875000e-01
-1.29277375e-06,9.68750000e-01
-1.29261375e-06,1.00078125e+00
-1.29245375e-06,1.04609375e+00
-1.29229375e-06,1.10078125e+00
-1.29213375e-06,1.13515625e+00
-1.29197375e-06,1.14687500e+00
-1.29181375e-06,1.17734375e+00
-1.29165375e-06,1.29296875e+00
-1.29149375e-06,1.39140625e+00
-1.29133375e-06,1.40625000e+00
-1.29117375e-06,1.42187500e+00
-1.29101375e-06,1.41484375e+00
-1.29085375e-06,1.43906250e+00
-1.29069375e-06,1.41953125e+00
-1.29053375e-06,1.36328125e+00
-1.29037375e-06,1.41171875e+00
-1.29021375e-06,1.48750000e+00
-1.29005375e-06,1.44531250e+00
-1.28989375e-06,1.36718750e+00
-1.28973375e-06,1.35546875e+00
-1.28957375e-06,1.35234375e+00
-1.28941375e-06,1.31171875e+00
-1.28925375e-06,1.28203125e+00
-1.28909375e-06,1.34531250e+00
-1.28893375e-06,1.39375000e+00
-1.28877375e-06,1.35625000e+00
-1.28861375e-06,1.22500000e+00
-1.28845375e-06,1.17968750e+00
-1.28829375e-06,1.27890625e+00
-1.28813375e-06,1.22578125e+00
-1.28797375e-06,1.09531250e+00
-1.28781375e-06,1.04296875e+00
-1.28765375e-06,1.06406250e+00
-1.28749375e-06,1.07343750e+00
-1.28733375e-06,1.02578125e+00
-1.28717375e-06,9.69531250e-01
-1.28701375e-06,9.39843750e-01
-1.28685375e-06,9.49218750e-01
-1.28669375e-06,9.60937500e-01
-1.28653375e-06,8.81250000e-01
-1.28637375e-06,7.68750000e-01
-1.28621375e-06,7.32812500e-01
-1.28605375e-06,7.03906250e-01
-1.28589375e-06,6.46875000e-01
-1.28573375e-06,6.29687500e-01
-1.28557375e-06,6.28906250e-01
-1.28541375e-06,5.82031250e-01
-1.28525375e-06,5.52343750e-01
-1.28509375e-06,5.60937500e-01
-1.28493375e-06,4.92968750e-01
-1.28477375e-06,4.54687500e-01
-1.28461375e-06,4.35156250e-01
-1.28445375e-06,3.80468750e-01
-1.28429375e-06,4.18750000e-01
-1.28413375e-06,4.71875000e-01
-1.28397375e-06,4.55468750e-01
-1.28381375e-06,4.37500000e-01
-1.28365375e-06,5.27343750e-01
-1.28349375e-06,5.56250000e-01
-1.28333375e-06,4.41406250e-01
-1.28317375e-06,3.99218750e-01
-1.28301375e-06,4.19531250e-01
-1.28285375e-06,4.34375000e-01
-1.28269375e-06,3.97656250e-01
-1.28253375e-06,3.91406250e-01
-1.28237375e-06,4.53906250e-01
-1.28221375e-06,4.84375000e-01
-1.28205375e-06,4.76562500e-01
-1.28189375e-06,5.03906250e-01
-1.28173375e-06,5.88281250e-01
-1.28157375e-06,6.53125000e-01
-1.28141375e-06,6.57812500e-01
-1.28125375e-06,7.32031250e-01
-1.28109375e-06,8.25000000e-01
-1.28093375e-06,7.71093750e-01
-1.28077375e-06,6.90625000e-01
-1.28061375e-06,7.94531250e-01
-1.28045375e-06,9.70312500e-01
-1.28029375e-06,1.02187500e+00
-1.28013375e-06,1.03046875e+00
-1.27997375e-06,1.03203125e+00
-1.27981375e-06,1.00234375e+00
-1.27965375e-06,1.02187500e+00
-1.27949375e-06,1.07109375e+00
-1.27933375e-06,1.04609375e+00
-1.27917375e-06,1.00781250e+00
-1.27901375e-06,1.09140625e+00
-1.27885375e-06,1.21875000e+00
-1.27869375e-06,1.19453125e+00
-1.27853375e-06,1.16093750e+00
-1.27837375e-06,1.21171875e+00
-1.27821375e-06,1.27187500e+00
-1.27805375e-06,1.29765625e+00
-1.27789375e-06,1.29218750e+00
-1.27773375e-06,1.27031250e+00
-1.27757375e-06,1.28281250e+00
-1.27741375e-06,1.37187500e+00
-1.27725375e-06,1.42500000e+00
-1.27709375e-06,1.43984375e+00
-1.27693375e-06,1.40390625e+00
-1.27677375e-06,1.34921875e+00
-1.27661375e-06,1.28593750e+00
-1.27645375e-06,1.26250000e+00
-1.27629375e-06,1.26093750e+00
-1.27613375e-06,1.25937500e+00
-1.27597375e-06,1.31328125e+00
-1.27581375e-06,1.35859375e+00
-1.27565375e-06,1.36171875e+00
-1.27549375e-06,1.31796875e+00
-1.27533375e-06,1.18046875e+00
-1.27517375e-06,1.10625000e+00
-1.27501375e-06,1.19687500e+00
-1.27485375e-06,1.23359375e+00
-1.27469375e-06,1.14765625e+00
-1.27453375e-06,1.12265625e+00
-1.27437375e-06,1.14765625e+00
-1.27421375e-06,1.08671875e+00
-1.27405375e-06,9.67968750e-01
-1.27389375e-06,8.94531250e-01
-1.27373375e-06,8.85937500e-01
-1.27357375e-06,8.89062500e-01
-1.27341375e-06,8.37500000e-01
-1.27325375e-06,7.56250000e-01
-1.27309375e-06,7.19531250e-01
-1.27293375e-06,6.96875000e-01
-1.27277375e-06,6.33593750e-01
-1.27261375e-06,5.71875000e-01
-1.27245375e-06,5.21093750e-01
-1.27229375e-06,4.92187500e-01
-1.27213375e-06,4.92187500e-01
-1.27197375e-06,5.23437500e-01
-1.27181375e-06,5.06250000e-01
-1.27165375e-06,4.64843750e-01
-1.27149375e-06,4.07031250e-01
-1.27133375e-06,3.30468750e-01
-1.27117375e-06,3.53906250e-01
-1.27101375e-06,4.18750000e-01
-1.27085375e-06,4.46093750e-01
-1.27069375e-06,5.10937500e-01
-1.27053375e-06,5.27343750e-01
-1.27037375e-06,4.46875000e-01
-1.27021375e-06,4.01562500e-01
-1.27005375e-06,4.49218750e-01
-1.26989375e-06,5.12500000e-01
-1.26973375e-06,5.11718750e-01
-1.26957375e-06,5.33593750e-01
-1.26941375e-06,5.72656250e-01
-1.26925375e-06,5.21093750e-01
-1.26909375e-06,4.73437500e-01
-1.26893375e-06,5.35156250e-01
-1.26877375e-06,6.38281250e-01
-1.26861375e-06,6.94531250e-01
-1.26845375e-06,7.02343750e-01
-1.26829375e-06,7.15625000e-01
-1.26813375e-06,7.13281250e-01
-1.26797375e-06,7.48437500e-01
-1.26781375e-06,8.20312500e-01
-1.26765375e-06,8.43750000e-01
-1.26749375e-06,8.82812500e-01
-1.26733375e-06,8.96875000e-01
-1.26717375e-06,8.64843750e-01
-1.26701375e-06,8.53125000e-01
-1.26685375e-06,8.91406250e-01
-1.26669375e-06,9.89843750e-01
-1.26653375e-06,1.09765625e+00
-1.26637375e-06,1.13125000e+00
-1.26621375e-06,1.07812500e+00
-1.26605375e-06,1.05625000e+00
-1.26589375e-06,1.17109375e+00
-1.26573375e-06,1.30625000e+00
-1.26557375e-06,1.29921875e+00
-1.26541375e-06,1.16015625e+00
-1.26525375e-06,1.11406250e+00
-1.26509375e-06,1.17421875e+00
-1.26493375e-06,1.13359375e+00
-1.26477375e-06,1.09140625e+00
-1.26461375e-06,1.17265625e+00
-1.26445375e-06,1.26406250e+00
-1.26429375e-06,1.33281250e+00
-1.26413375e-06,1.41484375e+00
-1.26397375e-06,1.41796875e+00
-1.26381375e-06,1.30312500e+00
-1.26365375e-06,1.21484375e+00
-1.26349375e-06,1.26875000e+00
-1.26333375e-06,1.29687500e+00
-1.26317375e-06,1.32890625e+00
-1.26301375e-06,1.29921875e+00
-1.26285375e-06,1.14375000e+00
-1.26269375e-06,1.09062500e+00
-1.26253375e-06,1.12187500e+00
-1.26237375e-06,1.15468750e+00
-1.26221375e-06,1.20390625e+00
-1.26205375e-06,1.17968750e+00
-1.26189375e-06,1.07109375e+00
-1.26173375e-06,1.02890625e+00
-1.26157375e-06,1.02968750e+00
-1.26141375e-06,1.02031250e+00
-1.26125375e-06,9.51562500e-01
-1.26109375e-06,8.39062500e-01
-1.26093375e-06,7.91406250e-01
-1.26077375e-06,8.36718750e-01
-1.26061375e-06,9.11718750e-01
-1.26045375e-06,8.40625000e-01
-1.26029375e-06,7.42187500e-01
-1.26013375e-06,7.53906250e-01
-1.25997375e-06,7.00000000e-01
-1.25981375e-06,6.05468750e-01
-1.25965375e-06,5.92187500e-01
-1.25949375e-06,6.09375000e-01
-1.25933375e-06,5.88281250e-01
-1.25917375e-06,5.67968750e-01
-1.25901375e-06,5.41406250e-01
-1.25885375e-06,5.08593750e-01
-1.25869375e-06,5.02343750e-01
-1.25853375e-06,4.79687500e-01
-1.25837375e-06,4.19531250e-01
