Experiment1/Part1/logs/4.sw,P2000A,GaN_ALL.csv

Model,MSO68B
Channel,CH3
Label,
Waveform Type,ANALOG
Digital Type,None
Horizontal Units,s
Sample Interval,1.60000000e-10
Record Length,13750
Zero Index,6874.58593750
Vertical Units,V
,
ANALOG_Thumbnail,
yOffset,0.000000
yPosition,-4.240000

Labels,
TIME,CH3
-1.09993375e-06,3.60468750e-01
-1.09977375e-06,3.45468750e-01
-1.09961375e-06,3.16406250e-01
-1.09945375e-06,3.03281250e-01
-1.09929375e-06,3.10781250e-01
-1.09913375e-06,3.24375000e-01
-1.09897375e-06,3.31406250e-01
-1.09881375e-06,3.29062500e-01
-1.09865375e-06,3.28125000e-01
-1.09849375e-06,3.28125000e-01
-1.09833375e-06,3.08437500e-01
-1.09817375e-06,2.81718750e-01
-1.09801375e-06,2.91562500e-01
-1.09785375e-06,3.33281250e-01
-1.09769375e-06,3.52968750e-01
-1.09753375e-06,3.36093750e-01
-1.09737375e-06,3.12187500e-01
-1.09721375e-06,2.97187500e-01
-1.09705375e-06,2.93437500e-01
-1.09689375e-06,3.00000000e-01
-1.09673375e-06,3.16406250e-01
-1.09657375e-06,3.38437500e-01
-1.09641375e-06,3.48281250e-01
-1.09625375e-06,3.37031250e-01
-1.09609375e-06,3.29062500e-01
-1.09593375e-06,3.36093750e-01
-1.09577375e-06,3.31406250e-01
-1.09561375e-06,3.13593750e-01
-1.09545375e-06,3.10781250e-01
-1.09529375e-06,3.20156250e-01
-1.09513375e-06,3.22968750e-01
-1.09497375e-06,3.29062500e-01
-1.09481375e-06,3.39843750e-01
-1.09465375e-06,3.32343750e-01
-1.09449375e-06,3.08906250e-01
-1.09433375e-06,2.94843750e-01
-1.09417375e-06,3.00000000e-01
-1.09401375e-06,3.10312500e-01
-1.09385375e-06,3.10312500e-01
-1.09369375e-06,3.09843750e-01
-1.09353375e-06,3.26250000e-01
-1.09337375e-06,3.40312500e-01
-1.09321375e-06,3.15000000e-01
-1.09305375e-06,2.57812500e-01
-1.09289375e-06,2.24062500e-01
-1.09273375e-06,2.44218750e-01
-1.09257375e-06,2.92500000e-01
-1.09241375e-06,3.35156250e-01
-1.09225375e-06,3.59062500e-01
-1.09209375e-06,3.45468750e-01
-1.09193375e-06,3.01406250e-01
-1.09177375e-06,2.71406250e-01
-1.09161375e-06,2.69531250e-01
-1.09145375e-06,2.70468750e-01
-1.09129375e-06,2.65781250e-01
-1.09113375e-06,2.68593750e-01
-1.09097375e-06,2.87343750e-01
-1.09081375e-06,3.04687500e-01
-1.09065375e-06,2.81250000e-01
-1.09049375e-06,2.25468750e-01
-1.09033375e-06,2.10937500e-01
-1.09017375e-06,2.57343750e-01
-1.09001375e-06,2.99062500e-01
-1.08985375e-06,3.07968750e-01
-1.08969375e-06,3.15937500e-01
-1.08953375e-06,3.29531250e-01
-1.08937375e-06,3.26250000e-01
-1.08921375e-06,2.98593750e-01
-1.08905375e-06,2.62500000e-01
-1.08889375e-06,2.43281250e-01
-1.08873375e-06,2.49843750e-01
-1.08857375e-06,2.73750000e-01
-1.08841375e-06,3.01875000e-01
-1.08825375e-06,3.20156250e-01
-1.08809375e-06,3.18750000e-01
-1.08793375e-06,3.13593750e-01
-1.08777375e-06,3.22031250e-01
-1.08761375e-06,3.32812500e-01
-1.08745375e-06,3.37031250e-01
-1.08729375e-06,3.51562500e-01
-1.08713375e-06,3.82500000e-01
-1.08697375e-06,3.90468750e-01
-1.08681375e-06,3.48281250e-01
-1.08665375e-06,2.96250000e-01
-1.08649375e-06,2.80781250e-01
-1.08633375e-06,3.03750000e-01
-1.08617375e-06,3.30468750e-01
-1.08601375e-06,3.29531250e-01
-1.08585375e-06,3.06093750e-01
-1.08569375e-06,2.87812500e-01
-1.08553375e-06,2.80312500e-01
-1.08537375e-06,2.82187500e-01
-1.08521375e-06,3.09843750e-01
-1.08505375e-06,3.50625000e-01
-1.08489375e-06,3.55781250e-01
-1.08473375e-06,3.21093750e-01
-1.08457375e-06,2.92968750e-01
-1.08441375e-06,2.90156250e-01
-1.08425375e-06,2.98125000e-01
-1.08409375e-06,3.06562500e-01
-1.08393375e-06,3.09375000e-01
-1.08377375e-06,3.00937500e-01
-1.08361375e-06,2.97656250e-01
-1.08345375e-06,3.09843750e-01
-1.08329375e-06,3.13125000e-01
-1.08313375e-06,2.90156250e-01
-1.08297375e-06,2.62968750e-01
-1.08281375e-06,2.66250000e-01
-1.08265375e-06,3.15468750e-01
-1.08249375e-06,3.81093750e-01
-1.08233375e-06,4.09687500e-01
-1.08217375e-06,3.89531250e-01
-1.08201375e-06,3.49687500e-01
-1.08185375e-06,3.14062500e-01
-1.08169375e-06,3.01875000e-01
-1.08153375e-06,3.13593750e-01
-1.08137375e-06,3.25312500e-01
-1.08121375e-06,3.22500000e-01
-1.08105375e-06,3.10781250e-01
-1.08089375e-06,2.97187500e-01
-1.08073375e-06,2.96718750e-01
-1.08057375e-06,3.15937500e-01
-1.08041375e-06,3.30468750e-01
-1.08025375e-06,3.24843750e-01
-1.08009375e-06,3.27656250e-01
-1.07993375e-06,3.48750000e-01
-1.07977375e-06,3.50625000e-01
-1.07961375e-06,3.21562500e-01
-1.07945375e-06,2.94375000e-01
-1.07929375e-06,2.77500000e-01
-1.07913375e-06,2.69062500e-01
-1.07897375e-06,2.81250000e-01
-1.07881375e-06,3.07500000e-01
-1.07865375e-06,3.23906250e-01
-1.07849375e-06,3.24843750e-01
-1.07833375e-06,3.15937500e-01
-1.07817375e-06,3.07968750e-01
-1.07801375e-06,3.09375000e-01
-1.07785375e-06,3.03750000e-01
-1.07769375e-06,2.84062500e-01
-1.07753375e-06,2.81718750e-01
-1.07737375e-06,3.04218750e-01
-1.07721375e-06,3.16875000e-01
-1.07705375e-06,3.08437500e-01
-1.07689375e-06,3.08437500e-01
-1.07673375e-06,3.30937500e-01
-1.07657375e-06,3.50625000e-01
-1.07641375e-06,3.52968750e-01
-1.07625375e-06,3.53437500e-01
-1.07609375e-06,3.50625000e-01
-1.07593375e-06,3.33281250e-01
-1.07577375e-06,3.26718750e-01
-1.07561375e-06,3.46406250e-01
-1.07545375e-06,3.56250000e-01
-1.07529375e-06,3.30468750e-01
-1.07513375e-06,3.00468750e-01
-1.07497375e-06,3.03281250e-01
-1.07481375e-06,3.23437500e-01
-1.07465375e-06,3.28593750e-01
-1.07449375e-06,3.17812500e-01
-1.07433375e-06,3.00468750e-01
-1.07417375e-06,2.77031250e-01
-1.07401375e-06,2.65312500e-01
-1.07385375e-06,2.86875000e-01
-1.07369375e-06,3.29531250e-01
-1.07353375e-06,3.55781250e-01
-1.07337375e-06,3.45937500e-01
-1.07321375e-06,3.20625000e-01
-1.07305375e-06,3.13125000e-01
-1.07289375e-06,3.31406250e-01
-1.07273375e-06,3.41250000e-01
-1.07257375e-06,3.16875000e-01
-1.07241375e-06,2.87812500e-01
-1.07225375e-06,2.93437500e-01
-1.07209375e-06,3.15468750e-01
-1.07193375e-06,3.15468750e-01
-1.07177375e-06,2.94843750e-01
-1.07161375e-06,2.76093750e-01
-1.07145375e-06,2.83593750e-01
-1.07129375e-06,3.15000000e-01
-1.07113375e-06,3.25781250e-01
-1.07097375e-06,2.91562500e-01
-1.07081375e-06,2.47968750e-01
-1.07065375e-06,2.44218750e-01
-1.07049375e-06,2.79375000e-01
-1.07033375e-06,3.07968750e-01
-1.07017375e-06,3.07500000e-01
-1.07001375e-06,3.07500000e-01
-1.06985375e-06,3.21562500e-01
-1.06969375e-06,3.17812500e-01
-1.06953375e-06,2.88281250e-01
-1.06937375e-06,2.66250000e-01
-1.06921375e-06,2.70468750e-01
-1.06905375e-06,2.89687500e-01
-1.06889375e-06,3.05156250e-01
-1.06873375e-06,3.06093750e-01
-1.06857375e-06,2.93906250e-01
-1.06841375e-06,2.71875000e-01
-1.06825375e-06,2.50312500e-01
-1.06809375e-06,2.48437500e-01
-1.06793375e-06,2.62968750e-01
-1.06777375e-06,2.68125000e-01
-1.06761375e-06,2.60156250e-01
-1.06745375e-06,2.65781250e-01
-1.06729375e-06,3.01406250e-01
-1.06713375e-06,3.45937500e-01
-1.06697375e-06,3.64218750e-01
-1.06681375e-06,3.53437500e-01
-1.06665375e-06,3.32343750e-01
-1.06649375e-06,3.07500000e-01
-1.06633375e-06,2.89687500e-01
-1.06617375e-06,2.99531250e-01
-1.06601375e-06,3.27656250e-01
-1.06585375e-06,3.36562500e-01
-1.06569375e-06,3.20156250e-01
-1.06553375e-06,3.07968750e-01
-1.06537375e-06,3.14062500e-01
-1.06521375e-06,3.21562500e-01
-1.06505375e-06,3.08437500e-01
-1.06489375e-06,2.80781250e-01
-1.06473375e-06,2.70468750e-01
-1.06457375e-06,2.81718750e-01
-1.06441375e-06,2.81718750e-01
-1.06425375e-06,2.69531250e-01
-1.06409375e-06,2.80781250e-01
-1.06393375e-06,3.15937500e-01
-1.06377375e-06,3.30937500e-01
-1.06361375e-06,3.14062500e-01
-1.06345375e-06,3.05625000e-01
-1.06329375e-06,3.30937500e-01
-1.06313375e-06,3.63281250e-01
-1.06297375e-06,3.61875000e-01
-1.06281375e-06,3.19687500e-01
-1.06265375e-06,2.68593750e-01
-1.06249375e-06,2.42812500e-01
-1.06233375e-06,2.58281250e-01
-1.06217375e-06,3.11250000e-01
-1.06201375e-06,3.59531250e-01
-1.06185375e-06,3.55781250e-01
-1.06169375e-06,3.17812500e-01
-1.06153375e-06,3.04687500e-01
-1.06137375e-06,3.16406250e-01
-1.06121375e-06,3.11718750e-01
-1.06105375e-06,2.92968750e-01
-1.06089375e-06,2.81718750e-01
-1.06073375e-06,2.71406250e-01
-1.06057375e-06,2.63906250e-01
-1.06041375e-06,2.75625000e-01
-1.06025375e-06,3.05156250e-01
-1.06009375e-06,3.41718750e-01
-1.05993375e-06,3.66562500e-01
-1.05977375e-06,3.60000000e-01
-1.05961375e-06,3.32812500e-01
-1.05945375e-06,3.09375000e-01
-1.05929375e-06,2.99531250e-01
-1.05913375e-06,2.98125000e-01
-1.05897375e-06,3.00468750e-01
-1.05881375e-06,3.11250000e-01
-1.05865375e-06,3.28125000e-01
-1.05849375e-06,3.32343750e-01
-1.05833375e-06,3.26718750e-01
-1.05817375e-06,3.27187500e-01
-1.05801375e-06,3.21093750e-01
-1.05785375e-06,3.00000000e-01
-1.05769375e-06,2.92031250e-01
-1.05753375e-06,3.04218750e-01
-1.05737375e-06,2.99531250e-01
-1.05721375e-06,2.80312500e-01
-1.05705375e-06,2.93906250e-01
-1.05689375e-06,3.38906250e-01
-1.05673375e-06,3.56718750e-01
-1.05657375e-06,3.28593750e-01
-1.05641375e-06,2.92031250e-01
-1.05625375e-06,2.78906250e-01
-1.05609375e-06,2.91562500e-01
-1.05593375e-06,3.12656250e-01
-1.05577375e-06,3.23437500e-01
-1.05561375e-06,3.25781250e-01
-1.05545375e-06,3.31875000e-01
-1.05529375e-06,3.41250000e-01
-1.05513375e-06,3.52031250e-01
-1.05497375e-06,3.75000000e-01
-1.05481375e-06,3.94218750e-01
-1.05465375e-06,3.82968750e-01
-1.05449375e-06,3.51562500e-01
-1.05433375e-06,3.25312500e-01
-1.05417375e-06,3.15937500e-01
-1.05401375e-06,3.26250000e-01
-1.05385375e-06,3.39375000e-01
-1.05369375e-06,3.34218750e-01
-1.05353375e-06,3.29531250e-01
-1.05337375e-06,3.49687500e-01
-1.05321375e-06,3.67031250e-01
-1.05305375e-06,3.45000000e-01
-1.05289375e-06,3.03281250e-01
-1.05273375e-06,2.85937500e-01
-1.05257375e-06,2.93437500e-01
-1.05241375e-06,3.00468750e-01
-1.05225375e-06,2.96718750e-01
-1.05209375e-06,2.92500000e-01
-1.05193375e-06,3.01406250e-01
-1.05177375e-06,3.22968750e-01
-1.05161375e-06,3.42656250e-01
-1.05145375e-06,3.50156250e-01
-1.05129375e-06,3.37031250e-01
-1.05113375e-06,3.07968750e-01
-1.05097375e-06,2.88281250e-01
-1.05081375e-06,2.82187500e-01
-1.05065375e-06,2.65312500e-01
-1.05049375e-06,2.36718750e-01
-1.05033375e-06,2.28281250e-01
-1.05017375e-06,2.62968750e-01
-1.05001375e-06,3.22031250e-01
-1.04985375e-06,3.61406250e-01
-1.04969375e-06,3.60468750e-01
-1.04953375e-06,3.36562500e-01
-1.04937375e-06,3.07500000e-01
-1.04921375e-06,2.80781250e-01
-1.04905375e-06,2.62968750e-01
-1.04889375e-06,2.60156250e-01
-1.04873375e-06,2.72812500e-01
-1.04857375e-06,2.85000000e-01
-1.04841375e-06,2.85000000e-01
-1.04825375e-06,2.90156250e-01
-1.04809375e-06,3.10312500e-01
-1.04793375e-06,3.17812500e-01
-1.04777375e-06,2.99062500e-01
-1.04761375e-06,2.76562500e-01
-1.04745375e-06,2.74218750e-01
-1.04729375e-06,2.92968750e-01
-1.04713375e-06,3.11718750e-01
-1.04697375e-06,3.19687500e-01
-1.04681375e-06,3.24843750e-01
-1.04665375e-06,3.34687500e-01
-1.04649375e-06,3.39375000e-01
-1.04633375e-06,3.29531250e-01
-1.04617375e-06,3.18750000e-01
-1.04601375e-06,3.21562500e-01
-1.04585375e-06,3.28125000e-01
-1.04569375e-06,3.27187500e-01
-1.04553375e-06,3.21093750e-01
-1.04537375e-06,3.09843750e-01
-1.04521375e-06,2.96718750e-01
-1.04505375e-06,2.93906250e-01
-1.04489375e-06,3.04218750e-01
-1.04473375e-06,3.07031250e-01
-1.04457375e-06,2.90625000e-01
-1.04441375e-06,2.70000000e-01
-1.04425375e-06,2.65781250e-01
-1.04409375e-06,2.82656250e-01
-1.04393375e-06,3.09843750e-01
-1.04377375e-06,3.41250000e-01
-1.04361375e-06,3.73125000e-01
-1.04345375e-06,3.82031250e-01
-1.04329375e-06,3.54843750e-01
-1.04313375e-06,3.19218750e-01
-1.04297375e-06,3.04218750e-01
-1.04281375e-06,3.05156250e-01
-1.04265375e-06,3.02812500e-01
-1.04249375e-06,2.88750000e-01
-1.04233375e-06,2.76562500e-01
-1.04217375e-06,2.77500000e-01
-1.04201375e-06,2.77500000e-01
-1.04185375e-06,2.75625000e-01
-1.04169375e-06,2.93906250e-01
-1.04153375e-06,3.19218750e-01
-1.04137375e-06,3.15000000e-01
-1.04121375e-06,2.99531250e-01
-1.04105375e-06,3.19218750e-01
-1.04089375e-06,3.62812500e-01
-1.04073375e-06,3.91406250e-01
-1.04057375e-06,3.97500000e-01
-1.04041375e-06,3.77812500e-01
-1.04025375e-06,3.24375000e-01
-1.04009375e-06,2.71875000e-01
-1.03993375e-06,2.69062500e-01
-1.03977375e-06,3.00000000e-01
-1.03961375e-06,3.08906250e-01
-1.03945375e-06,2.91093750e-01
-1.03929375e-06,2.91562500e-01
-1.03913375e-06,3.28125000e-01
-1.03897375e-06,3.70781250e-01
-1.03881375e-06,3.82968750e-01
-1.03865375e-06,3.61406250e-01
-1.03849375e-06,3.36562500e-01
-1.03833375e-06,3.22968750e-01
-1.03817375e-06,3.00468750e-01
-1.03801375e-06,2.72343750e-01
-1.03785375e-06,2.71406250e-01
-1.03769375e-06,2.95312500e-01
-1.03753375e-06,3.22500000e-01
-1.03737375e-06,3.32812500e-01
-1.03721375e-06,3.14531250e-01
-1.03705375e-06,2.92031250e-01
-1.03689375e-06,2.85937500e-01
-1.03673375e-06,2.82187500e-01
-1.03657375e-06,2.77500000e-01
-1.03641375e-06,2.94843750e-01
-1.03625375e-06,3.28593750e-01
-1.03609375e-06,3.41718750e-01
-1.03593375e-06,3.24843750e-01
-1.03577375e-06,3.03750000e-01
-1.03561375e-06,2.93906250e-01
-1.03545375e-06,2.90625000e-01
-1.03529375e-06,2.90156250e-01
-1.03513375e-06,3.02812500e-01
-1.03497375e-06,3.33281250e-01
-1.03481375e-06,3.51562500e-01
-1.03465375e-06,3.31875000e-01
-1.03449375e-06,2.99062500e-01
-1.03433375e-06,2.82656250e-01
-1.03417375e-06,2.84062500e-01
-1.03401375e-06,2.93906250e-01
-1.03385375e-06,2.91562500e-01
-1.03369375e-06,2.74218750e-01
-1.03353375e-06,2.66718750e-01
-1.03337375e-06,2.84531250e-01
-1.03321375e-06,3.16406250e-01
-1.03305375e-06,3.43593750e-01
-1.03289375e-06,3.52500000e-01
-1.03273375e-06,3.43593750e-01
-1.03257375e-06,3.37968750e-01
-1.03241375e-06,3.43593750e-01
-1.03225375e-06,3.30937500e-01
-1.03209375e-06,2.89218750e-01
-1.03193375e-06,2.67187500e-01
-1.03177375e-06,2.96718750e-01
-1.03161375e-06,3.34687500e-01
-1.03145375e-06,3.40312500e-01
-1.03129375e-06,3.24843750e-01
-1.03113375e-06,3.10312500e-01
-1.03097375e-06,2.99062500e-01
-1.03081375e-06,2.97656250e-01
-1.03065375e-06,3.14531250e-01
-1.03049375e-06,3.34218750e-01
-1.03033375e-06,3.36562500e-01
-1.03017375e-06,3.27656250e-01
-1.03001375e-06,3.24843750e-01
-1.02985375e-06,3.35156250e-01
-1.02969375e-06,3.50156250e-01
-1.02953375e-06,3.50156250e-01
-1.02937375e-06,3.38437500e-01
-1.02921375e-06,3.34218750e-01
-1.02905375e-06,3.33281250e-01
-1.02889375e-06,3.37500000e-01
-1.02873375e-06,3.43593750e-01
-1.02857375e-06,3.31406250e-01
-1.02841375e-06,3.09375000e-01
-1.02825375e-06,3.03281250e-01
-1.02809375e-06,3.06093750e-01
-1.02793375e-06,3.06093750e-01
-1.02777375e-06,3.07500000e-01
-1.02761375e-06,3.04218750e-01
-1.02745375e-06,2.81718750e-01
-1.02729375e-06,2.59218750e-01
-1.02713375e-06,2.70468750e-01
-1.02697375e-06,3.05156250e-01
-1.02681375e-06,3.27656250e-01
-1.02665375e-06,3.30000000e-01
-1.02649375e-06,3.24375000e-01
-1.02633375e-06,3.22031250e-01
-1.02617375e-06,3.16875000e-01
-1.02601375e-06,2.95781250e-01
-1.02585375e-06,2.82656250e-01
-1.02569375e-06,3.11718750e-01
-1.02553375e-06,3.57187500e-01
-1.02537375e-06,3.73593750e-01
-1.02521375e-06,3.63281250e-01
-1.02505375e-06,3.49687500e-01
-1.02489375e-06,3.28125000e-01
-1.02473375e-06,2.97187500e-01
-1.02457375e-06,2.93437500e-01
-1.02441375e-06,3.19218750e-01
-1.02425375e-06,3.30000000e-01
-1.02409375e-06,3.17343750e-01
-1.02393375e-06,3.12187500e-01
-1.02377375e-06,3.27656250e-01
-1.02361375e-06,3.46875000e-01
-1.02345375e-06,3.45468750e-01
-1.02329375e-06,3.34687500e-01
-1.02313375e-06,3.44062500e-01
-1.02297375e-06,3.45937500e-01
-1.02281375e-06,3.06562500e-01
-1.02265375e-06,2.66718750e-01
-1.02249375e-06,2.73281250e-01
-1.02233375e-06,3.04687500e-01
-1.02217375e-06,3.24375000e-01
-1.02201375e-06,3.37968750e-01
-1.02185375e-06,3.58593750e-01
-1.02169375e-06,3.67031250e-01
-1.02153375e-06,3.37500000e-01
-1.02137375e-06,2.86875000e-01
-1.02121375e-06,2.70000000e-01
-1.02105375e-06,2.95781250e-01
-1.02089375e-06,3.20625000e-01
-1.02073375e-06,3.21562500e-01
-1.02057375e-06,3.16875000e-01
-1.02041375e-06,3.17812500e-01
-1.02025375e-06,3.22500000e-01
-1.02009375e-06,3.19218750e-01
-1.01993375e-06,2.95312500e-01
-1.01977375e-06,2.73281250e-01
-1.01961375e-06,2.84062500e-01
-1.01945375e-06,3.07968750e-01
-1.01929375e-06,3.07968750e-01
-1.01913375e-06,2.87343750e-01
-1.01897375e-06,2.68125000e-01
-1.01881375e-06,2.57812500e-01
-1.01865375e-06,2.63906250e-01
-1.01849375e-06,2.79375000e-01
-1.01833375e-06,2.85937500e-01
-1.01817375e-06,2.88750000e-01
-1.01801375e-06,3.05156250e-01
-1.01785375e-06,3.22500000e-01
-1.01769375e-06,3.20625000e-01
-1.01753375e-06,3.09375000e-01
-1.01737375e-06,3.08437500e-01
-1.01721375e-06,3.07500000e-01
-1.01705375e-06,2.97187500e-01
-1.01689375e-06,2.97187500e-01
-1.01673375e-06,3.19687500e-01
-1.01657375e-06,3.47343750e-01
-1.01641375e-06,3.56718750e-01
-1.01625375e-06,3.38906250e-01
-1.01609375e-06,3.08437500e-01
-1.01593375e-06,2.90156250e-01
-1.01577375e-06,2.86875000e-01
-1.01561375e-06,2.77500000e-01
-1.01545375e-06,2.63906250e-01
-1.01529375e-06,2.68125000e-01
-1.01513375e-06,2.93906250e-01
-1.01497375e-06,3.20156250e-01
-1.01481375e-06,3.28593750e-01
-1.01465375e-06,3.15000000e-01
-1.01449375e-06,2.89218750e-01
-1.01433375e-06,2.67656250e-01
-1.01417375e-06,2.62968750e-01
-1.01401375e-06,2.73750000e-01
-1.01385375e-06,2.75625000e-01
-1.01369375e-06,2.61562500e-01
-1.01353375e-06,2.62031250e-01
-1.01337375e-06,2.86875000e-01
-1.01321375e-06,3.08437500e-01
-1.01305375e-06,3.18281250e-01
-1.01289375e-06,3.29062500e-01
-1.01273375e-06,3.42187500e-01
-1.01257375e-06,3.45000000e-01
-1.01241375e-06,3.30000000e-01
-1.01225375e-06,3.15000000e-01
-1.01209375e-06,3.17343750e-01
-1.01193375e-06,3.20625000e-01
-1.01177375e-06,3.17812500e-01
-1.01161375e-06,3.27656250e-01
-1.01145375e-06,3.37500000e-01
-1.01129375e-06,3.09375000e-01
-1.01113375e-06,2.66250000e-01
-1.01097375e-06,2.71875000e-01
-1.01081375e-06,3.08437500e-01
-1.01065375e-06,3.11718750e-01
-1.01049375e-06,2.79843750e-01
-1.01033375e-06,2.57343750e-01
-1.01017375e-06,2.70468750e-01
-1.01001375e-06,3.08437500e-01
-1.00985375e-06,3.33750000e-01
-1.00969375e-06,3.22031250e-01
-1.00953375e-06,2.95312500e-01
-1.00937375e-06,2.87343750e-01
-1.00921375e-06,2.94375000e-01
-1.00905375e-06,2.95781250e-01
-1.00889375e-06,2.93906250e-01
-1.00873375e-06,2.95312500e-01
-1.00857375e-06,2.89218750e-01
-1.00841375e-06,2.78437500e-01
-1.00825375e-06,2.78437500e-01
-1.00809375e-06,2.90625000e-01
-1.00793375e-06,3.07031250e-01
-1.00777375e-06,3.10781250e-01
-1.00761375e-06,2.78437500e-01
-1.00745375e-06,2.28750000e-01
-1.00729375e-06,2.10000000e-01
-1.00713375e-06,2.29218750e-01
-1.00697375e-06,2.55000000e-01
-1.00681375e-06,2.72812500e-01
-1.00665375e-06,2.86406250e-01
-1.00649375e-06,2.92031250e-01
-1.00633375e-06,2.95312500e-01
-1.00617375e-06,3.13125000e-01
-1.00601375e-06,3.30468750e-01
-1.00585375e-06,3.16875000e-01
-1.00569375e-06,2.90156250e-01
-1.00553375e-06,2.92031250e-01
-1.00537375e-06,3.20625000e-01
-1.00521375e-06,3.60000000e-01
-1.00505375e-06,4.24687500e-01
-1.00489375e-06,5.46093750e-01
-1.00473375e-06,7.27500000e-01
-1.00457375e-06,9.25312500e-01
-1.00441375e-06,1.09500000e+00
-1.00425375e-06,1.23328125e+00
-1.00409375e-06,1.35890625e+00
-1.00393375e-06,1.48265625e+00
-1.00377375e-06,1.60171875e+00
-1.00361375e-06,1.70765625e+00
-1.00345375e-06,1.81078125e+00
-1.00329375e-06,1.95187500e+00
-1.00313375e-06,2.15109375e+00
-1.00297375e-06,2.39578125e+00
-1.00281375e-06,2.69343750e+00
-1.00265375e-06,3.06328125e+00
-1.00249375e-06,3.46546875e+00
-1.00233375e-06,3.83953125e+00
-1.00217375e-06,4.19109375e+00
-1.00201375e-06,4.54687500e+00
-1.00185375e-06,4.88671875e+00
-1.00169375e-06,5.18906250e+00
-1.00153375e-06,5.47875000e+00
-1.00137375e-06,5.78953125e+00
-1.00121375e-06,6.14953125e+00
-1.00105375e-06,6.58640625e+00
-1.00089375e-06,7.09125000e+00
-1.00073375e-06,7.60453125e+00
-1.00057375e-06,8.08500000e+00
-1.00041375e-06,8.53875000e+00
-1.00025375e-06,8.99625000e+00
-1.00009375e-06,9.49078125e+00
-9.99933750e-07,1.00134375e+01
-9.99773750e-07,1.05112500e+01
-9.99613750e-07,1.09635938e+01
-9.99453750e-07,1.14070313e+01
-9.99293750e-07,1.18739063e+01
-9.99133750e-07,1.23909375e+01
-9.98973750e-07,1.29909375e+01
-9.98813750e-07,1.36795313e+01
-9.98653750e-07,1.44412500e+01
-9.98493750e-07,1.53014063e+01
-9.98333750e-07,1.62970312e+01
