Experiment1/part2/logs/1.IG,15V,HS_ALL.csv

Model,MSO68B
Channel,CH8
Label,
Waveform Type,ANALOG
Digital Type,None
Horizontal Units,s
Sample Interval,1.60000000e-10
Record Length,7500
Zero Index,2699.95703125
Vertical Units,V
,
ANALOG_Thumbnail,
yOffset,0.000000
yPosition,0.360000

Labels,
TIME,CH8
-4.31993125e-07,1.87500000e-03
-4.31833125e-07,2.15625000e-02
-4.31673125e-07,-1.56250000e-03
-4.31513125e-07,-2.40625000e-02
-4.31353125e-07,1.48437500e-02
-4.31193125e-07,3.75000000e-02
-4.31033125e-07,-3.75000000e-03
-4.30873125e-07,-1.07812500e-02
-4.30713125e-07,2.45312500e-02
-4.30553125e-07,4.21875000e-03
-4.30393125e-07,-3.06250000e-02
-4.30233125e-07,-2.65625000e-03
-4.30073125e-07,1.92187500e-02
-4.29913125e-07,-2.18750000e-03
-4.29753125e-07,-2.81250000e-03
-4.29593125e-07,7.18750000e-03
-4.29433125e-07,-1.21875000e-02
-4.29273125e-07,-2.75000000e-02
-4.29113125e-07,-2.71875000e-02
-4.28953125e-07,-2.59375000e-02
-4.28793125e-07,-6.09375000e-03
-4.28633125e-07,2.34375000e-03
-4.28473125e-07,-3.62500000e-02
-4.28313125e-07,-4.76562500e-02
-4.28153125e-07,0.00000000e+00
-4.27993125e-07,1.25000000e-03
-4.27833125e-07,-5.89062500e-02
-4.27673125e-07,-6.06250000e-02
-4.27513125e-07,-5.31250000e-03
-4.27353125e-07,-6.71875000e-03
-4.27193125e-07,-5.18750000e-02
-4.27033125e-07,-5.25000000e-02
-4.26873125e-07,-3.09375000e-02
-4.26713125e-07,-3.82812500e-02
-4.26553125e-07,-4.73437500e-02
-4.26393125e-07,-3.79687500e-02
-4.26233125e-07,-2.20312500e-02
-4.26073125e-07,-9.84375000e-03
-4.25913125e-07,-3.20312500e-02
-4.25753125e-07,-7.29687500e-02
-4.25593125e-07,-5.54687500e-02
-4.25433125e-07,-1.57812500e-02
-4.25273125e-07,-5.57812500e-02
-4.25113125e-07,-1.02187500e-01
-4.24953125e-07,-5.10937500e-02
-4.24793125e-07,-5.78125000e-03
-4.24633125e-07,-4.82812500e-02
-4.24473125e-07,-6.14062500e-02
-4.24313125e-07,-2.96875000e-03
-4.24153125e-07,7.81250000e-04
-4.23993125e-07,-6.25000000e-02
-4.23833125e-07,-6.71875000e-02
-4.23673125e-07,-1.35937500e-02
-4.23513125e-07,-5.31250000e-03
-4.23353125e-07,-2.93750000e-02
-4.23193125e-07,-2.03125000e-02
-4.23033125e-07,-1.12500000e-02
-4.22873125e-07,-2.79687500e-02
-4.22713125e-07,-2.17187500e-02
-4.22553125e-07,3.59375000e-03
-4.22393125e-07,1.71875000e-03
-4.22233125e-07,-1.39062500e-02
-4.22073125e-07,-2.04687500e-02
-4.21913125e-07,-1.93750000e-02
-4.21753125e-07,-7.81250000e-04
-4.21593125e-07,1.25000000e-02
-4.21433125e-07,-1.40625000e-02
-4.21273125e-07,-3.50000000e-02
-4.21113125e-07,-1.20312500e-02
-4.20953125e-07,-6.71875000e-03
-4.20793125e-07,-3.93750000e-02
-4.20633125e-07,-3.04687500e-02
-4.20473125e-07,2.28125000e-02
-4.20313125e-07,2.54687500e-02
-4.20153125e-07,-1.40625000e-02
-4.19993125e-07,6.25000000e-04
-4.19833125e-07,3.92187500e-02
-4.19673125e-07,1.14062500e-02
-4.19513125e-07,-3.31250000e-02
-4.19353125e-07,-1.65625000e-02
-4.19193125e-07,2.06250000e-02
-4.19033125e-07,3.20312500e-02
-4.18873125e-07,2.28125000e-02
-4.18713125e-07,1.87500000e-03
-4.18553125e-07,-2.96875000e-03
-4.18393125e-07,2.81250000e-03
-4.18233125e-07,-1.73437500e-02
-4.18073125e-07,-1.20312500e-02
-4.17913125e-07,3.76562500e-02
-4.17753125e-07,1.50000000e-02
-4.17593125e-07,-5.67187500e-02
-4.17433125e-07,-1.45312500e-02
-4.17273125e-07,7.26562500e-02
-4.17113125e-07,4.00000000e-02
-4.16953125e-07,-2.68750000e-02
-4.16793125e-07,-9.21875000e-03
-4.16633125e-07,2.09375000e-02
-4.16473125e-07,4.53125000e-03
-4.16313125e-07,-2.23437500e-02
-4.16153125e-07,-3.70312500e-02
-4.15993125e-07,-2.70312500e-02
-4.15833125e-07,1.71875000e-03
-4.15673125e-07,3.12500000e-04
-4.15513125e-07,-3.04687500e-02
-4.15353125e-07,-2.68750000e-02
-4.15193125e-07,6.56250000e-03
-4.15033125e-07,4.21875000e-03
-4.14873125e-07,-2.06250000e-02
-4.14713125e-07,-2.65625000e-03
-4.14553125e-07,2.14062500e-02
-4.14393125e-07,-1.76562500e-02
-4.14233125e-07,-5.10937500e-02
-4.14073125e-07,-4.68750000e-04
-4.13913125e-07,4.29687500e-02
-4.13753125e-07,4.68750000e-04
-4.13593125e-07,-3.79687500e-02
-4.13433125e-07,-1.90625000e-02
-4.13273125e-07,-2.09375000e-02
-4.13113125e-07,-4.68750000e-02
-4.12953125e-07,-1.57812500e-02
-4.12793125e-07,3.73437500e-02
-4.12633125e-07,2.67187500e-02
-4.12473125e-07,-9.53125000e-03
-4.12313125e-07,-9.06250000e-03
-4.12153125e-07,1.43750000e-02
-4.11993125e-07,4.35937500e-02
-4.11833125e-07,5.26562500e-02
-4.11673125e-07,1.79687500e-02
-4.11513125e-07,1.71875000e-03
-4.11353125e-07,3.59375000e-02
-4.11193125e-07,4.21875000e-02
-4.11033125e-07,1.78125000e-02
-4.10873125e-07,3.20312500e-02
-4.10713125e-07,4.43750000e-02
-4.10553125e-07,2.18750000e-02
-4.10393125e-07,3.89062500e-02
-4.10233125e-07,8.78125000e-02
-4.10073125e-07,7.89062500e-02
-4.09913125e-07,3.90625000e-02
-4.09753125e-07,4.95312500e-02
-4.09593125e-07,8.51562500e-02
-4.09433125e-07,7.53125000e-02
-4.09273125e-07,3.26562500e-02
-4.09113125e-07,2.56250000e-02
-4.08953125e-07,5.79687500e-02
-4.08793125e-07,6.71875000e-02
-4.08633125e-07,4.42187500e-02
-4.08473125e-07,4.12500000e-02
-4.08313125e-07,6.75000000e-02
-4.08153125e-07,8.00000000e-02
-4.07993125e-07,6.00000000e-02
-4.07833125e-07,4.09375000e-02
-4.07673125e-07,5.25000000e-02
-4.07513125e-07,6.46875000e-02
-4.07353125e-07,5.32812500e-02
-4.07193125e-07,6.21875000e-02
-4.07033125e-07,9.21875000e-02
-4.06873125e-07,7.92187500e-02
-4.06713125e-07,4.85937500e-02
-4.06553125e-07,6.34375000e-02
-4.06393125e-07,7.79687500e-02
-4.06233125e-07,5.70312500e-02
-4.06073125e-07,5.06250000e-02
-4.05913125e-07,5.98437500e-02
-4.05753125e-07,5.76562500e-02
-4.05593125e-07,6.35937500e-02
-4.05433125e-07,6.76562500e-02
-4.05273125e-07,5.40625000e-02
-4.05113125e-07,6.26562500e-02
-4.04953125e-07,8.34375000e-02
-4.04793125e-07,6.31250000e-02
-4.04633125e-07,4.09375000e-02
-4.04473125e-07,6.60937500e-02
-4.04313125e-07,7.60937500e-02
-4.04153125e-07,3.40625000e-02
-4.03993125e-07,2.12500000e-02
-4.03833125e-07,5.90625000e-02
-4.03673125e-07,5.10937500e-02
-4.03513125e-07,-1.25000000e-03
-4.03353125e-07,1.45312500e-02
-4.03193125e-07,7.32812500e-02
-4.03033125e-07,5.59375000e-02
-4.02873125e-07,5.46875000e-03
-4.02713125e-07,2.46875000e-02
-4.02553125e-07,5.98437500e-02
-4.02393125e-07,4.14062500e-02
-4.02233125e-07,2.14062500e-02
-4.02073125e-07,2.96875000e-02
-4.01913125e-07,3.28125000e-02
-4.01753125e-07,2.96875000e-02
-4.01593125e-07,2.35937500e-02
-4.01433125e-07,1.12500000e-02
-4.01273125e-07,2.31250000e-02
-4.01113125e-07,4.46875000e-02
-4.00953125e-07,2.34375000e-02
-4.00793125e-07,2.34375000e-03
-4.00633125e-07,2.71875000e-02
-4.00473125e-07,2.50000000e-02
-4.00313125e-07,-1.60937500e-02
-4.00153125e-07,2.65625000e-03
-3.99993125e-07,6.06250000e-02
-3.99833125e-07,5.48437500e-02
-3.99673125e-07,1.81250000e-02
-3.99513125e-07,3.17187500e-02
-3.99353125e-07,7.06250000e-02
-3.99193125e-07,7.93750000e-02
-3.99033125e-07,5.40625000e-02
-3.98873125e-07,2.23437500e-02
-3.98713125e-07,1.98437500e-02
-3.98553125e-07,4.71875000e-02
-3.98393125e-07,5.26562500e-02
-3.98233125e-07,2.20312500e-02
-3.98073125e-07,1.37500000e-02
-3.97913125e-07,3.95312500e-02
-3.97753125e-07,3.90625000e-02
-3.97593125e-07,1.89062500e-02
-3.97433125e-07,3.76562500e-02
-3.97273125e-07,6.00000000e-02
-3.97113125e-07,3.95312500e-02
-3.96953125e-07,3.71875000e-02
-3.96793125e-07,6.84375000e-02
-3.96633125e-07,5.29687500e-02
-3.96473125e-07,1.12500000e-02
-3.96313125e-07,3.12500000e-02
-3.96153125e-07,7.39062500e-02
-3.95993125e-07,6.14062500e-02
-3.95833125e-07,2.60937500e-02
-3.95673125e-07,2.04687500e-02
-3.95513125e-07,3.31250000e-02
-3.95353125e-07,3.98437500e-02
-3.95193125e-07,3.75000000e-02
-3.95033125e-07,3.59375000e-02
-3.94873125e-07,4.25000000e-02
-3.94713125e-07,4.01562500e-02
-3.94553125e-07,1.43750000e-02
-3.94393125e-07,-1.56250000e-04
-3.94233125e-07,2.90625000e-02
-3.94073125e-07,4.98437500e-02
-3.93913125e-07,1.59375000e-02
-3.93753125e-07,-2.81250000e-03
-3.93593125e-07,4.28125000e-02
-3.93433125e-07,6.57812500e-02
-3.93273125e-07,1.96875000e-02
-3.93113125e-07,-7.50000000e-03
-3.92953125e-07,1.54687500e-02
-3.92793125e-07,1.60937500e-02
-3.92633125e-07,-6.87500000e-03
-3.92473125e-07,5.46875000e-03
-3.92313125e-07,2.65625000e-02
-3.92153125e-07,1.07812500e-02
-3.91993125e-07,-7.65625000e-03
-3.91833125e-07,-4.84375000e-03
-3.91673125e-07,1.56250000e-04
-3.91513125e-07,1.37500000e-02
-3.91353125e-07,2.17187500e-02
-3.91193125e-07,-5.78125000e-03
-3.91033125e-07,-1.39062500e-02
-3.90873125e-07,2.03125000e-02
-3.90713125e-07,5.15625000e-03
-3.90553125e-07,-3.96875000e-02
-3.90393125e-07,-1.56250000e-03
-3.90233125e-07,4.32812500e-02
-3.90073125e-07,-5.93750000e-03
-3.89913125e-07,-3.15625000e-02
-3.89753125e-07,2.09375000e-02
-3.89593125e-07,2.50000000e-02
-3.89433125e-07,-2.67187500e-02
-3.89273125e-07,-3.68750000e-02
-3.89113125e-07,-1.56250000e-02
-3.88953125e-07,4.84375000e-03
-3.88793125e-07,2.56250000e-02
-3.88633125e-07,8.28125000e-03
-3.88473125e-07,-3.10937500e-02
-3.88313125e-07,-1.59375000e-02
-3.88153125e-07,1.71875000e-02
-3.87993125e-07,-7.34375000e-03
-3.87833125e-07,-3.62500000e-02
-3.87673125e-07,-1.89062500e-02
-3.87513125e-07,-1.39062500e-02
-3.87353125e-07,-2.96875000e-02
-3.87193125e-07,-8.43750000e-03
-3.87033125e-07,1.21875000e-02
-3.86873125e-07,-3.18750000e-02
-3.86713125e-07,-6.60937500e-02
-3.86553125e-07,-1.42187500e-02
-3.86393125e-07,2.75000000e-02
-3.86233125e-07,-2.57812500e-02
-3.86073125e-07,-7.07812500e-02
-3.85913125e-07,-3.42187500e-02
-3.85753125e-07,-1.87500000e-02
-3.85593125e-07,-5.31250000e-02
-3.85433125e-07,-3.67187500e-02
-3.85273125e-07,6.25000000e-03
-3.85113125e-07,-8.28125000e-03
-3.84953125e-07,-1.98437500e-02
-3.84793125e-07,1.51562500e-02
-3.84633125e-07,2.06250000e-02
-3.84473125e-07,-1.53125000e-02
-3.84313125e-07,-2.89062500e-02
-3.84153125e-07,-3.28125000e-03
-3.83993125e-07,3.70312500e-02
-3.83833125e-07,4.06250000e-02
-3.83673125e-07,-1.10937500e-02
-3.83513125e-07,-3.29687500e-02
-3.83353125e-07,9.37500000e-03
-3.83193125e-07,1.93750000e-02
-3.83033125e-07,-1.87500000e-02
-3.82873125e-07,-1.26562500e-02
-3.82713125e-07,2.60937500e-02
-3.82553125e-07,2.10937500e-02
-3.82393125e-07,-7.18750000e-03
-3.82233125e-07,-1.37500000e-02
-3.82073125e-07,-1.87500000e-02
-3.81913125e-07,-3.28125000e-02
-3.81753125e-07,-2.90625000e-02
-3.81593125e-07,-5.93750000e-03
-3.81433125e-07,1.21875000e-02
-3.81273125e-07,1.59375000e-02
-3.81113125e-07,4.68750000e-03
-3.80953125e-07,-1.76562500e-02
-3.80793125e-07,-2.35937500e-02
-3.80633125e-07,-1.56250000e-03
-3.80473125e-07,4.21875000e-03
-3.80313125e-07,-1.89062500e-02
-3.80153125e-07,-1.78125000e-02
-3.79993125e-07,-8.43750000e-03
-3.79833125e-07,-4.48437500e-02
-3.79673125e-07,-5.25000000e-02
-3.79513125e-07,1.64062500e-02
-3.79353125e-07,3.09375000e-02
-3.79193125e-07,-4.23437500e-02
-3.79033125e-07,-5.57812500e-02
-3.78873125e-07,-3.59375000e-03
-3.78713125e-07,-6.09375000e-03
-3.78553125e-07,-3.89062500e-02
-3.78393125e-07,-2.92187500e-02
-3.78233125e-07,-1.31250000e-02
-3.78073125e-07,-1.70312500e-02
-3.77913125e-07,-1.85937500e-02
-3.77753125e-07,-2.76562500e-02
-3.77593125e-07,-4.18750000e-02
-3.77433125e-07,-3.32812500e-02
-3.77273125e-07,-2.39062500e-02
-3.77113125e-07,-3.71875000e-02
-3.76953125e-07,-3.51562500e-02
-3.76793125e-07,-1.17187500e-02
-3.76633125e-07,-1.48437500e-02
-3.76473125e-07,-3.03125000e-02
-3.76313125e-07,-1.40625000e-02
-3.76153125e-07,6.25000000e-04
-3.75993125e-07,-1.70312500e-02
-3.75833125e-07,-2.00000000e-02
-3.75673125e-07,-1.25000000e-03
-3.75513125e-07,-1.65625000e-02
-3.75353125e-07,-4.78125000e-02
-3.75193125e-07,-3.73437500e-02
-3.75033125e-07,-1.75000000e-02
-3.74873125e-07,-3.14062500e-02
-3.74713125e-07,-4.09375000e-02
-3.74553125e-07,-2.45312500e-02
-3.74393125e-07,-1.18750000e-02
-3.74233125e-07,-6.71875000e-03
-3.74073125e-07,-1.17187500e-02
-3.73913125e-07,-3.18750000e-02
-3.73753125e-07,-2.31250000e-02
-3.73593125e-07,8.75000000e-03
-3.73433125e-07,-1.81250000e-02
-3.73273125e-07,-6.00000000e-02
-3.73113125e-07,-1.37500000e-02
-3.72953125e-07,3.28125000e-02
-3.72793125e-07,-1.37500000e-02
-3.72633125e-07,-4.10937500e-02
-3.72473125e-07,-2.50000000e-03
-3.72313125e-07,-7.18750000e-03
-3.72153125e-07,-3.95312500e-02
-3.71993125e-07,-9.68750000e-03
-3.71833125e-07,2.54687500e-02
-3.71673125e-07,-1.56250000e-04
-3.71513125e-07,-3.18750000e-02
-3.71353125e-07,-2.31250000e-02
-3.71193125e-07,1.07812500e-02
-3.71033125e-07,3.65625000e-02
-3.70873125e-07,1.18750000e-02
-3.70713125e-07,-4.09375000e-02
-3.70553125e-07,-3.76562500e-02
-3.70393125e-07,2.03125000e-03
-3.70233125e-07,-1.26562500e-02
-3.70073125e-07,-3.84375000e-02
-3.69913125e-07,4.21875000e-03
-3.69753125e-07,2.96875000e-02
-3.69593125e-07,-2.90625000e-02
-3.69433125e-07,-4.96875000e-02
-3.69273125e-07,1.46875000e-02
-3.69113125e-07,2.48437500e-02
-3.68953125e-07,-3.43750000e-02
-3.68793125e-07,-3.06250000e-02
-3.68633125e-07,1.90625000e-02
-3.68473125e-07,9.37500000e-03
-3.68313125e-07,-2.18750000e-02
-3.68153125e-07,-6.40625000e-03
-3.67993125e-07,1.59375000e-02
-3.67833125e-07,1.07812500e-02
-3.67673125e-07,-2.96875000e-03
-3.67513125e-07,-2.03125000e-02
-3.67353125e-07,-2.20312500e-02
-3.67193125e-07,1.48437500e-02
-3.67033125e-07,3.85937500e-02
-3.66873125e-07,9.84375000e-03
-3.66713125e-07,-2.96875000e-03
-3.66553125e-07,2.35937500e-02
-3.66393125e-07,1.29687500e-02
-3.66233125e-07,-1.75000000e-02
-3.66073125e-07,1.54687500e-02
-3.65913125e-07,5.32812500e-02
-3.65753125e-07,2.00000000e-02
-3.65593125e-07,-1.09375000e-03
-3.65433125e-07,3.87500000e-02
-3.65273125e-07,4.73437500e-02
-3.65113125e-07,1.26562500e-02
-3.64953125e-07,2.00000000e-02
-3.64793125e-07,4.60937500e-02
-3.64633125e-07,1.85937500e-02
-3.64473125e-07,-1.14062500e-02
-3.64313125e-07,2.07812500e-02
-3.64153125e-07,5.81250000e-02
-3.63993125e-07,4.32812500e-02
-3.63833125e-07,2.09375000e-02
-3.63673125e-07,3.21875000e-02
-3.63513125e-07,5.39062500e-02
-3.63353125e-07,5.56250000e-02
-3.63193125e-07,2.50000000e-02
-3.63033125e-07,-5.78125000e-03
-3.62873125e-07,1.76562500e-02
-3.62713125e-07,5.20312500e-02
-3.62553125e-07,2.14062500e-02
-3.62393125e-07,-1.87500000e-03
-3.62233125e-07,4.25000000e-02
-3.62073125e-07,4.87500000e-02
-3.61913125e-07,1.56250000e-03
-3.61753125e-07,2.04687500e-02
-3.61593125e-07,6.43750000e-02
-3.61433125e-07,3.32812500e-02
-3.61273125e-07,6.71875000e-03
-3.61113125e-07,4.04687500e-02
-3.60953125e-07,5.85937500e-02
-3.60793125e-07,5.15625000e-02
-3.60633125e-07,4.50000000e-02
-3.60473125e-07,2.17187500e-02
-3.60313125e-07,2.51562500e-02
-3.60153125e-07,6.95312500e-02
-3.59993125e-07,6.03125000e-02
-3.59833125e-07,1.54687500e-02
-3.59673125e-07,4.42187500e-02
-3.59513125e-07,8.59375000e-02
-3.59353125e-07,5.29687500e-02
-3.59193125e-07,3.06250000e-02
-3.59033125e-07,5.40625000e-02
-3.58873125e-07,4.10937500e-02
-3.58713125e-07,1.71875000e-02
-3.58553125e-07,4.57812500e-02
-3.58393125e-07,7.14062500e-02
-3.58233125e-07,6.17187500e-02
-3.58073125e-07,5.70312500e-02
-3.57913125e-07,5.85937500e-02
-3.57753125e-07,6.25000000e-02
-3.57593125e-07,6.68750000e-02
-3.57433125e-07,3.65625000e-02
-3.57273125e-07,8.59375000e-03
-3.57113125e-07,5.50000000e-02
-3.56953125e-07,1.06250000e-01
-3.56793125e-07,7.25000000e-02
-3.56633125e-07,2.48437500e-02
-3.56473125e-07,4.23437500e-02
-3.56313125e-07,6.84375000e-02
-3.56153125e-07,4.89062500e-02
-3.55993125e-07,3.90625000e-02
-3.55833125e-07,7.68750000e-02
-3.55673125e-07,8.89062500e-02
-3.55513125e-07,3.67187500e-02
-3.55353125e-07,6.09375000e-03
-3.55193125e-07,3.71875000e-02
-3.55033125e-07,5.71875000e-02
-3.54873125e-07,4.56250000e-02
-3.54713125e-07,4.79687500e-02
-3.54553125e-07,5.10937500e-02
-3.54393125e-07,3.29687500e-02
-3.54233125e-07,3.15625000e-02
-3.54073125e-07,5.45312500e-02
-3.53913125e-07,6.43750000e-02
-3.53753125e-07,6.18750000e-02
-3.53593125e-07,5.95312500e-02
-3.53433125e-07,5.06250000e-02
-3.53273125e-07,5.48437500e-02
-3.53113125e-07,6.98437500e-02
-3.52953125e-07,4.56250000e-02
-3.52793125e-07,1.45312500e-02
-3.52633125e-07,5.15625000e-02
-3.52473125e-07,8.35937500e-02
-3.52313125e-07,3.48437500e-02
-3.52153125e-07,1.93750000e-02
-3.51993125e-07,7.75000000e-02
-3.51833125e-07,6.56250000e-02
-3.51673125e-07,-4.53125000e-03
-3.51513125e-07,1.03125000e-02
-3.51353125e-07,5.85937500e-02
-3.51193125e-07,4.00000000e-02
-3.51033125e-07,2.03125000e-02
-3.50873125e-07,3.82812500e-02
-3.50713125e-07,4.73437500e-02
-3.50553125e-07,5.43750000e-02
-3.50393125e-07,5.29687500e-02
-3.50233125e-07,1.90625000e-02
-3.50073125e-07,1.20312500e-02
-3.49913125e-07,4.73437500e-02
-3.49753125e-07,4.00000000e-02
-3.49593125e-07,3.43750000e-03
-3.49433125e-07,1.70312500e-02
-3.49273125e-07,3.82812500e-02
-3.49113125e-07,1.34375000e-02
-3.48953125e-07,5.78125000e-03
-3.48793125e-07,3.71875000e-02
-3.48633125e-07,3.75000000e-02
-3.48473125e-07,1.54687500e-02
-3.48313125e-07,3.32812500e-02
-3.48153125e-07,5.29687500e-02
-3.47993125e-07,2.60937500e-02
-3.47833125e-07,5.46875000e-03
-3.47673125e-07,2.31250000e-02
-3.47513125e-07,3.60937500e-02
-3.47353125e-07,3.04687500e-02
-3.47193125e-07,1.68750000e-02
-3.47033125e-07,-1.71875000e-03
-3.46873125e-07,5.31250000e-03
-3.46713125e-07,4.25000000e-02
-3.46553125e-07,5.17187500e-02
-3.46393125e-07,3.23437500e-02
-3.46233125e-07,3.95312500e-02
-3.46073125e-07,4.35937500e-02
-3.45913125e-07,7.03125000e-03
-3.45753125e-07,5.62500000e-03
-3.45593125e-07,5.71875000e-02
-3.45433125e-07,5.62500000e-02
-3.45273125e-07,4.06250000e-03
-3.45113125e-07,-3.28125000e-03
-3.44953125e-07,1.45312500e-02
-3.44793125e-07,1.10937500e-02
-3.44633125e-07,2.46875000e-02
-3.44473125e-07,4.39062500e-02
-3.44313125e-07,2.93750000e-02
-3.44153125e-07,1.82812500e-02
-3.43993125e-07,1.73437500e-02
-3.43833125e-07,2.81250000e-03
-3.43673125e-07,1.57812500e-02
-3.43513125e-07,4.65625000e-02
-3.43353125e-07,3.29687500e-02
-3.43193125e-07,2.76562500e-02
-3.43033125e-07,7.04687500e-02
-3.42873125e-07,6.54687500e-02
-3.42713125e-07,1.01562500e-02
-3.42553125e-07,1.20312500e-02
-3.42393125e-07,5.25000000e-02
-3.42233125e-07,5.20312500e-02
-3.42073125e-07,2.10937500e-02
-3.41913125e-07,-5.31250000e-03
-3.41753125e-07,-3.90625000e-03
-3.41593125e-07,2.59375000e-02
-3.41433125e-07,2.65625000e-02
-3.41273125e-07,-6.09375000e-03
-3.41113125e-07,-4.37500000e-03
-3.40953125e-07,1.37500000e-02
-3.40793125e-07,-1.87500000e-03
-3.40633125e-07,-1.17187500e-02
-3.40473125e-07,1.23437500e-02
-3.40313125e-07,3.50000000e-02
-3.40153125e-07,2.92187500e-02
-3.39993125e-07,-7.03125000e-03
-3.39833125e-07,-3.18750000e-02
-3.39673125e-07,-1.26562500e-02
-3.39513125e-07,-1.28125000e-02
-3.39353125e-07,-4.45312500e-02
-3.39193125e-07,-1.64062500e-02
-3.39033125e-07,2.87500000e-02
-3.38873125e-07,-7.34375000e-03
-3.38713125e-07,-2.93750000e-02
-3.38553125e-07,2.78125000e-02
-3.38393125e-07,4.17187500e-02
-3.38233125e-07,-6.25000000e-04
-3.38073125e-07,7.03125000e-03
-3.37913125e-07,3.39062500e-02
-3.37753125e-07,1.42187500e-02
-3.37593125e-07,-1.35937500e-02
-3.37433125e-07,-2.17187500e-02
-3.37273125e-07,-1.76562500e-02
-3.37113125e-07,-4.06250000e-03
-3.36953125e-07,-7.03125000e-03
-3.36793125e-07,-2.40625000e-02
-3.36633125e-07,-1.21875000e-02
-3.36473125e-07,2.50000000e-03
-3.36313125e-07,-2.84375000e-02
-3.36153125e-07,-4.87500000e-02
-3.35993125e-07,-1.03125000e-02
-3.35833125e-07,1.28125000e-02
-3.35673125e-07,-2.50000000e-02
-3.35513125e-07,-4.79687500e-02
-3.35353125e-07,-1.56250000e-02
-3.35193125e-07,1.20312500e-02
-3.35033125e-07,9.37500000e-04
-3.34873125e-07,-1.95312500e-02
-3.34713125e-07,-2.04687500e-02
-3.34553125e-07,-2.03125000e-03
-3.34393125e-07,5.78125000e-03
-3.34233125e-07,-1.29687500e-02
-3.34073125e-07,-1.67187500e-02
-3.33913125e-07,1.35937500e-02
-3.33753125e-07,2.14062500e-02
-3.33593125e-07,-8.28125000e-03
-3.33433125e-07,-9.06250000e-03
-3.33273125e-07,2.51562500e-02
-3.33113125e-07,2.14062500e-02
-3.32953125e-07,-1.45312500e-02
-3.32793125e-07,-7.34375000e-03
-3.32633125e-07,2.18750000e-02
-3.32473125e-07,0.00000000e+00
-3.32313125e-07,-3.34375000e-02
-3.32153125e-07,-9.84375000e-03
-3.31993125e-07,2.23437500e-02
-3.31833125e-07,7.03125000e-03
-3.31673125e-07,-1.26562500e-02
