Experiment1/part2/logs/7.IG,15V,LS,T2_ALL.csv

Model,MSO68B
Channel,CH8
Label,
Waveform Type,ANALOG
Digital Type,None
Horizontal Units,s
Sample Interval,1.60000000e-10
Record Length,7500
Zero Index,1949.75390625
Vertical Units,V
,
ANALOG_Thumbnail,
yOffset,0.000000
yPosition,0.440000

Labels,
TIME,CH8
-3.11960625e-07,-5.31250000e-02
-3.11800625e-07,-8.91250000e-02
-3.11640625e-07,-1.13500000e-01
-3.11480625e-07,-8.95000000e-02
-3.11320625e-07,-7.26250000e-02
-3.11160625e-07,-9.83750000e-02
-3.11000625e-07,-1.15750000e-01
-3.10840625e-07,-9.45000000e-02
-3.10680625e-07,-8.95000000e-02
-3.10520625e-07,-1.17625000e-01
-3.10360625e-07,-1.13250000e-01
-3.10200625e-07,-7.61250000e-02
-3.10040625e-07,-7.41250000e-02
-3.09880625e-07,-1.00375000e-01
-3.09720625e-07,-1.05500000e-01
-3.09560625e-07,-9.31250000e-02
-3.09400625e-07,-8.57500000e-02
-3.09240625e-07,-8.80000000e-02
-3.09080625e-07,-9.12500000e-02
-3.08920625e-07,-8.27500000e-02
-3.08760625e-07,-7.46250000e-02
-3.08600625e-07,-8.53750000e-02
-3.08440625e-07,-9.41250000e-02
-3.08280625e-07,-8.72500000e-02
-3.08120625e-07,-9.15000000e-02
-3.07960625e-07,-1.10500000e-01
-3.07800625e-07,-1.07875000e-01
-3.07640625e-07,-8.23750000e-02
-3.07480625e-07,-8.30000000e-02
-3.07320625e-07,-1.11125000e-01
-3.07160625e-07,-1.03125000e-01
-3.07000625e-07,-6.58750000e-02
-3.06840625e-07,-7.53750000e-02
-3.06680625e-07,-1.16250000e-01
-3.06520625e-07,-1.14875000e-01
-3.06360625e-07,-8.52500000e-02
-3.06200625e-07,-8.32500000e-02
-3.06040625e-07,-1.08625000e-01
-3.05880625e-07,-1.22250000e-01
-3.05720625e-07,-1.08125000e-01
-3.05560625e-07,-1.05500000e-01
-3.05400625e-07,-1.30750000e-01
-3.05240625e-07,-1.25375000e-01
-3.05080625e-07,-8.37500000e-02
-3.04920625e-07,-7.50000000e-02
-3.04760625e-07,-9.91250000e-02
-3.04600625e-07,-1.12000000e-01
-3.04440625e-07,-1.06375000e-01
-3.04280625e-07,-8.93750000e-02
-3.04120625e-07,-9.10000000e-02
-3.03960625e-07,-1.09125000e-01
-3.03800625e-07,-8.13750000e-02
-3.03640625e-07,-4.41250000e-02
-3.03480625e-07,-8.02500000e-02
-3.03320625e-07,-1.20000000e-01
-3.03160625e-07,-1.01000000e-01
-3.03000625e-07,-9.56250000e-02
-3.02840625e-07,-1.10375000e-01
-3.02680625e-07,-9.12500000e-02
-3.02520625e-07,-7.38750000e-02
-3.02360625e-07,-8.77500000e-02
-3.02200625e-07,-1.02000000e-01
-3.02040625e-07,-1.06875000e-01
-3.01880625e-07,-9.93750000e-02
-3.01720625e-07,-8.36250000e-02
-3.01560625e-07,-8.77500000e-02
-3.01400625e-07,-9.82500000e-02
-3.01240625e-07,-8.77500000e-02
-3.01080625e-07,-8.58750000e-02
-3.00920625e-07,-1.02500000e-01
-3.00760625e-07,-9.62500000e-02
-3.00600625e-07,-7.26250000e-02
-3.00440625e-07,-7.50000000e-02
-3.00280625e-07,-9.36250000e-02
-3.00120625e-07,-8.75000000e-02
-2.99960625e-07,-6.57500000e-02
-2.99800625e-07,-7.02500000e-02
-2.99640625e-07,-1.00125000e-01
-2.99480625e-07,-1.11125000e-01
-2.99320625e-07,-8.90000000e-02
-2.99160625e-07,-7.35000000e-02
-2.99000625e-07,-9.16250000e-02
-2.98840625e-07,-1.07375000e-01
-2.98680625e-07,-9.23750000e-02
-2.98520625e-07,-8.87500000e-02
-2.98360625e-07,-1.09750000e-01
-2.98200625e-07,-9.51250000e-02
-2.98040625e-07,-5.35000000e-02
-2.97880625e-07,-5.35000000e-02
-2.97720625e-07,-7.83750000e-02
-2.97560625e-07,-8.55000000e-02
-2.97400625e-07,-9.03750000e-02
-2.97240625e-07,-9.23750000e-02
-2.97080625e-07,-8.43750000e-02
-2.96920625e-07,-9.01250000e-02
-2.96760625e-07,-1.02500000e-01
-2.96600625e-07,-1.02375000e-01
-2.96440625e-07,-1.03375000e-01
-2.96280625e-07,-9.58750000e-02
-2.96120625e-07,-7.13750000e-02
-2.95960625e-07,-7.16250000e-02
-2.95800625e-07,-1.00250000e-01
-2.95640625e-07,-9.95000000e-02
-2.95480625e-07,-6.91250000e-02
-2.95320625e-07,-6.78750000e-02
-2.95160625e-07,-9.46250000e-02
-2.95000625e-07,-9.55000000e-02
-2.94840625e-07,-7.58750000e-02
-2.94680625e-07,-8.28750000e-02
-2.94520625e-07,-1.02750000e-01
-2.94360625e-07,-9.86250000e-02
-2.94200625e-07,-8.33750000e-02
-2.94040625e-07,-7.18750000e-02
-2.93880625e-07,-6.72500000e-02
-2.93720625e-07,-8.28750000e-02
-2.93560625e-07,-9.52500000e-02
-2.93400625e-07,-8.23750000e-02
-2.93240625e-07,-8.40000000e-02
-2.93080625e-07,-9.53750000e-02
-2.92920625e-07,-6.68750000e-02
-2.92760625e-07,-4.36250000e-02
-2.92600625e-07,-7.05000000e-02
-2.92440625e-07,-8.27500000e-02
-2.92280625e-07,-6.46250000e-02
-2.92120625e-07,-7.70000000e-02
-2.91960625e-07,-1.00875000e-01
-2.91800625e-07,-8.76250000e-02
-2.91640625e-07,-6.85000000e-02
-2.91480625e-07,-7.76250000e-02
-2.91320625e-07,-9.77500000e-02
-2.91160625e-07,-1.06000000e-01
-2.91000625e-07,-9.16250000e-02
-2.90840625e-07,-6.95000000e-02
-2.90680625e-07,-7.65000000e-02
-2.90520625e-07,-9.98750000e-02
-2.90360625e-07,-8.92500000e-02
-2.90200625e-07,-6.63750000e-02
-2.90040625e-07,-8.28750000e-02
-2.89880625e-07,-9.31250000e-02
-2.89720625e-07,-5.58750000e-02
-2.89560625e-07,-4.85000000e-02
-2.89400625e-07,-9.48750000e-02
-2.89240625e-07,-1.01375000e-01
-2.89080625e-07,-6.82500000e-02
-2.88920625e-07,-7.97500000e-02
-2.88760625e-07,-1.02500000e-01
-2.88600625e-07,-7.23750000e-02
-2.88440625e-07,-4.83750000e-02
-2.88280625e-07,-8.48750000e-02
-2.88120625e-07,-1.17750000e-01
-2.87960625e-07,-9.23750000e-02
-2.87800625e-07,-6.16250000e-02
-2.87640625e-07,-7.38750000e-02
-2.87480625e-07,-9.20000000e-02
-2.87320625e-07,-8.88750000e-02
-2.87160625e-07,-9.42500000e-02
-2.87000625e-07,-1.08750000e-01
-2.86840625e-07,-1.06125000e-01
-2.86680625e-07,-8.46250000e-02
-2.86520625e-07,-5.43750000e-02
-2.86360625e-07,-5.51250000e-02
-2.86200625e-07,-1.10500000e-01
-2.86040625e-07,-1.31750000e-01
-2.85880625e-07,-7.50000000e-02
-2.85720625e-07,-5.63750000e-02
-2.85560625e-07,-9.80000000e-02
-2.85400625e-07,-8.81250000e-02
-2.85240625e-07,-5.86250000e-02
-2.85080625e-07,-9.28750000e-02
-2.84920625e-07,-1.13000000e-01
-2.84760625e-07,-7.77500000e-02
-2.84600625e-07,-7.43750000e-02
-2.84440625e-07,-1.01500000e-01
-2.84280625e-07,-9.52500000e-02
-2.84120625e-07,-8.32500000e-02
-2.83960625e-07,-8.97500000e-02
-2.83800625e-07,-8.23750000e-02
-2.83640625e-07,-7.83750000e-02
-2.83480625e-07,-9.77500000e-02
-2.83320625e-07,-9.36250000e-02
-2.83160625e-07,-6.87500000e-02
-2.83000625e-07,-8.26250000e-02
-2.82840625e-07,-1.01625000e-01
-2.82680625e-07,-7.32500000e-02
-2.82520625e-07,-5.75000000e-02
-2.82360625e-07,-8.36250000e-02
-2.82200625e-07,-8.50000000e-02
-2.82040625e-07,-6.75000000e-02
-2.81880625e-07,-8.17500000e-02
-2.81720625e-07,-8.75000000e-02
-2.81560625e-07,-6.13750000e-02
-2.81400625e-07,-6.00000000e-02
-2.81240625e-07,-8.76250000e-02
-2.81080625e-07,-9.52500000e-02
-2.80920625e-07,-8.53750000e-02
-2.80760625e-07,-8.13750000e-02
-2.80600625e-07,-8.11250000e-02
-2.80440625e-07,-8.97500000e-02
-2.80280625e-07,-1.07875000e-01
-2.80120625e-07,-1.07125000e-01
-2.79960625e-07,-8.28750000e-02
-2.79800625e-07,-7.80000000e-02
-2.79640625e-07,-1.00750000e-01
-2.79480625e-07,-1.05625000e-01
-2.79320625e-07,-9.20000000e-02
-2.79160625e-07,-9.82500000e-02
-2.79000625e-07,-1.00250000e-01
-2.78840625e-07,-7.33750000e-02
-2.78680625e-07,-7.68750000e-02
-2.78520625e-07,-1.18500000e-01
-2.78360625e-07,-1.11125000e-01
-2.78200625e-07,-6.20000000e-02
-2.78040625e-07,-6.50000000e-02
-2.77880625e-07,-1.04375000e-01
-2.77720625e-07,-1.04875000e-01
-2.77560625e-07,-8.10000000e-02
-2.77400625e-07,-7.48750000e-02
-2.77240625e-07,-8.26250000e-02
-2.77080625e-07,-9.23750000e-02
-2.76920625e-07,-9.42500000e-02
-2.76760625e-07,-8.82500000e-02
-2.76600625e-07,-9.60000000e-02
-2.76440625e-07,-1.07875000e-01
-2.76280625e-07,-9.00000000e-02
-2.76120625e-07,-7.05000000e-02
-2.75960625e-07,-8.63750000e-02
-2.75800625e-07,-9.46250000e-02
-2.75640625e-07,-7.21250000e-02
-2.75480625e-07,-7.71250000e-02
-2.75320625e-07,-1.13000000e-01
-2.75160625e-07,-1.11375000e-01
-2.75000625e-07,-8.43750000e-02
-2.74840625e-07,-9.33750000e-02
-2.74680625e-07,-1.12625000e-01
-2.74520625e-07,-9.37500000e-02
-2.74360625e-07,-6.71250000e-02
-2.74200625e-07,-7.56250000e-02
-2.74040625e-07,-1.05750000e-01
-2.73880625e-07,-1.14750000e-01
-2.73720625e-07,-8.52500000e-02
-2.73560625e-07,-6.03750000e-02
-2.73400625e-07,-8.36250000e-02
-2.73240625e-07,-1.12750000e-01
-2.73080625e-07,-9.62500000e-02
-2.72920625e-07,-7.10000000e-02
-2.72760625e-07,-7.65000000e-02
-2.72600625e-07,-8.60000000e-02
-2.72440625e-07,-8.45000000e-02
-2.72280625e-07,-9.27500000e-02
-2.72120625e-07,-1.08250000e-01
-2.71960625e-07,-1.05125000e-01
-2.71800625e-07,-8.61250000e-02
-2.71640625e-07,-8.25000000e-02
-2.71480625e-07,-9.72500000e-02
-2.71320625e-07,-9.38750000e-02
-2.71160625e-07,-7.46250000e-02
-2.71000625e-07,-8.31250000e-02
-2.70840625e-07,-1.04625000e-01
-2.70680625e-07,-9.52500000e-02
-2.70520625e-07,-8.73750000e-02
-2.70360625e-07,-1.11875000e-01
-2.70200625e-07,-1.24625000e-01
-2.70040625e-07,-1.12500000e-01
-2.69880625e-07,-1.07000000e-01
-2.69720625e-07,-1.02625000e-01
-2.69560625e-07,-9.92500000e-02
-2.69400625e-07,-1.08500000e-01
-2.69240625e-07,-9.80000000e-02
-2.69080625e-07,-7.38750000e-02
-2.68920625e-07,-9.18750000e-02
-2.68760625e-07,-1.21250000e-01
-2.68600625e-07,-9.97500000e-02
-2.68440625e-07,-6.91250000e-02
-2.68280625e-07,-8.31250000e-02
-2.68120625e-07,-1.09875000e-01
-2.67960625e-07,-1.05875000e-01
-2.67800625e-07,-8.95000000e-02
-2.67640625e-07,-1.02875000e-01
-2.67480625e-07,-1.22750000e-01
-2.67320625e-07,-1.00875000e-01
-2.67160625e-07,-8.57500000e-02
-2.67000625e-07,-1.21875000e-01
-2.66840625e-07,-1.29000000e-01
-2.66680625e-07,-8.62500000e-02
-2.66520625e-07,-8.82500000e-02
-2.66360625e-07,-1.20250000e-01
-2.66200625e-07,-1.01625000e-01
-2.66040625e-07,-7.67500000e-02
-2.65880625e-07,-1.01000000e-01
-2.65720625e-07,-1.30500000e-01
-2.65560625e-07,-1.28250000e-01
-2.65400625e-07,-1.01750000e-01
-2.65240625e-07,-7.82500000e-02
-2.65080625e-07,-9.50000000e-02
-2.64920625e-07,-1.24625000e-01
-2.64760625e-07,-1.05500000e-01
-2.64600625e-07,-7.65000000e-02
-2.64440625e-07,-1.00000000e-01
-2.64280625e-07,-1.20250000e-01
-2.64120625e-07,-8.51250000e-02
-2.63960625e-07,-6.48750000e-02
-2.63800625e-07,-1.00625000e-01
-2.63640625e-07,-1.20625000e-01
-2.63480625e-07,-9.98750000e-02
-2.63320625e-07,-1.01625000e-01
-2.63160625e-07,-1.23375000e-01
-2.63000625e-07,-1.07250000e-01
-2.62840625e-07,-7.51250000e-02
-2.62680625e-07,-7.73750000e-02
-2.62520625e-07,-9.67500000e-02
-2.62360625e-07,-1.04250000e-01
-2.62200625e-07,-9.67500000e-02
-2.62040625e-07,-7.75000000e-02
-2.61880625e-07,-7.53750000e-02
-2.61720625e-07,-1.05500000e-01
-2.61560625e-07,-1.21000000e-01
-2.61400625e-07,-1.01000000e-01
-2.61240625e-07,-9.05000000e-02
-2.61080625e-07,-9.53750000e-02
-2.60920625e-07,-8.70000000e-02
-2.60760625e-07,-8.86250000e-02
-2.60600625e-07,-1.08625000e-01
-2.60440625e-07,-9.90000000e-02
-2.60280625e-07,-7.47500000e-02
-2.60120625e-07,-9.55000000e-02
-2.59960625e-07,-1.17625000e-01
-2.59800625e-07,-8.60000000e-02
-2.59640625e-07,-6.78750000e-02
-2.59480625e-07,-1.00125000e-01
-2.59320625e-07,-1.09375000e-01
-2.59160625e-07,-8.52500000e-02
-2.59000625e-07,-8.32500000e-02
-2.58840625e-07,-9.55000000e-02
-2.58680625e-07,-1.05875000e-01
-2.58520625e-07,-1.21375000e-01
-2.58360625e-07,-1.06250000e-01
-2.58200625e-07,-6.67500000e-02
-2.58040625e-07,-7.71250000e-02
-2.57880625e-07,-1.19125000e-01
-2.57720625e-07,-1.14500000e-01
-2.57560625e-07,-9.21250000e-02
-2.57400625e-07,-1.10500000e-01
-2.57240625e-07,-1.30750000e-01
-2.57080625e-07,-1.12875000e-01
-2.56920625e-07,-9.61250000e-02
-2.56760625e-07,-1.02500000e-01
-2.56600625e-07,-9.75000000e-02
-2.56440625e-07,-8.90000000e-02
-2.56280625e-07,-1.10000000e-01
-2.56120625e-07,-1.17250000e-01
-2.55960625e-07,-7.70000000e-02
-2.55800625e-07,-5.65000000e-02
-2.55640625e-07,-8.28750000e-02
-2.55480625e-07,-1.02125000e-01
-2.55320625e-07,-1.13750000e-01
-2.55160625e-07,-1.27000000e-01
-2.55000625e-07,-1.03375000e-01
-2.54840625e-07,-7.83750000e-02
-2.54680625e-07,-1.04750000e-01
-2.54520625e-07,-1.13375000e-01
-2.54360625e-07,-7.88750000e-02
-2.54200625e-07,-9.17500000e-02
-2.54040625e-07,-1.33375000e-01
-2.53880625e-07,-1.10500000e-01
-2.53720625e-07,-7.76250000e-02
-2.53560625e-07,-1.05125000e-01
-2.53400625e-07,-1.15375000e-01
-2.53240625e-07,-7.47500000e-02
-2.53080625e-07,-7.43750000e-02
-2.52920625e-07,-1.17250000e-01
-2.52760625e-07,-1.16875000e-01
-2.52600625e-07,-9.15000000e-02
-2.52440625e-07,-9.83750000e-02
-2.52280625e-07,-1.02375000e-01
-2.52120625e-07,-8.75000000e-02
-2.51960625e-07,-8.88750000e-02
-2.51800625e-07,-9.06250000e-02
-2.51640625e-07,-8.80000000e-02
-2.51480625e-07,-1.04625000e-01
-2.51320625e-07,-9.43750000e-02
-2.51160625e-07,-5.58750000e-02
-2.51000625e-07,-7.63750000e-02
-2.50840625e-07,-1.13125000e-01
-2.50680625e-07,-7.72500000e-02
-2.50520625e-07,-6.61250000e-02
-2.50360625e-07,-1.36500000e-01
-2.50200625e-07,-1.43750000e-01
-2.50040625e-07,-6.70000000e-02
-2.49880625e-07,-6.68750000e-02
-2.49720625e-07,-1.31125000e-01
-2.49560625e-07,-1.13000000e-01
-2.49400625e-07,-6.07500000e-02
-2.49240625e-07,-9.37500000e-02
-2.49080625e-07,-1.30875000e-01
-2.48920625e-07,-8.68750000e-02
-2.48760625e-07,-6.00000000e-02
-2.48600625e-07,-9.20000000e-02
-2.48440625e-07,-9.76250000e-02
-2.48280625e-07,-8.46250000e-02
-2.48120625e-07,-9.93750000e-02
-2.47960625e-07,-1.03750000e-01
-2.47800625e-07,-9.30000000e-02
-2.47640625e-07,-8.97500000e-02
-2.47480625e-07,-7.12500000e-02
-2.47320625e-07,-7.21250000e-02
-2.47160625e-07,-1.19875000e-01
-2.47000625e-07,-1.20000000e-01
-2.46840625e-07,-6.18750000e-02
-2.46680625e-07,-6.55000000e-02
-2.46520625e-07,-1.13125000e-01
-2.46360625e-07,-1.01625000e-01
-2.46200625e-07,-7.55000000e-02
-2.46040625e-07,-9.38750000e-02
-2.45880625e-07,-9.41250000e-02
-2.45720625e-07,-6.30000000e-02
-2.45560625e-07,-7.90000000e-02
-2.45400625e-07,-1.30875000e-01
-2.45240625e-07,-1.32000000e-01
-2.45080625e-07,-8.71250000e-02
-2.44920625e-07,-6.32500000e-02
-2.44760625e-07,-7.07500000e-02
-2.44600625e-07,-9.40000000e-02
-2.44440625e-07,-1.22500000e-01
-2.44280625e-07,-1.18750000e-01
-2.44120625e-07,-9.17500000e-02
-2.43960625e-07,-1.02375000e-01
-2.43800625e-07,-1.20250000e-01
-2.43640625e-07,-8.40000000e-02
-2.43480625e-07,-6.23750000e-02
-2.43320625e-07,-1.08125000e-01
-2.43160625e-07,-1.25500000e-01
-2.43000625e-07,-7.68750000e-02
-2.42840625e-07,-6.51250000e-02
-2.42680625e-07,-1.11125000e-01
-2.42520625e-07,-1.19750000e-01
-2.42360625e-07,-8.30000000e-02
-2.42200625e-07,-8.27500000e-02
-2.42040625e-07,-1.11750000e-01
-2.41880625e-07,-1.03125000e-01
-2.41720625e-07,-7.55000000e-02
-2.41560625e-07,-7.82500000e-02
-2.41400625e-07,-9.50000000e-02
-2.41240625e-07,-1.01750000e-01
-2.41080625e-07,-9.86250000e-02
-2.40920625e-07,-9.35000000e-02
-2.40760625e-07,-1.11000000e-01
-2.40600625e-07,-1.28625000e-01
-2.40440625e-07,-9.22500000e-02
-2.40280625e-07,-5.50000000e-02
-2.40120625e-07,-8.66250000e-02
-2.39960625e-07,-1.12875000e-01
-2.39800625e-07,-8.21250000e-02
-2.39640625e-07,-7.57500000e-02
-2.39480625e-07,-1.03375000e-01
-2.39320625e-07,-8.73750000e-02
-2.39160625e-07,-6.00000000e-02
-2.39000625e-07,-9.26250000e-02
-2.38840625e-07,-1.25375000e-01
-2.38680625e-07,-8.95000000e-02
-2.38520625e-07,-5.12500000e-02
-2.38360625e-07,-7.47500000e-02
-2.38200625e-07,-1.09125000e-01
-2.38040625e-07,-1.11125000e-01
-2.37880625e-07,-1.03500000e-01
-2.37720625e-07,-9.55000000e-02
-2.37560625e-07,-9.13750000e-02
-2.37400625e-07,-1.01375000e-01
-2.37240625e-07,-9.21250000e-02
-2.37080625e-07,-6.60000000e-02
-2.36920625e-07,-8.31250000e-02
-2.36760625e-07,-1.10125000e-01
-2.36600625e-07,-8.56250000e-02
-2.36440625e-07,-8.13750000e-02
-2.36280625e-07,-1.25125000e-01
-2.36120625e-07,-1.09125000e-01
-2.35960625e-07,-4.55000000e-02
-2.35800625e-07,-5.43750000e-02
-2.35640625e-07,-1.04500000e-01
-2.35480625e-07,-1.06500000e-01
-2.35320625e-07,-9.76250000e-02
-2.35160625e-07,-1.07750000e-01
-2.35000625e-07,-9.20000000e-02
-2.34840625e-07,-7.26250000e-02
-2.34680625e-07,-1.01375000e-01
-2.34520625e-07,-1.29000000e-01
-2.34360625e-07,-1.14625000e-01
-2.34200625e-07,-1.08750000e-01
-2.34040625e-07,-1.15500000e-01
-2.33880625e-07,-9.25000000e-02
-2.33720625e-07,-7.95000000e-02
-2.33560625e-07,-9.91250000e-02
-2.33400625e-07,-8.58750000e-02
-2.33240625e-07,-5.62500000e-02
-2.33080625e-07,-8.71250000e-02
-2.32920625e-07,-1.28625000e-01
-2.32760625e-07,-1.14375000e-01
-2.32600625e-07,-1.00875000e-01
-2.32440625e-07,-1.12250000e-01
-2.32280625e-07,-9.72500000e-02
-2.32120625e-07,-8.02500000e-02
-2.31960625e-07,-1.08250000e-01
-2.31800625e-07,-1.29500000e-01
-2.31640625e-07,-1.01125000e-01
-2.31480625e-07,-7.53750000e-02
-2.31320625e-07,-8.37500000e-02
-2.31160625e-07,-9.07500000e-02
-2.31000625e-07,-8.53750000e-02
-2.30840625e-07,-7.68750000e-02
-2.30680625e-07,-6.10000000e-02
-2.30520625e-07,-7.03750000e-02
-2.30360625e-07,-1.15250000e-01
-2.30200625e-07,-1.18625000e-01
-2.30040625e-07,-8.43750000e-02
-2.29880625e-07,-1.06625000e-01
-2.29720625e-07,-1.35000000e-01
-2.29560625e-07,-8.80000000e-02
-2.29400625e-07,-6.82500000e-02
-2.29240625e-07,-1.16875000e-01
-2.29080625e-07,-1.06125000e-01
-2.28920625e-07,-5.48750000e-02
-2.28760625e-07,-8.60000000e-02
-2.28600625e-07,-1.34625000e-01
-2.28440625e-07,-1.06500000e-01
-2.28280625e-07,-7.46250000e-02
-2.28120625e-07,-9.03750000e-02
-2.27960625e-07,-9.96250000e-02
-2.27800625e-07,-9.03750000e-02
-2.27640625e-07,-9.25000000e-02
-2.27480625e-07,-1.00000000e-01
-2.27320625e-07,-1.06000000e-01
-2.27160625e-07,-1.11000000e-01
-2.27000625e-07,-9.42500000e-02
-2.26840625e-07,-7.03750000e-02
-2.26680625e-07,-8.56250000e-02
-2.26520625e-07,-1.09375000e-01
-2.26360625e-07,-8.85000000e-02
-2.26200625e-07,-7.55000000e-02
-2.26040625e-07,-1.04000000e-01
-2.25880625e-07,-9.56250000e-02
-2.25720625e-07,-5.33750000e-02
-2.25560625e-07,-7.43750000e-02
-2.25400625e-07,-1.28125000e-01
-2.25240625e-07,-1.19625000e-01
-2.25080625e-07,-7.93750000e-02
-2.24920625e-07,-7.46250000e-02
-2.24760625e-07,-9.26250000e-02
-2.24600625e-07,-9.73750000e-02
-2.24440625e-07,-8.71250000e-02
-2.24280625e-07,-8.70000000e-02
-2.24120625e-07,-1.03125000e-01
-2.23960625e-07,-1.01375000e-01
-2.23800625e-07,-7.87500000e-02
-2.23640625e-07,-7.81250000e-02
-2.23480625e-07,-9.92500000e-02
-2.23320625e-07,-9.86250000e-02
-2.23160625e-07,-7.13750000e-02
-2.23000625e-07,-6.28750000e-02
-2.22840625e-07,-9.83750000e-02
-2.22680625e-07,-1.23875000e-01
-2.22520625e-07,-9.21250000e-02
-2.22360625e-07,-6.95000000e-02
-2.22200625e-07,-1.02125000e-01
-2.22040625e-07,-1.10250000e-01
-2.21880625e-07,-7.68750000e-02
-2.21720625e-07,-8.68750000e-02
-2.21560625e-07,-1.19875000e-01
-2.21400625e-07,-1.06500000e-01
-2.21240625e-07,-8.65000000e-02
-2.21080625e-07,-9.53750000e-02
-2.20920625e-07,-9.98750000e-02
-2.20760625e-07,-9.72500000e-02
-2.20600625e-07,-9.60000000e-02
-2.20440625e-07,-8.38750000e-02
-2.20280625e-07,-7.72500000e-02
-2.20120625e-07,-8.60000000e-02
-2.19960625e-07,-8.70000000e-02
-2.19800625e-07,-8.51250000e-02
-2.19640625e-07,-9.82500000e-02
-2.19480625e-07,-1.03125000e-01
-2.19320625e-07,-8.38750000e-02
-2.19160625e-07,-8.01250000e-02
-2.19000625e-07,-1.10125000e-01
-2.18840625e-07,-1.22000000e-01
-2.18680625e-07,-9.86250000e-02
-2.18520625e-07,-1.00250000e-01
-2.18360625e-07,-1.27375000e-01
-2.18200625e-07,-1.14875000e-01
-2.18040625e-07,-8.53750000e-02
-2.17880625e-07,-9.78750000e-02
-2.17720625e-07,-1.13625000e-01
-2.17560625e-07,-9.46250000e-02
-2.17400625e-07,-8.45000000e-02
-2.17240625e-07,-9.51250000e-02
-2.17080625e-07,-9.41250000e-02
-2.16920625e-07,-9.63750000e-02
-2.16760625e-07,-1.13750000e-01
-2.16600625e-07,-1.14625000e-01
-2.16440625e-07,-1.07375000e-01
-2.16280625e-07,-1.15375000e-01
-2.16120625e-07,-1.08875000e-01
-2.15960625e-07,-9.30000000e-02
-2.15800625e-07,-1.09000000e-01
-2.15640625e-07,-1.17375000e-01
-2.15480625e-07,-8.53750000e-02
-2.15320625e-07,-7.67500000e-02
-2.15160625e-07,-9.53750000e-02
-2.15000625e-07,-7.85000000e-02
-2.14840625e-07,-6.55000000e-02
-2.14680625e-07,-1.01500000e-01
-2.14520625e-07,-1.15875000e-01
-2.14360625e-07,-8.57500000e-02
-2.14200625e-07,-8.08750000e-02
-2.14040625e-07,-1.06750000e-01
-2.13880625e-07,-1.19375000e-01
-2.13720625e-07,-1.16750000e-01
-2.13560625e-07,-1.01625000e-01
-2.13400625e-07,-8.07500000e-02
