Experiment1/Part1/3.sw,lowZ_ALL.csv

Model,MSO68B
Channel,CH4
Label,
Waveform Type,ANALOG
Digital Type,None
Horizontal Units,s
Sample Interval,1.60000000e-10
Record Length,13750
Zero Index,7287.66406250
Vertical Units,V
,
ANALOG_Thumbnail,
yOffset,0.000000
yPosition,-4.180000

Labels,
TIME,CH4
-1.16602625e-06,-1.24687500e-01
-1.16586625e-06,-1.23281250e-01
-1.16570625e-06,-1.41093750e-01
-1.16554625e-06,-9.14062500e-02
-1.16538625e-06,-6.14062500e-02
-1.16522625e-06,-1.70625000e-01
-1.16506625e-06,-2.64843750e-01
-1.16490625e-06,-2.02031250e-01
-1.16474625e-06,-1.30781250e-01
-1.16458625e-06,-1.73437500e-01
-1.16442625e-06,-2.21718750e-01
-1.16426625e-06,-1.79062500e-01
-1.16410625e-06,-1.07343750e-01
-1.16394625e-06,-1.11562500e-01
-1.16378625e-06,-1.68281250e-01
-1.16362625e-06,-1.50937500e-01
-1.16346625e-06,-7.35937500e-02
-1.16330625e-06,-8.57812500e-02
-1.16314625e-06,-1.61250000e-01
-1.16298625e-06,-1.64062500e-01
-1.16282625e-06,-1.37812500e-01
-1.16266625e-06,-1.65937500e-01
-1.16250625e-06,-1.79531250e-01
-1.16234625e-06,-1.45781250e-01
-1.16218625e-06,-1.49531250e-01
-1.16202625e-06,-1.82812500e-01
-1.16186625e-06,-1.52812500e-01
-1.16170625e-06,-9.32812500e-02
-1.16154625e-06,-1.14375000e-01
-1.16138625e-06,-1.88437500e-01
-1.16122625e-06,-1.97812500e-01
-1.16106625e-06,-1.40156250e-01
-1.16090625e-06,-1.11562500e-01
-1.16074625e-06,-1.44375000e-01
-1.16058625e-06,-1.65937500e-01
-1.16042625e-06,-1.19062500e-01
-1.16026625e-06,-8.01562500e-02
-1.16010625e-06,-1.49531250e-01
-1.15994625e-06,-2.42343750e-01
-1.15978625e-06,-2.17968750e-01
-1.15962625e-06,-1.43437500e-01
-1.15946625e-06,-1.36875000e-01
-1.15930625e-06,-1.32656250e-01
-1.15914625e-06,-7.64062500e-02
-1.15898625e-06,-6.46875000e-02
-1.15882625e-06,-1.11093750e-01
-1.15866625e-06,-9.56250000e-02
-1.15850625e-06,-1.40625000e-02
-1.15834625e-06,-4.68750000e-04
-1.15818625e-06,-7.64062500e-02
-1.15802625e-06,-1.13437500e-01
-1.15786625e-06,-8.25000000e-02
-1.15770625e-06,-8.90625000e-02
-1.15754625e-06,-1.30781250e-01
-1.15738625e-06,-1.06875000e-01
-1.15722625e-06,-5.67187500e-02
-1.15706625e-06,-9.00000000e-02
-1.15690625e-06,-1.43906250e-01
-1.15674625e-06,-1.03125000e-01
-1.15658625e-06,-4.40625000e-02
-1.15642625e-06,-8.06250000e-02
-1.15626625e-06,-1.18593750e-01
-1.15610625e-06,-5.76562500e-02
-1.15594625e-06,-1.59375000e-02
-1.15578625e-06,-6.84375000e-02
-1.15562625e-06,-1.05000000e-01
-1.15546625e-06,-1.01250000e-01
-1.15530625e-06,-1.10625000e-01
-1.15514625e-06,-9.56250000e-02
-1.15498625e-06,-9.18750000e-02
-1.15482625e-06,-1.50937500e-01
-1.15466625e-06,-1.36406250e-01
-1.15450625e-06,-6.28125000e-02
-1.15434625e-06,-1.33593750e-01
-1.15418625e-06,-2.18437500e-01
-1.15402625e-06,-1.15781250e-01
-1.15386625e-06,-4.68750000e-02
-1.15370625e-06,-1.33593750e-01
-1.15354625e-06,-1.39687500e-01
-1.15338625e-06,-6.75000000e-02
-1.15322625e-06,-1.04062500e-01
-1.15306625e-06,-1.70156250e-01
-1.15290625e-06,-1.66875000e-01
-1.15274625e-06,-1.68281250e-01
-1.15258625e-06,-1.94531250e-01
-1.15242625e-06,-2.11875000e-01
-1.15226625e-06,-2.00156250e-01
-1.15210625e-06,-1.39218750e-01
-1.15194625e-06,-1.15781250e-01
-1.15178625e-06,-1.86093750e-01
-1.15162625e-06,-1.98750000e-01
-1.15146625e-06,-1.13437500e-01
-1.15130625e-06,-1.07343750e-01
-1.15114625e-06,-1.72968750e-01
-1.15098625e-06,-1.57968750e-01
-1.15082625e-06,-1.19062500e-01
-1.15066625e-06,-1.39218750e-01
-1.15050625e-06,-1.42968750e-01
-1.15034625e-06,-1.38281250e-01
-1.15018625e-06,-1.81875000e-01
-1.15002625e-06,-1.95468750e-01
-1.14986625e-06,-1.64062500e-01
-1.14970625e-06,-1.73906250e-01
-1.14954625e-06,-1.92656250e-01
-1.14938625e-06,-1.80000000e-01
-1.14922625e-06,-1.94531250e-01
-1.14906625e-06,-1.99218750e-01
-1.14890625e-06,-1.35468750e-01
-1.14874625e-06,-9.46875000e-02
-1.14858625e-06,-1.09218750e-01
-1.14842625e-06,-9.23437500e-02
-1.14826625e-06,-7.87500000e-02
-1.14810625e-06,-1.44375000e-01
-1.14794625e-06,-2.01093750e-01
-1.14778625e-06,-1.80937500e-01
-1.14762625e-06,-1.56562500e-01
-1.14746625e-06,-1.68281250e-01
-1.14730625e-06,-1.87968750e-01
-1.14714625e-06,-1.86093750e-01
-1.14698625e-06,-1.27031250e-01
-1.14682625e-06,-6.37500000e-02
-1.14666625e-06,-1.10625000e-01
-1.14650625e-06,-1.88437500e-01
-1.14634625e-06,-1.42031250e-01
-1.14618625e-06,-7.50000000e-02
-1.14602625e-06,-1.20000000e-01
-1.14586625e-06,-1.35000000e-01
-1.14570625e-06,-5.06250000e-02
-1.14554625e-06,-3.37500000e-02
-1.14538625e-06,-8.67187500e-02
-1.14522625e-06,-6.60937500e-02
-1.14506625e-06,-3.23437500e-02
-1.14490625e-06,-8.53125000e-02
-1.14474625e-06,-1.42968750e-01
-1.14458625e-06,-1.35937500e-01
-1.14442625e-06,-8.90625000e-02
-1.14426625e-06,-4.45312500e-02
-1.14410625e-06,-7.31250000e-02
-1.14394625e-06,-1.35468750e-01
-1.14378625e-06,-9.56250000e-02
-1.14362625e-06,-4.12500000e-02
-1.14346625e-06,-1.13906250e-01
-1.14330625e-06,-1.50468750e-01
-1.14314625e-06,-6.51562500e-02
-1.14298625e-06,-7.12500000e-02
-1.14282625e-06,-1.72500000e-01
-1.14266625e-06,-1.62656250e-01
-1.14250625e-06,-8.95312500e-02
-1.14234625e-06,-7.07812500e-02
-1.14218625e-06,-7.35937500e-02
-1.14202625e-06,-1.15781250e-01
-1.14186625e-06,-1.74375000e-01
-1.14170625e-06,-1.45781250e-01
-1.14154625e-06,-1.05937500e-01
-1.14138625e-06,-1.29375000e-01
-1.14122625e-06,-1.07812500e-01
-1.14106625e-06,-7.64062500e-02
-1.14090625e-06,-1.25156250e-01
-1.14074625e-06,-1.28906250e-01
-1.14058625e-06,-7.73437500e-02
-1.14042625e-06,-1.26562500e-01
-1.14026625e-06,-1.86093750e-01
-1.14010625e-06,-1.36406250e-01
-1.13994625e-06,-1.14843750e-01
-1.13978625e-06,-1.62187500e-01
-1.13962625e-06,-1.58906250e-01
-1.13946625e-06,-1.31250000e-01
-1.13930625e-06,-1.19531250e-01
-1.13914625e-06,-8.67187500e-02
-1.13898625e-06,-1.05468750e-01
-1.13882625e-06,-1.76250000e-01
-1.13866625e-06,-1.44375000e-01
-1.13850625e-06,-6.65625000e-02
-1.13834625e-06,-1.05468750e-01
-1.13818625e-06,-1.45781250e-01
-1.13802625e-06,-7.96875000e-02
-1.13786625e-06,-5.90625000e-02
-1.13770625e-06,-1.32187500e-01
-1.13754625e-06,-1.61250000e-01
-1.13738625e-06,-1.49062500e-01
-1.13722625e-06,-1.84687500e-01
-1.13706625e-06,-2.20781250e-01
-1.13690625e-06,-1.84687500e-01
-1.13674625e-06,-1.31718750e-01
-1.13658625e-06,-1.42968750e-01
-1.13642625e-06,-1.80468750e-01
-1.13626625e-06,-1.57968750e-01
-1.13610625e-06,-1.05937500e-01
-1.13594625e-06,-1.23281250e-01
-1.13578625e-06,-1.81875000e-01
-1.13562625e-06,-1.77656250e-01
-1.13546625e-06,-1.30781250e-01
-1.13530625e-06,-1.18593750e-01
-1.13514625e-06,-1.20000000e-01
-1.13498625e-06,-1.05937500e-01
-1.13482625e-06,-9.70312500e-02
-1.13466625e-06,-9.14062500e-02
-1.13450625e-06,-1.11093750e-01
-1.13434625e-06,-1.79531250e-01
-1.13418625e-06,-1.96875000e-01
-1.13402625e-06,-1.22812500e-01
-1.13386625e-06,-1.03593750e-01
-1.13370625e-06,-1.55625000e-01
-1.13354625e-06,-1.27031250e-01
-1.13338625e-06,-5.95312500e-02
-1.13322625e-06,-7.26562500e-02
-1.13306625e-06,-9.42187500e-02
-1.13290625e-06,-7.87500000e-02
-1.13274625e-06,-9.18750000e-02
-1.13258625e-06,-1.04531250e-01
-1.13242625e-06,-8.29687500e-02
-1.13226625e-06,-9.79687500e-02
-1.13210625e-06,-1.35000000e-01
-1.13194625e-06,-1.23750000e-01
-1.13178625e-06,-1.04062500e-01
-1.13162625e-06,-1.12031250e-01
-1.13146625e-06,-1.00781250e-01
-1.13130625e-06,-7.40625000e-02
-1.13114625e-06,-8.34375000e-02
-1.13098625e-06,-1.05468750e-01
-1.13082625e-06,-9.51562500e-02
-1.13066625e-06,-7.54687500e-02
-1.13050625e-06,-7.45312500e-02
-1.13034625e-06,-7.21875000e-02
-1.13018625e-06,-5.81250000e-02
-1.13002625e-06,-5.81250000e-02
-1.12986625e-06,-7.54687500e-02
-1.12970625e-06,-8.67187500e-02
-1.12954625e-06,-9.98437500e-02
-1.12938625e-06,-1.28906250e-01
-1.12922625e-06,-1.29375000e-01
-1.12906625e-06,-8.43750000e-02
-1.12890625e-06,-7.59375000e-02
-1.12874625e-06,-1.26093750e-01
-1.12858625e-06,-1.31718750e-01
-1.12842625e-06,-7.21875000e-02
-1.12826625e-06,-5.01562500e-02
-1.12810625e-06,-8.76562500e-02
-1.12794625e-06,-1.05000000e-01
-1.12778625e-06,-7.68750000e-02
-1.12762625e-06,-7.12500000e-02
-1.12746625e-06,-1.31718750e-01
-1.12730625e-06,-1.71562500e-01
-1.12714625e-06,-1.24687500e-01
-1.12698625e-06,-1.14843750e-01
-1.12682625e-06,-2.00156250e-01
-1.12666625e-06,-2.11875000e-01
-1.12650625e-06,-1.30781250e-01
-1.12634625e-06,-1.41562500e-01
-1.12618625e-06,-2.03437500e-01
-1.12602625e-06,-1.53281250e-01
-1.12586625e-06,-8.71875000e-02
-1.12570625e-06,-1.27031250e-01
-1.12554625e-06,-1.68281250e-01
-1.12538625e-06,-1.36406250e-01
-1.12522625e-06,-9.56250000e-02
-1.12506625e-06,-8.76562500e-02
-1.12490625e-06,-1.08750000e-01
-1.12474625e-06,-1.33125000e-01
-1.12458625e-06,-1.29843750e-01
-1.12442625e-06,-1.49062500e-01
-1.12426625e-06,-2.16562500e-01
-1.12410625e-06,-2.30625000e-01
-1.12394625e-06,-1.77656250e-01
-1.12378625e-06,-1.76250000e-01
-1.12362625e-06,-2.03906250e-01
-1.12346625e-06,-1.57968750e-01
-1.12330625e-06,-9.89062500e-02
-1.12314625e-06,-1.22812500e-01
-1.12298625e-06,-1.77187500e-01
-1.12282625e-06,-1.56562500e-01
-1.12266625e-06,-9.18750000e-02
-1.12250625e-06,-1.25156250e-01
-1.12234625e-06,-2.18437500e-01
-1.12218625e-06,-1.76718750e-01
-1.12202625e-06,-8.25000000e-02
-1.12186625e-06,-1.44375000e-01
-1.12170625e-06,-2.20312500e-01
-1.12154625e-06,-1.46718750e-01
-1.12138625e-06,-9.28125000e-02
-1.12122625e-06,-1.30312500e-01
-1.12106625e-06,-1.35468750e-01
-1.12090625e-06,-1.29375000e-01
-1.12074625e-06,-1.25625000e-01
-1.12058625e-06,-7.45312500e-02
-1.12042625e-06,-9.09375000e-02
-1.12026625e-06,-1.84687500e-01
-1.12010625e-06,-1.55625000e-01
-1.11994625e-06,-5.62500000e-02
-1.11978625e-06,-6.79687500e-02
-1.11962625e-06,-8.95312500e-02
-1.11946625e-06,-4.35937500e-02
-1.11930625e-06,-7.59375000e-02
-1.11914625e-06,-1.81875000e-01
-1.11898625e-06,-2.04375000e-01
-1.11882625e-06,-1.39218750e-01
-1.11866625e-06,-9.42187500e-02
-1.11850625e-06,-1.10625000e-01
-1.11834625e-06,-1.28437500e-01
-1.11818625e-06,-9.89062500e-02
-1.11802625e-06,-8.15625000e-02
-1.11786625e-06,-1.11093750e-01
-1.11770625e-06,-1.13437500e-01
-1.11754625e-06,-8.76562500e-02
-1.11738625e-06,-9.04687500e-02
-1.11722625e-06,-8.85937500e-02
-1.11706625e-06,-8.90625000e-02
-1.11690625e-06,-1.46718750e-01
-1.11674625e-06,-1.85625000e-01
-1.11658625e-06,-1.64531250e-01
-1.11642625e-06,-1.63593750e-01
-1.11626625e-06,-1.44375000e-01
-1.11610625e-06,-8.85937500e-02
-1.11594625e-06,-1.17656250e-01
-1.11578625e-06,-1.43437500e-01
-1.11562625e-06,-3.98437500e-02
-1.11546625e-06,-1.59375000e-02
-1.11530625e-06,-1.34062500e-01
-1.11514625e-06,-1.38750000e-01
-1.11498625e-06,-6.46875000e-02
-1.11482625e-06,-1.09687500e-01
-1.11466625e-06,-1.65937500e-01
-1.11450625e-06,-1.41562500e-01
-1.11434625e-06,-1.29843750e-01
-1.11418625e-06,-1.30781250e-01
-1.11402625e-06,-1.30312500e-01
-1.11386625e-06,-1.59375000e-01
-1.11370625e-06,-1.46250000e-01
-1.11354625e-06,-1.06406250e-01
-1.11338625e-06,-1.58906250e-01
-1.11322625e-06,-2.10937500e-01
-1.11306625e-06,-1.42500000e-01
-1.11290625e-06,-8.67187500e-02
-1.11274625e-06,-1.23750000e-01
-1.11258625e-06,-1.37812500e-01
-1.11242625e-06,-1.12031250e-01
-1.11226625e-06,-1.18593750e-01
-1.11210625e-06,-1.39687500e-01
-1.11194625e-06,-1.43906250e-01
-1.11178625e-06,-1.48593750e-01
-1.11162625e-06,-1.66406250e-01
-1.11146625e-06,-1.97343750e-01
-1.11130625e-06,-2.11406250e-01
-1.11114625e-06,-1.68750000e-01
-1.11098625e-06,-1.27031250e-01
-1.11082625e-06,-1.53281250e-01
-1.11066625e-06,-1.63125000e-01
-1.11050625e-06,-9.70312500e-02
-1.11034625e-06,-7.82812500e-02
-1.11018625e-06,-1.48593750e-01
-1.11002625e-06,-1.71093750e-01
-1.10986625e-06,-1.29843750e-01
-1.10970625e-06,-1.41562500e-01
-1.10954625e-06,-1.86093750e-01
-1.10938625e-06,-1.64062500e-01
-1.10922625e-06,-1.23750000e-01
-1.10906625e-06,-1.52343750e-01
-1.10890625e-06,-1.99218750e-01
-1.10874625e-06,-1.90312500e-01
-1.10858625e-06,-1.51406250e-01
-1.10842625e-06,-1.14375000e-01
-1.10826625e-06,-8.85937500e-02
-1.10810625e-06,-1.13437500e-01
-1.10794625e-06,-1.58906250e-01
-1.10778625e-06,-1.37343750e-01
-1.10762625e-06,-9.60937500e-02
-1.10746625e-06,-1.02187500e-01
-1.10730625e-06,-8.53125000e-02
-1.10714625e-06,-5.76562500e-02
-1.10698625e-06,-1.23281250e-01
-1.10682625e-06,-1.92656250e-01
-1.10666625e-06,-1.54218750e-01
-1.10650625e-06,-1.13437500e-01
-1.10634625e-06,-1.37812500e-01
-1.10618625e-06,-1.44375000e-01
-1.10602625e-06,-1.22812500e-01
-1.10586625e-06,-1.24687500e-01
-1.10570625e-06,-1.38281250e-01
-1.10554625e-06,-1.32187500e-01
-1.10538625e-06,-9.65625000e-02
-1.10522625e-06,-6.98437500e-02
-1.10506625e-06,-9.51562500e-02
-1.10490625e-06,-1.20000000e-01
-1.10474625e-06,-9.46875000e-02
-1.10458625e-06,-8.53125000e-02
-1.10442625e-06,-1.11562500e-01
-1.10426625e-06,-1.02187500e-01
-1.10410625e-06,-6.70312500e-02
-1.10394625e-06,-8.39062500e-02
-1.10378625e-06,-1.44375000e-01
-1.10362625e-06,-1.70625000e-01
-1.10346625e-06,-1.35000000e-01
-1.10330625e-06,-9.42187500e-02
-1.10314625e-06,-1.00781250e-01
-1.10298625e-06,-1.28437500e-01
-1.10282625e-06,-1.30781250e-01
-1.10266625e-06,-1.09687500e-01
-1.10250625e-06,-8.76562500e-02
-1.10234625e-06,-7.64062500e-02
-1.10218625e-06,-7.87500000e-02
-1.10202625e-06,-1.02187500e-01
-1.10186625e-06,-1.45781250e-01
-1.10170625e-06,-1.51406250e-01
-1.10154625e-06,-7.17187500e-02
-1.10138625e-06,-7.50000000e-03
-1.10122625e-06,-7.12500000e-02
-1.10106625e-06,-1.60312500e-01
-1.10090625e-06,-1.34531250e-01
-1.10074625e-06,-8.71875000e-02
-1.10058625e-06,-1.41093750e-01
-1.10042625e-06,-1.86093750e-01
-1.10026625e-06,-1.33125000e-01
-1.10010625e-06,-1.22343750e-01
-1.09994625e-06,-1.87968750e-01
-1.09978625e-06,-1.66875000e-01
-1.09962625e-06,-9.18750000e-02
-1.09946625e-06,-1.12968750e-01
-1.09930625e-06,-1.53281250e-01
-1.09914625e-06,-1.27500000e-01
-1.09898625e-06,-1.29843750e-01
-1.09882625e-06,-1.69218750e-01
-1.09866625e-06,-1.71093750e-01
-1.09850625e-06,-1.58437500e-01
-1.09834625e-06,-1.50000000e-01
-1.09818625e-06,-1.56093750e-01
-1.09802625e-06,-2.02500000e-01
-1.09786625e-06,-2.04843750e-01
-1.09770625e-06,-1.32187500e-01
-1.09754625e-06,-1.39218750e-01
-1.09738625e-06,-2.05312500e-01
-1.09722625e-06,-1.34062500e-01
-1.09706625e-06,-3.46875000e-02
-1.09690625e-06,-1.19531250e-01
-1.09674625e-06,-2.22656250e-01
-1.09658625e-06,-1.71093750e-01
-1.09642625e-06,-1.24687500e-01
-1.09626625e-06,-1.65000000e-01
-1.09610625e-06,-1.77656250e-01
-1.09594625e-06,-1.61718750e-01
-1.09578625e-06,-1.57968750e-01
-1.09562625e-06,-1.45312500e-01
-1.09546625e-06,-1.56562500e-01
-1.09530625e-06,-1.72500000e-01
-1.09514625e-06,-1.16250000e-01
-1.09498625e-06,-6.37500000e-02
-1.09482625e-06,-8.57812500e-02
-1.09466625e-06,-9.46875000e-02
-1.09450625e-06,-7.96875000e-02
-1.09434625e-06,-1.01250000e-01
-1.09418625e-06,-1.18593750e-01
-1.09402625e-06,-1.15312500e-01
-1.09386625e-06,-1.24218750e-01
-1.09370625e-06,-1.25156250e-01
-1.09354625e-06,-1.28906250e-01
-1.09338625e-06,-1.60781250e-01
-1.09322625e-06,-1.66875000e-01
-1.09306625e-06,-1.39687500e-01
-1.09290625e-06,-1.21406250e-01
-1.09274625e-06,-8.85937500e-02
-1.09258625e-06,-5.90625000e-02
-1.09242625e-06,-8.95312500e-02
-1.09226625e-06,-1.16250000e-01
-1.09210625e-06,-6.56250000e-02
-1.09194625e-06,-1.92187500e-02
-1.09178625e-06,-5.81250000e-02
-1.09162625e-06,-1.17187500e-01
-1.09146625e-06,-1.19062500e-01
-1.09130625e-06,-1.05468750e-01
-1.09114625e-06,-1.28906250e-01
-1.09098625e-06,-1.45312500e-01
-1.09082625e-06,-1.22812500e-01
-1.09066625e-06,-1.15312500e-01
-1.09050625e-06,-1.47187500e-01
-1.09034625e-06,-1.69687500e-01
-1.09018625e-06,-1.55625000e-01
-1.09002625e-06,-1.32656250e-01
-1.08986625e-06,-1.30312500e-01
-1.08970625e-06,-1.35000000e-01
-1.08954625e-06,-1.16250000e-01
-1.08938625e-06,-1.02187500e-01
-1.08922625e-06,-1.19062500e-01
-1.08906625e-06,-1.32656250e-01
-1.08890625e-06,-1.30312500e-01
-1.08874625e-06,-1.27968750e-01
-1.08858625e-06,-1.18125000e-01
-1.08842625e-06,-1.32187500e-01
-1.08826625e-06,-1.72031250e-01
-1.08810625e-06,-1.47656250e-01
-1.08794625e-06,-9.28125000e-02
-1.08778625e-06,-1.19531250e-01
-1.08762625e-06,-1.33593750e-01
-1.08746625e-06,-4.31250000e-02
-1.08730625e-06,-2.06250000e-02
-1.08714625e-06,-1.34531250e-01
-1.08698625e-06,-1.71093750e-01
-1.08682625e-06,-7.50000000e-02
-1.08666625e-06,-4.68750000e-02
-1.08650625e-06,-1.17656250e-01
-1.08634625e-06,-1.25625000e-01
-1.08618625e-06,-8.53125000e-02
-1.08602625e-06,-1.27031250e-01
-1.08586625e-06,-1.80937500e-01
-1.08570625e-06,-1.37343750e-01
-1.08554625e-06,-1.08281250e-01
-1.08538625e-06,-1.82812500e-01
-1.08522625e-06,-2.38125000e-01
-1.08506625e-06,-1.88906250e-01
-1.08490625e-06,-1.16250000e-01
-1.08474625e-06,-1.07343750e-01
-1.08458625e-06,-1.47656250e-01
-1.08442625e-06,-1.41562500e-01
-1.08426625e-06,-7.68750000e-02
-1.08410625e-06,-8.62500000e-02
-1.08394625e-06,-1.71093750e-01
-1.08378625e-06,-1.62656250e-01
-1.08362625e-06,-8.95312500e-02
-1.08346625e-06,-1.07812500e-01
-1.08330625e-06,-1.65468750e-01
-1.08314625e-06,-1.64531250e-01
-1.08298625e-06,-1.58906250e-01
-1.08282625e-06,-1.71093750e-01
-1.08266625e-06,-1.66406250e-01
-1.08250625e-06,-1.63593750e-01
-1.08234625e-06,-1.57968750e-01
-1.08218625e-06,-1.26562500e-01
-1.08202625e-06,-1.07343750e-01
-1.08186625e-06,-1.06406250e-01
-1.08170625e-06,-9.56250000e-02
-1.08154625e-06,-1.07343750e-01
-1.08138625e-06,-1.33125000e-01
-1.08122625e-06,-1.04062500e-01
-1.08106625e-06,-7.21875000e-02
-1.08090625e-06,-1.14375000e-01
-1.08074625e-06,-1.50468750e-01
-1.08058625e-06,-1.37343750e-01
-1.08042625e-06,-1.52812500e-01
-1.08026625e-06,-1.80000000e-01
-1.08010625e-06,-1.51406250e-01
-1.07994625e-06,-1.07343750e-01
-1.07978625e-06,-8.53125000e-02
-1.07962625e-06,-9.51562500e-02
-1.07946625e-06,-1.54218750e-01
-1.07930625e-06,-1.78125000e-01
-1.07914625e-06,-1.09218750e-01
-1.07898625e-06,-8.48437500e-02
-1.07882625e-06,-1.53281250e-01
-1.07866625e-06,-1.67812500e-01
-1.07850625e-06,-1.17656250e-01
-1.07834625e-06,-1.15312500e-01
-1.07818625e-06,-1.47656250e-01
-1.07802625e-06,-1.57031250e-01
-1.07786625e-06,-1.38281250e-01
-1.07770625e-06,-9.37500000e-02
-1.07754625e-06,-8.01562500e-02
-1.07738625e-06,-1.30781250e-01
-1.07722625e-06,-1.49531250e-01
-1.07706625e-06,-1.20468750e-01
-1.07690625e-06,-1.40156250e-01
-1.07674625e-06,-1.51875000e-01
-1.07658625e-06,-7.59375000e-02
-1.07642625e-06,-4.92187500e-02
-1.07626625e-06,-1.32187500e-01
-1.07610625e-06,-1.52343750e-01
-1.07594625e-06,-8.10937500e-02
-1.07578625e-06,-8.15625000e-02
-1.07562625e-06,-1.59375000e-01
-1.07546625e-06,-1.70156250e-01
-1.07530625e-06,-9.56250000e-02
-1.07514625e-06,-7.03125000e-02
-1.07498625e-06,-1.53750000e-01
-1.07482625e-06,-2.16093750e-01
-1.07466625e-06,-1.61718750e-01
-1.07450625e-06,-9.18750000e-02
-1.07434625e-06,-8.20312500e-02
-1.07418625e-06,-7.73437500e-02
-1.07402625e-06,-8.76562500e-02
-1.07386625e-06,-1.43906250e-01
-1.07370625e-06,-1.64062500e-01
-1.07354625e-06,-1.11562500e-01
-1.07338625e-06,-7.31250000e-02
-1.07322625e-06,-1.06875000e-01
-1.07306625e-06,-1.74843750e-01
-1.07290625e-06,-2.03906250e-01
-1.07274625e-06,-1.81875000e-01
-1.07258625e-06,-1.69687500e-01
-1.07242625e-06,-1.67812500e-01
-1.07226625e-06,-1.31250000e-01
-1.07210625e-06,-1.07343750e-01
-1.07194625e-06,-1.33593750e-01
-1.07178625e-06,-1.44375000e-01
-1.07162625e-06,-1.15312500e-01
-1.07146625e-06,-9.89062500e-02
-1.07130625e-06,-1.28437500e-01
-1.07114625e-06,-1.68750000e-01
-1.07098625e-06,-1.41093750e-01
-1.07082625e-06,-7.45312500e-02
-1.07066625e-06,-1.07343750e-01
-1.07050625e-06,-1.93593750e-01
-1.07034625e-06,-1.69218750e-01
-1.07018625e-06,-1.03125000e-01
-1.07002625e-06,-1.35468750e-01
-1.06986625e-06,-2.00156250e-01
-1.06970625e-06,-2.09062500e-01
-1.06954625e-06,-1.75781250e-01
-1.06938625e-06,-1.30312500e-01
-1.06922625e-06,-1.30781250e-01
-1.06906625e-06,-1.68281250e-01
-1.06890625e-06,-1.53281250e-01
-1.06874625e-06,-1.20937500e-01
-1.06858625e-06,-1.45781250e-01
-1.06842625e-06,-1.56562500e-01
-1.06826625e-06,-1.21875000e-01
-1.06810625e-06,-1.32656250e-01
-1.06794625e-06,-1.79531250e-01
-1.06778625e-06,-1.82812500e-01
-1.06762625e-06,-1.73906250e-01
