Experiment1/Part2/10.IG,30V,HS,T2_ALL.csv

Model,MSO68B
Channel,CH8
Label,
Waveform Type,ANALOG
Digital Type,None
Horizontal Units,s
Sample Interval,1.60000000e-10
Record Length,12500
Zero Index,749.79687500
Vertical Units,V
,
ANALOG_Thumbnail,
yOffset,0.000000
yPosition,0.440000

Labels,
TIME,CH8
-1.19967500e-07,-1.30312500e-01
-1.19807500e-07,-4.96875000e-02
-1.19647500e-07,-3.81250000e-02
-1.19487500e-07,-1.20625000e-01
-1.19327500e-07,-1.39687500e-01
-1.19167500e-07,-7.50000000e-02
-1.19007500e-07,-6.78125000e-02
-1.18847500e-07,-1.30625000e-01
-1.18687500e-07,-1.26562500e-01
-1.18527500e-07,-5.28125000e-02
-1.18367500e-07,-5.68750000e-02
-1.18207500e-07,-1.38437500e-01
-1.18047500e-07,-1.40937500e-01
-1.17887500e-07,-6.93750000e-02
-1.17727500e-07,-6.15625000e-02
-1.17567500e-07,-1.02187500e-01
-1.17407500e-07,-1.05312500e-01
-1.17247500e-07,-9.12500000e-02
-1.17087500e-07,-9.34375000e-02
-1.16927500e-07,-1.14687500e-01
-1.16767500e-07,-1.44687500e-01
-1.16607500e-07,-1.29375000e-01
-1.16447500e-07,-7.71875000e-02
-1.16287500e-07,-7.31250000e-02
-1.16127500e-07,-8.62500000e-02
-1.15967500e-07,-5.46875000e-02
-1.15807500e-07,-5.50000000e-02
-1.15647500e-07,-1.10000000e-01
-1.15487500e-07,-1.23437500e-01
-1.15327500e-07,-1.04062500e-01
-1.15167500e-07,-1.24375000e-01
-1.15007500e-07,-1.53125000e-01
-1.14847500e-07,-1.29687500e-01
-1.14687500e-07,-7.93750000e-02
-1.14527500e-07,-8.00000000e-02
-1.14367500e-07,-1.36562500e-01
-1.14207500e-07,-1.54375000e-01
-1.14047500e-07,-1.06875000e-01
-1.13887500e-07,-8.21875000e-02
-1.13727500e-07,-1.06562500e-01
-1.13567500e-07,-1.18125000e-01
-1.13407500e-07,-9.31250000e-02
-1.13247500e-07,-7.28125000e-02
-1.13087500e-07,-1.11875000e-01
-1.12927500e-07,-1.59062500e-01
-1.12767500e-07,-1.08125000e-01
-1.12607500e-07,-5.03125000e-02
-1.12447500e-07,-1.24062500e-01
-1.12287500e-07,-1.85000000e-01
-1.12127500e-07,-1.08125000e-01
-1.11967500e-07,-6.25000000e-02
-1.11807500e-07,-1.27812500e-01
-1.11647500e-07,-1.58125000e-01
-1.11487500e-07,-1.07187500e-01
-1.11327500e-07,-6.28125000e-02
-1.11167500e-07,-7.09375000e-02
-1.11007500e-07,-1.01250000e-01
-1.10847500e-07,-1.00312500e-01
-1.10687500e-07,-8.43750000e-02
-1.10527500e-07,-9.37500000e-02
-1.10367500e-07,-8.46875000e-02
-1.10207500e-07,-6.40625000e-02
-1.10047500e-07,-1.01250000e-01
-1.09887500e-07,-1.25625000e-01
-1.09727500e-07,-7.68750000e-02
-1.09567500e-07,-7.12500000e-02
-1.09407500e-07,-1.19687500e-01
-1.09247500e-07,-1.08437500e-01
-1.09087500e-07,-7.78125000e-02
-1.08927500e-07,-9.18750000e-02
-1.08767500e-07,-8.93750000e-02
-1.08607500e-07,-8.31250000e-02
-1.08447500e-07,-1.15312500e-01
-1.08287500e-07,-1.09687500e-01
-1.08127500e-07,-6.75000000e-02
-1.07967500e-07,-9.62500000e-02
-1.07807500e-07,-1.35625000e-01
-1.07647500e-07,-6.81250000e-02
-1.07487500e-07,-2.09375000e-02
-1.07327500e-07,-1.16562500e-01
-1.07167500e-07,-1.79062500e-01
-1.07007500e-07,-1.09375000e-01
-1.06847500e-07,-9.65625000e-02
-1.06687500e-07,-1.59375000e-01
-1.06527500e-07,-1.12500000e-01
-1.06367500e-07,-3.34375000e-02
-1.06207500e-07,-7.21875000e-02
-1.06047500e-07,-1.08437500e-01
-1.05887500e-07,-7.71875000e-02
-1.05727500e-07,-8.28125000e-02
-1.05567500e-07,-1.15625000e-01
-1.05407500e-07,-1.32187500e-01
-1.05247500e-07,-1.43750000e-01
-1.05087500e-07,-1.00625000e-01
-1.04927500e-07,-6.06250000e-02
-1.04767500e-07,-1.35937500e-01
-1.04607500e-07,-1.78750000e-01
-1.04447500e-07,-9.03125000e-02
-1.04287500e-07,-7.78125000e-02
-1.04127500e-07,-1.58437500e-01
-1.03967500e-07,-1.20312500e-01
-1.03807500e-07,-3.96875000e-02
-1.03647500e-07,-7.56250000e-02
-1.03487500e-07,-1.14062500e-01
-1.03327500e-07,-8.06250000e-02
-1.03167500e-07,-6.28125000e-02
-1.03007500e-07,-6.43750000e-02
-1.02847500e-07,-7.56250000e-02
-1.02687500e-07,-1.20312500e-01
-1.02527500e-07,-1.30625000e-01
-1.02367500e-07,-1.01250000e-01
-1.02207500e-07,-1.26250000e-01
-1.02047500e-07,-1.50937500e-01
-1.01887500e-07,-1.00000000e-01
-1.01727500e-07,-8.68750000e-02
-1.01567500e-07,-1.53437500e-01
-1.01407500e-07,-1.62500000e-01
-1.01247500e-07,-1.00937500e-01
-1.01087500e-07,-1.00625000e-01
-1.00927500e-07,-1.59062500e-01
-1.00767500e-07,-1.51562500e-01
-1.00607500e-07,-7.81250000e-02
-1.00447500e-07,-7.37500000e-02
-1.00287500e-07,-1.47500000e-01
-1.00127500e-07,-1.54687500e-01
-9.99675000e-08,-8.71875000e-02
-9.98075000e-08,-8.31250000e-02
-9.96475000e-08,-1.33750000e-01
-9.94875000e-08,-1.23750000e-01
-9.93275000e-08,-8.18750000e-02
-9.91675000e-08,-1.00625000e-01
-9.90075000e-08,-1.51875000e-01
-9.88475000e-08,-1.55000000e-01
-9.86875000e-08,-1.07187500e-01
-9.85275000e-08,-7.53125000e-02
-9.83675000e-08,-1.07187500e-01
-9.82075000e-08,-1.47812500e-01
-9.80475000e-08,-1.19375000e-01
-9.78875000e-08,-7.71875000e-02
-9.77275000e-08,-1.12500000e-01
-9.75675000e-08,-1.51875000e-01
-9.74075000e-08,-1.11562500e-01
-9.72475000e-08,-9.15625000e-02
-9.70875000e-08,-1.37187500e-01
-9.69275000e-08,-1.12187500e-01
-9.67675000e-08,-2.12500000e-02
-9.66075000e-08,-3.40625000e-02
-9.64475000e-08,-1.30312500e-01
-9.62875000e-08,-1.45937500e-01
-9.61275000e-08,-8.28125000e-02
-9.59675000e-08,-5.93750000e-02
-9.58075000e-08,-9.78125000e-02
-9.56475000e-08,-1.18437500e-01
-9.54875000e-08,-8.75000000e-02
-9.53275000e-08,-8.00000000e-02
-9.51675000e-08,-1.29062500e-01
-9.50075000e-08,-1.30312500e-01
-9.48475000e-08,-5.87500000e-02
-9.46875000e-08,-5.37500000e-02
-9.45275000e-08,-1.28750000e-01
-9.43675000e-08,-1.33125000e-01
-9.42075000e-08,-7.25000000e-02
-9.40475000e-08,-7.59375000e-02
-9.38875000e-08,-1.18437500e-01
-9.37275000e-08,-1.18437500e-01
-9.35675000e-08,-1.01875000e-01
-9.34075000e-08,-8.75000000e-02
-9.32475000e-08,-6.59375000e-02
-9.30875000e-08,-7.25000000e-02
-9.29275000e-08,-1.00937500e-01
-9.27675000e-08,-1.17187500e-01
-9.26075000e-08,-1.48125000e-01
-9.24475000e-08,-1.67500000e-01
-9.22875000e-08,-1.13125000e-01
-9.21275000e-08,-6.43750000e-02
-9.19675000e-08,-9.00000000e-02
-9.18075000e-08,-9.00000000e-02
-9.16475000e-08,-4.87500000e-02
-9.14875000e-08,-8.37500000e-02
-9.13275000e-08,-1.64375000e-01
-9.11675000e-08,-1.72812500e-01
-9.10075000e-08,-1.18125000e-01
-9.08475000e-08,-7.87500000e-02
-9.06875000e-08,-1.06562500e-01
-9.05275000e-08,-1.67187500e-01
-9.03675000e-08,-1.54375000e-01
-9.02075000e-08,-9.71875000e-02
-9.00475000e-08,-1.14687500e-01
-8.98875000e-08,-1.26250000e-01
-8.97275000e-08,-4.87500000e-02
-8.95675000e-08,-4.40625000e-02
-8.94075000e-08,-1.36250000e-01
-8.92475000e-08,-1.15937500e-01
-8.90875000e-08,-2.56250000e-02
-8.89275000e-08,-7.06250000e-02
-8.87675000e-08,-1.63750000e-01
-8.86075000e-08,-1.37500000e-01
-8.84475000e-08,-6.93750000e-02
-8.82875000e-08,-8.06250000e-02
-8.81275000e-08,-1.42500000e-01
-8.79675000e-08,-1.58437500e-01
-8.78075000e-08,-1.07187500e-01
-8.76475000e-08,-8.71875000e-02
-8.74875000e-08,-1.36250000e-01
-8.73275000e-08,-1.44375000e-01
-8.71675000e-08,-9.40625000e-02
-8.70075000e-08,-9.65625000e-02
-8.68475000e-08,-1.42500000e-01
-8.66875000e-08,-1.42500000e-01
-8.65275000e-08,-1.15000000e-01
-8.63675000e-08,-1.16562500e-01
-8.62075000e-08,-1.39687500e-01
-8.60475000e-08,-1.43125000e-01
-8.58875000e-08,-1.00000000e-01
-8.57275000e-08,-5.50000000e-02
-8.55675000e-08,-8.31250000e-02
-8.54075000e-08,-1.31562500e-01
-8.52475000e-08,-1.01875000e-01
-8.50875000e-08,-6.37500000e-02
-8.49275000e-08,-1.17500000e-01
-8.47675000e-08,-1.65312500e-01
-8.46075000e-08,-1.13437500e-01
-8.44475000e-08,-8.75000000e-02
-8.42875000e-08,-1.47812500e-01
-8.41275000e-08,-1.38750000e-01
-8.39675000e-08,-5.62500000e-02
-8.38075000e-08,-8.68750000e-02
-8.36475000e-08,-1.83437500e-01
-8.34875000e-08,-1.66250000e-01
-8.33275000e-08,-1.09375000e-01
-8.31675000e-08,-1.15000000e-01
-8.30075000e-08,-1.05937500e-01
-8.28475000e-08,-8.93750000e-02
-8.26875000e-08,-1.14062500e-01
-8.25275000e-08,-1.07500000e-01
-8.23675000e-08,-9.21875000e-02
-8.22075000e-08,-1.30937500e-01
-8.20475000e-08,-1.11562500e-01
-8.18875000e-08,-4.37500000e-02
-8.17275000e-08,-9.59375000e-02
-8.15675000e-08,-1.72187500e-01
-8.14075000e-08,-1.12500000e-01
-8.12475000e-08,-6.87500000e-02
-8.10875000e-08,-1.37500000e-01
-8.09275000e-08,-1.60625000e-01
-8.07675000e-08,-1.07187500e-01
-8.06075000e-08,-9.37500000e-02
-8.04475000e-08,-1.14687500e-01
-8.02875000e-08,-1.04375000e-01
-8.01275000e-08,-6.96875000e-02
-7.99675000e-08,-7.50000000e-02
-7.98075000e-08,-1.45000000e-01
-7.96475000e-08,-1.70937500e-01
-7.94875000e-08,-9.28125000e-02
-7.93275000e-08,-6.37500000e-02
-7.91675000e-08,-1.29687500e-01
-7.90075000e-08,-1.27187500e-01
-7.88475000e-08,-7.31250000e-02
-7.86875000e-08,-1.01250000e-01
-7.85275000e-08,-1.26875000e-01
-7.83675000e-08,-8.15625000e-02
-7.82075000e-08,-6.90625000e-02
-7.80475000e-08,-9.81250000e-02
-7.78875000e-08,-1.18750000e-01
-7.77275000e-08,-1.52187500e-01
-7.75675000e-08,-1.44375000e-01
-7.74075000e-08,-7.87500000e-02
-7.72475000e-08,-9.21875000e-02
-7.70875000e-08,-1.52187500e-01
-7.69275000e-08,-1.04375000e-01
-7.67675000e-08,-6.50000000e-02
-7.66075000e-08,-1.46875000e-01
-7.64475000e-08,-1.66250000e-01
-7.62875000e-08,-8.43750000e-02
-7.61275000e-08,-9.87500000e-02
-7.59675000e-08,-1.68437500e-01
-7.58075000e-08,-1.28437500e-01
-7.56475000e-08,-7.12500000e-02
-7.54875000e-08,-1.11875000e-01
-7.53275000e-08,-1.52812500e-01
-7.51675000e-08,-1.31875000e-01
-7.50075000e-08,-1.25937500e-01
-7.48475000e-08,-1.52812500e-01
-7.46875000e-08,-1.57812500e-01
-7.45275000e-08,-1.35937500e-01
-7.43675000e-08,-1.08750000e-01
-7.42075000e-08,-9.09375000e-02
-7.40475000e-08,-1.04375000e-01
-7.38875000e-08,-1.21562500e-01
-7.37275000e-08,-1.05000000e-01
-7.35675000e-08,-1.15312500e-01
-7.34075000e-08,-1.66250000e-01
-7.32475000e-08,-1.37812500e-01
-7.30875000e-08,-5.03125000e-02
-7.29275000e-08,-7.56250000e-02
-7.27675000e-08,-1.77187500e-01
-7.26075000e-08,-1.69062500e-01
-7.24475000e-08,-8.09375000e-02
-7.22875000e-08,-7.53125000e-02
-7.21275000e-08,-1.32500000e-01
-7.19675000e-08,-1.14375000e-01
-7.18075000e-08,-3.15625000e-02
-7.16475000e-08,-3.59375000e-02
-7.14875000e-08,-1.29062500e-01
-7.13275000e-08,-1.36562500e-01
-7.11675000e-08,-6.81250000e-02
-7.10075000e-08,-1.10625000e-01
-7.08475000e-08,-2.00625000e-01
-7.06875000e-08,-1.43437500e-01
-7.05275000e-08,-4.93750000e-02
-7.03675000e-08,-8.81250000e-02
-7.02075000e-08,-1.42500000e-01
-7.00475000e-08,-1.02187500e-01
-6.98875000e-08,-5.68750000e-02
-6.97275000e-08,-7.00000000e-02
-6.95675000e-08,-1.09062500e-01
-6.94075000e-08,-1.10937500e-01
-6.92475000e-08,-4.62500000e-02
-6.90875000e-08,-2.81250000e-02
-6.89275000e-08,-1.18437500e-01
-6.87675000e-08,-1.42812500e-01
-6.86075000e-08,-5.03125000e-02
-6.84475000e-08,-3.75000000e-02
-6.82875000e-08,-1.04062500e-01
-6.81275000e-08,-8.78125000e-02
-6.79675000e-08,-4.18750000e-02
-6.78075000e-08,-7.12500000e-02
-6.76475000e-08,-1.23750000e-01
-6.74875000e-08,-1.39687500e-01
-6.73275000e-08,-1.00625000e-01
-6.71675000e-08,-5.31250000e-02
-6.70075000e-08,-1.03437500e-01
-6.68475000e-08,-1.61562500e-01
-6.66875000e-08,-6.87500000e-02
-6.65275000e-08,-9.37500000e-03
-6.63675000e-08,-1.47812500e-01
-6.62075000e-08,-2.05625000e-01
-6.60475000e-08,-5.90625000e-02
-6.58875000e-08,-1.93750000e-02
-6.57275000e-08,-1.41562500e-01
-6.55675000e-08,-1.53750000e-01
-6.54075000e-08,-6.56250000e-02
-6.52475000e-08,-5.93750000e-02
-6.50875000e-08,-1.01875000e-01
-6.49275000e-08,-1.07500000e-01
-6.47675000e-08,-9.50000000e-02
-6.46075000e-08,-8.56250000e-02
-6.44475000e-08,-9.46875000e-02
-6.42875000e-08,-1.10000000e-01
-6.41275000e-08,-7.87500000e-02
-6.39675000e-08,-5.43750000e-02
-6.38075000e-08,-1.11875000e-01
-6.36475000e-08,-1.41250000e-01
-6.34875000e-08,-6.75000000e-02
-6.33275000e-08,-4.09375000e-02
-6.31675000e-08,-1.15937500e-01
-6.30075000e-08,-1.32812500e-01
-6.28475000e-08,-7.03125000e-02
-6.26875000e-08,-8.09375000e-02
-6.25275000e-08,-1.65000000e-01
-6.23675000e-08,-1.72187500e-01
-6.22075000e-08,-8.96875000e-02
-6.20475000e-08,-5.62500000e-02
-6.18875000e-08,-1.03437500e-01
-6.17275000e-08,-1.10312500e-01
-6.15675000e-08,-5.34375000e-02
-6.14075000e-08,-5.40625000e-02
-6.12475000e-08,-1.24375000e-01
-6.10875000e-08,-1.21562500e-01
-6.09275000e-08,-2.93750000e-02
-6.07675000e-08,-1.93750000e-02
-6.06075000e-08,-1.29062500e-01
-6.04475000e-08,-1.71562500e-01
-6.02875000e-08,-9.65625000e-02
-6.01275000e-08,-7.46875000e-02
-5.99675000e-08,-1.27500000e-01
-5.98075000e-08,-1.17187500e-01
-5.96475000e-08,-6.21875000e-02
-5.94875000e-08,-6.87500000e-02
-5.93275000e-08,-1.08750000e-01
-5.91675000e-08,-9.75000000e-02
-5.90075000e-08,-4.37500000e-02
-5.88475000e-08,-5.75000000e-02
-5.86875000e-08,-1.54687500e-01
-5.85275000e-08,-1.57500000e-01
-5.83675000e-08,-4.15625000e-02
-5.82075000e-08,-4.09375000e-02
-5.80475000e-08,-1.54375000e-01
-5.78875000e-08,-1.43125000e-01
-5.77275000e-08,-4.90625000e-02
-5.75675000e-08,-6.00000000e-02
-5.74075000e-08,-1.16875000e-01
-5.72475000e-08,-1.18125000e-01
-5.70875000e-08,-1.03437500e-01
-5.69275000e-08,-1.07812500e-01
-5.67675000e-08,-1.32500000e-01
-5.66075000e-08,-1.42500000e-01
-5.64475000e-08,-8.43750000e-02
-5.62875000e-08,-4.31250000e-02
-5.61275000e-08,-1.07812500e-01
-5.59675000e-08,-1.43125000e-01
-5.58075000e-08,-8.15625000e-02
-5.56475000e-08,-9.46875000e-02
-5.54875000e-08,-1.85937500e-01
-5.53275000e-08,-1.55312500e-01
-5.51675000e-08,-4.15625000e-02
-5.50075000e-08,-4.40625000e-02
-5.48475000e-08,-1.41875000e-01
-5.46875000e-08,-1.68750000e-01
-5.45275000e-08,-1.01875000e-01
-5.43675000e-08,-6.96875000e-02
-5.42075000e-08,-1.23125000e-01
-5.40475000e-08,-1.43437500e-01
-5.38875000e-08,-8.78125000e-02
-5.37275000e-08,-9.15625000e-02
-5.35675000e-08,-1.50625000e-01
-5.34075000e-08,-1.03437500e-01
-5.32475000e-08,-1.87500000e-02
-5.30875000e-08,-7.34375000e-02
-5.29275000e-08,-1.58750000e-01
-5.27675000e-08,-1.20000000e-01
-5.26075000e-08,-6.09375000e-02
-5.24475000e-08,-8.96875000e-02
-5.22875000e-08,-1.45312500e-01
-5.21275000e-08,-1.53125000e-01
-5.19675000e-08,-9.50000000e-02
-5.18075000e-08,-5.06250000e-02
-5.16475000e-08,-1.16250000e-01
-5.14875000e-08,-1.66250000e-01
-5.13275000e-08,-7.09375000e-02
-5.11675000e-08,-2.68750000e-02
-5.10075000e-08,-1.42812500e-01
-5.08475000e-08,-1.71562500e-01
-5.06875000e-08,-6.81250000e-02
-5.05275000e-08,-9.00000000e-02
-5.03675000e-08,-2.08125000e-01
-5.02075000e-08,-1.87812500e-01
-5.00475000e-08,-9.40625000e-02
-4.98875000e-08,-9.75000000e-02
-4.97275000e-08,-1.27812500e-01
-4.95675000e-08,-1.02812500e-01
-4.94075000e-08,-9.93750000e-02
-4.92475000e-08,-1.35000000e-01
-4.90875000e-08,-1.31562500e-01
-4.89275000e-08,-8.78125000e-02
-4.87675000e-08,-6.43750000e-02
-4.86075000e-08,-8.15625000e-02
-4.84475000e-08,-1.11562500e-01
-4.82875000e-08,-1.02187500e-01
-4.81275000e-08,-6.21875000e-02
-4.79675000e-08,-8.46875000e-02
-4.78075000e-08,-1.55937500e-01
-4.76475000e-08,-1.43125000e-01
-4.74875000e-08,-6.81250000e-02
-4.73275000e-08,-7.62500000e-02
-4.71675000e-08,-1.49062500e-01
-4.70075000e-08,-1.61875000e-01
-4.68475000e-08,-1.15000000e-01
-4.66875000e-08,-9.56250000e-02
-4.65275000e-08,-1.30937500e-01
-4.63675000e-08,-1.61250000e-01
-4.62075000e-08,-1.31562500e-01
-4.60475000e-08,-9.18750000e-02
-4.58875000e-08,-1.06875000e-01
-4.57275000e-08,-1.13750000e-01
-4.55675000e-08,-6.37500000e-02
-4.54075000e-08,-5.84375000e-02
-4.52475000e-08,-1.41250000e-01
-4.50875000e-08,-1.80000000e-01
-4.49275000e-08,-1.13437500e-01
-4.47675000e-08,-6.87500000e-02
-4.46075000e-08,-1.12500000e-01
-4.44475000e-08,-1.29062500e-01
-4.42875000e-08,-7.78125000e-02
-4.41275000e-08,-8.21875000e-02
-4.39675000e-08,-1.34687500e-01
-4.38075000e-08,-9.62500000e-02
-4.36475000e-08,-2.93750000e-02
-4.34875000e-08,-8.12500000e-02
-4.33275000e-08,-1.56562500e-01
-4.31675000e-08,-1.17187500e-01
-4.30075000e-08,-5.68750000e-02
-4.28475000e-08,-9.00000000e-02
-4.26875000e-08,-1.53750000e-01
-4.25275000e-08,-1.53125000e-01
-4.23675000e-08,-9.90625000e-02
-4.22075000e-08,-7.06250000e-02
-4.20475000e-08,-1.03125000e-01
-4.18875000e-08,-1.30625000e-01
-4.17275000e-08,-1.06875000e-01
-4.15675000e-08,-9.84375000e-02
-4.14075000e-08,-1.27500000e-01
-4.12475000e-08,-1.09062500e-01
-4.10875000e-08,-5.84375000e-02
-4.09275000e-08,-7.68750000e-02
-4.07675000e-08,-1.13125000e-01
-4.06075000e-08,-7.59375000e-02
-4.04475000e-08,-5.18750000e-02
-4.02875000e-08,-1.07812500e-01
-4.01275000e-08,-1.55312500e-01
-3.99675000e-08,-1.49687500e-01
-3.98075000e-08,-1.17812500e-01
-3.96475000e-08,-7.87500000e-02
-3.94875000e-08,-8.78125000e-02
-3.93275000e-08,-1.34062500e-01
-3.91675000e-08,-1.12187500e-01
-3.90075000e-08,-6.62500000e-02
-3.88475000e-08,-1.16250000e-01
-3.86875000e-08,-1.59062500e-01
-3.85275000e-08,-8.46875000e-02
-3.83675000e-08,-4.28125000e-02
-3.82075000e-08,-1.20312500e-01
-3.80475000e-08,-1.60000000e-01
-3.78875000e-08,-1.06875000e-01
-3.77275000e-08,-8.37500000e-02
-3.75675000e-08,-1.12187500e-01
-3.74075000e-08,-1.25937500e-01
-3.72475000e-08,-1.19375000e-01
-3.70875000e-08,-9.59375000e-02
-3.69275000e-08,-8.56250000e-02
-3.67675000e-08,-1.34687500e-01
-3.66075000e-08,-1.47500000e-01
-3.64475000e-08,-6.21875000e-02
-3.62875000e-08,-4.15625000e-02
-3.61275000e-08,-1.20937500e-01
-3.59675000e-08,-1.16875000e-01
-3.58075000e-08,-7.09375000e-02
-3.56475000e-08,-1.35312500e-01
-3.54875000e-08,-1.79062500e-01
-3.53275000e-08,-1.01875000e-01
-3.51675000e-08,-7.68750000e-02
-3.50075000e-08,-1.38125000e-01
-3.48475000e-08,-1.08750000e-01
-3.46875000e-08,-1.78125000e-02
-3.45275000e-08,-4.75000000e-02
-3.43675000e-08,-1.47187500e-01
-3.42075000e-08,-1.53437500e-01
-3.40475000e-08,-1.15312500e-01
-3.38875000e-08,-1.42812500e-01
-3.37275000e-08,-1.62500000e-01
-3.35675000e-08,-1.14062500e-01
-3.34075000e-08,-8.90625000e-02
-3.32475000e-08,-1.13750000e-01
-3.30875000e-08,-1.12187500e-01
-3.29275000e-08,-9.31250000e-02
-3.27675000e-08,-1.11562500e-01
-3.26075000e-08,-1.40937500e-01
-3.24475000e-08,-1.34062500e-01
-3.22875000e-08,-9.50000000e-02
-3.21275000e-08,-7.18750000e-02
-3.19675000e-08,-1.05312500e-01
-3.18075000e-08,-1.57812500e-01
-3.16475000e-08,-1.55625000e-01
-3.14875000e-08,-1.01562500e-01
-3.13275000e-08,-6.90625000e-02
-3.11675000e-08,-9.59375000e-02
-3.10075000e-08,-1.20625000e-01
-3.08475000e-08,-7.96875000e-02
-3.06875000e-08,-5.43750000e-02
-3.05275000e-08,-1.21875000e-01
-3.03675000e-08,-1.60312500e-01
-3.02075000e-08,-9.84375000e-02
-3.00475000e-08,-7.93750000e-02
-2.98875000e-08,-1.22500000e-01
-2.97275000e-08,-9.56250000e-02
-2.95675000e-08,-4.34375000e-02
-2.94075000e-08,-5.21875000e-02
-2.92475000e-08,-5.21875000e-02
-2.90875000e-08,-4.75000000e-02
-2.89275000e-08,-1.00625000e-01
-2.87675000e-08,-1.37187500e-01
-2.86075000e-08,-1.22500000e-01
-2.84475000e-08,-1.11875000e-01
-2.82875000e-08,-6.71875000e-02
-2.81275000e-08,3.75000000e-03
-2.79675000e-08,-6.25000000e-04
-2.78075000e-08,-4.40625000e-02
-2.76475000e-08,-6.40625000e-02
-2.74875000e-08,-1.12500000e-01
-2.73275000e-08,-1.54687500e-01
-2.71675000e-08,-1.32812500e-01
-2.70075000e-08,-1.47187500e-01
-2.68475000e-08,-2.02500000e-01
-2.66875000e-08,-1.74062500e-01
-2.65275000e-08,-1.16562500e-01
-2.63675000e-08,-1.23125000e-01
-2.62075000e-08,-1.19375000e-01
-2.60475000e-08,-9.06250000e-02
-2.58875000e-08,-9.65625000e-02
-2.57275000e-08,-9.59375000e-02
-2.55675000e-08,-9.90625000e-02
-2.54075000e-08,-1.81562500e-01
-2.52475000e-08,-2.53437500e-01
-2.50875000e-08,-2.14375000e-01
-2.49275000e-08,-1.87500000e-01
-2.47675000e-08,-2.66250000e-01
-2.46075000e-08,-3.11875000e-01
-2.44475000e-08,-2.41562500e-01
-2.42875000e-08,-1.92187500e-01
-2.41275000e-08,-2.18125000e-01
-2.39675000e-08,-1.79062500e-01
-2.38075000e-08,-5.37500000e-02
-2.36475000e-08,4.06250000e-03
-2.34875000e-08,-3.00000000e-02
-2.33275000e-08,-3.59375000e-02
-2.31675000e-08,2.59375000e-02
-2.30075000e-08,1.01875000e-01
-2.28475000e-08,1.40625000e-01
-2.26875000e-08,1.37187500e-01
-2.25275000e-08,1.32812500e-01
-2.23675000e-08,1.21250000e-01
-2.22075000e-08,4.25000000e-02
-2.20475000e-08,-5.53125000e-02
-2.18875000e-08,-8.93750000e-02
-2.17275000e-08,-1.31875000e-01
-2.15675000e-08,-2.37500000e-01
-2.14075000e-08,-2.88437500e-01
