Experiment1/Part2/3.IG,30V,HS_ALL.csv

Model,MSO68B
Channel,CH8
Label,
Waveform Type,ANALOG
Digital Type,None
Horizontal Units,s
Sample Interval,1.60000000e-10
Record Length,7500
Zero Index,1949.79687500
Vertical Units,V
,
ANALOG_Thumbnail,
yOffset,0.000000
yPosition,0.440000

Labels,
TIME,CH8
-3.11967500e-07,-2.81250000e-02
-3.11807500e-07,-9.84375000e-03
-3.11647500e-07,-3.35937500e-02
-3.11487500e-07,-4.15625000e-02
-3.11327500e-07,-2.09375000e-02
-3.11167500e-07,-1.29687500e-02
-3.11007500e-07,-1.57812500e-02
-3.10847500e-07,-2.34375000e-03
-3.10687500e-07,4.06250000e-03
-3.10527500e-07,-2.15625000e-02
-3.10367500e-07,-4.00000000e-02
-3.10207500e-07,-2.07812500e-02
-3.10047500e-07,2.65625000e-03
-3.09887500e-07,-5.15625000e-03
-3.09727500e-07,-4.15625000e-02
-3.09567500e-07,-5.87500000e-02
-3.09407500e-07,-1.40625000e-02
-3.09247500e-07,2.20312500e-02
-3.09087500e-07,-2.67187500e-02
-3.08927500e-07,-5.78125000e-02
-3.08767500e-07,7.65625000e-03
-3.08607500e-07,4.06250000e-02
-3.08447500e-07,-1.00000000e-02
-3.08287500e-07,-1.06250000e-02
-3.08127500e-07,3.85937500e-02
-3.07967500e-07,1.85937500e-02
-3.07807500e-07,-2.57812500e-02
-3.07647500e-07,-6.71875000e-03
-3.07487500e-07,1.75000000e-02
-3.07327500e-07,7.50000000e-03
-3.07167500e-07,7.81250000e-03
-3.07007500e-07,1.17187500e-02
-3.06847500e-07,5.00000000e-03
-3.06687500e-07,1.15625000e-02
-3.06527500e-07,1.18750000e-02
-3.06367500e-07,2.34375000e-03
-3.06207500e-07,2.64062500e-02
-3.06047500e-07,4.73437500e-02
-3.05887500e-07,2.00000000e-02
-3.05727500e-07,9.53125000e-03
-3.05567500e-07,3.54687500e-02
-3.05407500e-07,2.89062500e-02
-3.05247500e-07,4.53125000e-03
-3.05087500e-07,1.48437500e-02
-3.04927500e-07,2.81250000e-02
-3.04767500e-07,1.21875000e-02
-3.04607500e-07,-9.84375000e-03
-3.04447500e-07,-1.34375000e-02
-3.04287500e-07,6.09375000e-03
-3.04127500e-07,2.73437500e-02
-3.03967500e-07,2.59375000e-02
-3.03807500e-07,2.21875000e-02
-3.03647500e-07,3.07812500e-02
-3.03487500e-07,1.90625000e-02
-3.03327500e-07,-7.18750000e-03
-3.03167500e-07,5.46875000e-03
-3.03007500e-07,4.07812500e-02
-3.02847500e-07,3.12500000e-02
-3.02687500e-07,-2.96875000e-03
-3.02527500e-07,4.21875000e-03
-3.02367500e-07,2.81250000e-02
-3.02207500e-07,1.50000000e-02
-3.02047500e-07,-7.65625000e-03
-3.01887500e-07,-1.40625000e-03
-3.01727500e-07,1.67187500e-02
-3.01567500e-07,2.48437500e-02
-3.01407500e-07,1.85937500e-02
-3.01247500e-07,5.31250000e-03
-3.01087500e-07,8.90625000e-03
-3.00927500e-07,2.62500000e-02
-3.00767500e-07,2.40625000e-02
-3.00607500e-07,1.17187500e-02
-3.00447500e-07,2.04687500e-02
-3.00287500e-07,2.84375000e-02
-3.00127500e-07,1.15625000e-02
-2.99967500e-07,5.78125000e-03
-2.99807500e-07,3.04687500e-02
-2.99647500e-07,3.57812500e-02
-2.99487500e-07,-5.00000000e-03
-2.99327500e-07,-2.71875000e-02
-2.99167500e-07,1.26562500e-02
-2.99007500e-07,4.00000000e-02
-2.98847500e-07,9.06250000e-03
-2.98687500e-07,5.46875000e-03
-2.98527500e-07,4.81250000e-02
-2.98367500e-07,3.78125000e-02
-2.98207500e-07,-9.53125000e-03
-2.98047500e-07,2.34375000e-03
-2.97887500e-07,3.50000000e-02
-2.97727500e-07,2.29687500e-02
-2.97567500e-07,8.12500000e-03
-2.97407500e-07,1.42187500e-02
-2.97247500e-07,1.53125000e-02
-2.97087500e-07,1.46875000e-02
-2.96927500e-07,1.54687500e-02
-2.96767500e-07,1.54687500e-02
-2.96607500e-07,2.18750000e-02
-2.96447500e-07,1.43750000e-02
-2.96287500e-07,1.87500000e-03
-2.96127500e-07,3.03125000e-02
-2.95967500e-07,5.64062500e-02
-2.95807500e-07,2.50000000e-02
-2.95647500e-07,1.01562500e-02
-2.95487500e-07,5.09375000e-02
-2.95327500e-07,6.00000000e-02
-2.95167500e-07,2.01562500e-02
-2.95007500e-07,5.31250000e-03
-2.94847500e-07,2.12500000e-02
-2.94687500e-07,3.40625000e-02
-2.94527500e-07,4.18750000e-02
-2.94367500e-07,4.20312500e-02
-2.94207500e-07,4.45312500e-02
-2.94047500e-07,5.89062500e-02
-2.93887500e-07,4.95312500e-02
-2.93727500e-07,1.39062500e-02
-2.93567500e-07,1.53125000e-02
-2.93407500e-07,5.57812500e-02
-2.93247500e-07,6.93750000e-02
-2.93087500e-07,4.50000000e-02
-2.92927500e-07,2.89062500e-02
-2.92767500e-07,3.56250000e-02
-2.92607500e-07,3.42187500e-02
-2.92447500e-07,2.00000000e-02
-2.92287500e-07,2.92187500e-02
-2.92127500e-07,5.21875000e-02
-2.91967500e-07,4.54687500e-02
-2.91807500e-07,2.93750000e-02
-2.91647500e-07,4.00000000e-02
-2.91487500e-07,5.45312500e-02
-2.91327500e-07,4.82812500e-02
-2.91167500e-07,2.37500000e-02
-2.91007500e-07,6.56250000e-03
-2.90847500e-07,2.93750000e-02
-2.90687500e-07,5.18750000e-02
-2.90527500e-07,2.81250000e-02
-2.90367500e-07,2.82812500e-02
-2.90207500e-07,7.76562500e-02
-2.90047500e-07,7.12500000e-02
-2.89887500e-07,9.68750000e-03
-2.89727500e-07,-1.71875000e-03
-2.89567500e-07,2.17187500e-02
-2.89407500e-07,8.12500000e-03
-2.89247500e-07,-1.89062500e-02
-2.89087500e-07,-1.03125000e-02
-2.88927500e-07,2.10937500e-02
-2.88767500e-07,2.45312500e-02
-2.88607500e-07,-4.84375000e-03
-2.88447500e-07,-1.34375000e-02
-2.88287500e-07,-3.43750000e-03
-2.88127500e-07,-1.34375000e-02
-2.87967500e-07,-5.62500000e-03
-2.87807500e-07,2.82812500e-02
-2.87647500e-07,1.40625000e-02
-2.87487500e-07,-2.32812500e-02
-2.87327500e-07,-1.06250000e-02
-2.87167500e-07,5.31250000e-03
-2.87007500e-07,1.56250000e-03
-2.86847500e-07,2.92187500e-02
-2.86687500e-07,3.95312500e-02
-2.86527500e-07,-6.87500000e-03
-2.86367500e-07,-1.65625000e-02
-2.86207500e-07,1.76562500e-02
-2.86047500e-07,8.90625000e-03
-2.85887500e-07,-1.40625000e-03
-2.85727500e-07,3.18750000e-02
-2.85567500e-07,2.51562500e-02
-2.85407500e-07,-1.71875000e-02
-2.85247500e-07,-1.56250000e-03
-2.85087500e-07,3.04687500e-02
-2.84927500e-07,7.03125000e-03
-2.84767500e-07,-9.21875000e-03
-2.84607500e-07,1.79687500e-02
-2.84447500e-07,2.57812500e-02
-2.84287500e-07,5.00000000e-03
-2.84127500e-07,-1.87500000e-03
-2.83967500e-07,4.21875000e-03
-2.83807500e-07,8.59375000e-03
-2.83647500e-07,1.56250000e-04
-2.83487500e-07,-2.75000000e-02
-2.83327500e-07,-2.98437500e-02
-2.83167500e-07,1.42187500e-02
-2.83007500e-07,2.93750000e-02
-2.82847500e-07,-3.90625000e-03
-2.82687500e-07,0.00000000e+00
-2.82527500e-07,3.18750000e-02
-2.82367500e-07,4.84375000e-03
-2.82207500e-07,-3.65625000e-02
-2.82047500e-07,-1.28125000e-02
-2.81887500e-07,1.46875000e-02
-2.81727500e-07,-1.32812500e-02
-2.81567500e-07,-3.65625000e-02
-2.81407500e-07,-1.65625000e-02
-2.81247500e-07,4.21875000e-03
-2.81087500e-07,-1.56250000e-03
-2.80927500e-07,-2.57812500e-02
-2.80767500e-07,-4.09375000e-02
-2.80607500e-07,-1.23437500e-02
-2.80447500e-07,3.01562500e-02
-2.80287500e-07,1.31250000e-02
-2.80127500e-07,-2.90625000e-02
-2.79967500e-07,-7.65625000e-03
-2.79807500e-07,2.59375000e-02
-2.79647500e-07,-1.09375000e-02
-2.79487500e-07,-3.92187500e-02
-2.79327500e-07,5.31250000e-03
-2.79167500e-07,2.12500000e-02
-2.79007500e-07,-2.70312500e-02
-2.78847500e-07,-3.12500000e-02
-2.78687500e-07,1.95312500e-02
-2.78527500e-07,3.09375000e-02
-2.78367500e-07,-7.81250000e-04
-2.78207500e-07,-1.56250000e-02
-2.78047500e-07,-7.50000000e-03
-2.77887500e-07,-5.93750000e-03
-2.77727500e-07,-2.26562500e-02
-2.77567500e-07,-2.62500000e-02
-2.77407500e-07,3.43750000e-03
-2.77247500e-07,7.34375000e-03
-2.77087500e-07,-4.23437500e-02
-2.76927500e-07,-5.71875000e-02
-2.76767500e-07,-6.56250000e-03
-2.76607500e-07,1.34375000e-02
-2.76447500e-07,-2.75000000e-02
-2.76287500e-07,-5.62500000e-02
-2.76127500e-07,-4.56250000e-02
-2.75967500e-07,-3.23437500e-02
-2.75807500e-07,-3.45312500e-02
-2.75647500e-07,-2.87500000e-02
-2.75487500e-07,-7.81250000e-04
-2.75327500e-07,3.43750000e-03
-2.75167500e-07,-3.35937500e-02
-2.75007500e-07,-3.68750000e-02
-2.74847500e-07,1.25000000e-03
-2.74687500e-07,-1.40625000e-02
-2.74527500e-07,-6.23437500e-02
-2.74367500e-07,-4.85937500e-02
-2.74207500e-07,-1.45312500e-02
-2.74047500e-07,-3.31250000e-02
-2.73887500e-07,-6.37500000e-02
-2.73727500e-07,-5.75000000e-02
-2.73567500e-07,-3.04687500e-02
-2.73407500e-07,-1.90625000e-02
-2.73247500e-07,-3.67187500e-02
-2.73087500e-07,-4.40625000e-02
-2.72927500e-07,-2.14062500e-02
-2.72767500e-07,-2.26562500e-02
-2.72607500e-07,-5.32812500e-02
-2.72447500e-07,-4.29687500e-02
-2.72287500e-07,-2.65625000e-03
-2.72127500e-07,-1.06250000e-02
-2.71967500e-07,-5.46875000e-02
-2.71807500e-07,-5.64062500e-02
-2.71647500e-07,-1.50000000e-02
-2.71487500e-07,-1.07812500e-02
-2.71327500e-07,-6.09375000e-02
-2.71167500e-07,-7.95312500e-02
-2.71007500e-07,-3.92187500e-02
-2.70847500e-07,-2.79687500e-02
-2.70687500e-07,-5.65625000e-02
-2.70527500e-07,-4.12500000e-02
-2.70367500e-07,-1.06250000e-02
-2.70207500e-07,-3.76562500e-02
-2.70047500e-07,-5.64062500e-02
-2.69887500e-07,-1.85937500e-02
-2.69727500e-07,-4.37500000e-03
-2.69567500e-07,-2.93750000e-02
-2.69407500e-07,-2.87500000e-02
-2.69247500e-07,-1.23437500e-02
-2.69087500e-07,-1.09375000e-02
-2.68927500e-07,-1.67187500e-02
-2.68767500e-07,-3.12500000e-02
-2.68607500e-07,-2.79687500e-02
-2.68447500e-07,1.01562500e-02
-2.68287500e-07,3.43750000e-03
-2.68127500e-07,-6.06250000e-02
-2.67967500e-07,-6.87500000e-02
-2.67807500e-07,-2.76562500e-02
-2.67647500e-07,-3.59375000e-02
-2.67487500e-07,-5.62500000e-02
-2.67327500e-07,-3.14062500e-02
-2.67167500e-07,-1.23437500e-02
-2.67007500e-07,-2.03125000e-02
-2.66847500e-07,-3.04687500e-02
-2.66687500e-07,-4.12500000e-02
-2.66527500e-07,-3.25000000e-02
-2.66367500e-07,-8.59375000e-03
-2.66207500e-07,-2.46875000e-02
-2.66047500e-07,-5.73437500e-02
-2.65887500e-07,-4.42187500e-02
-2.65727500e-07,-2.28125000e-02
-2.65567500e-07,-3.26562500e-02
-2.65407500e-07,-3.00000000e-02
-2.65247500e-07,-1.10937500e-02
-2.65087500e-07,-2.39062500e-02
-2.64927500e-07,-5.32812500e-02
-2.64767500e-07,-4.82812500e-02
-2.64607500e-07,-2.12500000e-02
-2.64447500e-07,-1.12500000e-02
-2.64287500e-07,-1.70312500e-02
-2.64127500e-07,-2.35937500e-02
-2.63967500e-07,-2.89062500e-02
-2.63807500e-07,-2.85937500e-02
-2.63647500e-07,-2.46875000e-02
-2.63487500e-07,-2.03125000e-02
-2.63327500e-07,-2.81250000e-03
-2.63167500e-07,9.06250000e-03
-2.63007500e-07,-1.67187500e-02
-2.62847500e-07,-3.50000000e-02
-2.62687500e-07,-6.09375000e-03
-2.62527500e-07,-2.03125000e-03
-2.62367500e-07,-4.53125000e-02
-2.62207500e-07,-4.07812500e-02
-2.62047500e-07,1.06250000e-02
-2.61887500e-07,4.84375000e-03
-2.61727500e-07,-4.62500000e-02
-2.61567500e-07,-5.07812500e-02
-2.61407500e-07,-1.32812500e-02
-2.61247500e-07,-3.59375000e-03
-2.61087500e-07,-2.90625000e-02
-2.60927500e-07,-3.18750000e-02
-2.60767500e-07,-4.21875000e-03
-2.60607500e-07,-7.18750000e-03
-2.60447500e-07,-3.54687500e-02
-2.60287500e-07,-3.00000000e-02
-2.60127500e-07,-2.03125000e-02
-2.59967500e-07,-3.82812500e-02
-2.59807500e-07,-2.17187500e-02
-2.59647500e-07,2.39062500e-02
-2.59487500e-07,1.46875000e-02
-2.59327500e-07,-3.12500000e-02
-2.59167500e-07,-4.34375000e-02
-2.59007500e-07,-2.26562500e-02
-2.58847500e-07,-3.12500000e-03
-2.58687500e-07,-1.28125000e-02
-2.58527500e-07,-4.40625000e-02
-2.58367500e-07,-4.09375000e-02
-2.58207500e-07,-3.43750000e-03
-2.58047500e-07,-1.56250000e-04
-2.57887500e-07,-2.71875000e-02
-2.57727500e-07,-2.40625000e-02
-2.57567500e-07,-8.28125000e-03
-2.57407500e-07,-2.26562500e-02
-2.57247500e-07,-3.31250000e-02
-2.57087500e-07,-1.37500000e-02
-2.56927500e-07,-8.90625000e-03
-2.56767500e-07,-2.79687500e-02
-2.56607500e-07,-3.06250000e-02
-2.56447500e-07,-2.37500000e-02
-2.56287500e-07,-2.95312500e-02
-2.56127500e-07,-2.76562500e-02
-2.55967500e-07,-1.93750000e-02
-2.55807500e-07,-2.14062500e-02
-2.55647500e-07,-1.04687500e-02
-2.55487500e-07,5.93750000e-03
-2.55327500e-07,-1.65625000e-02
-2.55167500e-07,-3.96875000e-02
-2.55007500e-07,-3.90625000e-03
-2.54847500e-07,2.95312500e-02
-2.54687500e-07,-2.65625000e-03
-2.54527500e-07,-2.40625000e-02
-2.54367500e-07,1.68750000e-02
-2.54207500e-07,2.26562500e-02
-2.54047500e-07,-3.26562500e-02
-2.53887500e-07,-2.81250000e-02
-2.53727500e-07,3.20312500e-02
-2.53567500e-07,1.93750000e-02
-2.53407500e-07,-3.26562500e-02
-2.53247500e-07,-2.07812500e-02
-2.53087500e-07,3.12500000e-03
-2.52927500e-07,-1.35937500e-02
-2.52767500e-07,-2.35937500e-02
-2.52607500e-07,-1.76562500e-02
-2.52447500e-07,-8.59375000e-03
-2.52287500e-07,5.31250000e-03
-2.52127500e-07,-1.48437500e-02
-2.51967500e-07,-4.65625000e-02
-2.51807500e-07,-1.03125000e-02
-2.51647500e-07,3.48437500e-02
-2.51487500e-07,2.81250000e-03
-2.51327500e-07,-2.71875000e-02
-2.51167500e-07,2.03125000e-03
-2.51007500e-07,9.84375000e-03
-2.50847500e-07,-2.31250000e-02
-2.50687500e-07,-2.65625000e-02
-2.50527500e-07,-3.12500000e-03
-2.50367500e-07,-1.18750000e-02
-2.50207500e-07,-4.00000000e-02
-2.50047500e-07,-2.71875000e-02
-2.49887500e-07,1.15625000e-02
-2.49727500e-07,1.56250000e-02
-2.49567500e-07,-2.34375000e-03
-2.49407500e-07,-4.21875000e-03
-2.49247500e-07,-9.37500000e-04
-2.49087500e-07,-1.56250000e-04
-2.48927500e-07,-1.71875000e-03
-2.48767500e-07,-1.40625000e-02
-2.48607500e-07,-1.45312500e-02
-2.48447500e-07,-4.68750000e-03
-2.48287500e-07,-2.46875000e-02
-2.48127500e-07,-3.65625000e-02
-2.47967500e-07,2.18750000e-03
-2.47807500e-07,1.29687500e-02
-2.47647500e-07,-3.90625000e-02
-2.47487500e-07,-5.73437500e-02
-2.47327500e-07,-1.12500000e-02
-2.47167500e-07,1.32812500e-02
-2.47007500e-07,-1.96875000e-02
-2.46847500e-07,-4.87500000e-02
-2.46687500e-07,-3.17187500e-02
-2.46527500e-07,-1.37500000e-02
-2.46367500e-07,-2.62500000e-02
-2.46207500e-07,-1.79687500e-02
-2.46047500e-07,1.46875000e-02
-2.45887500e-07,-7.81250000e-04
-2.45727500e-07,-4.53125000e-02
-2.45567500e-07,-3.56250000e-02
-2.45407500e-07,7.96875000e-03
-2.45247500e-07,8.90625000e-03
-2.45087500e-07,-2.96875000e-02
-2.44927500e-07,-4.21875000e-02
-2.44767500e-07,-7.18750000e-03
-2.44607500e-07,1.37500000e-02
-2.44447500e-07,-1.10937500e-02
-2.44287500e-07,-2.01562500e-02
-2.44127500e-07,7.96875000e-03
-2.43967500e-07,1.21875000e-02
-2.43807500e-07,-1.09375000e-02
-2.43647500e-07,-1.06250000e-02
-2.43487500e-07,5.78125000e-03
-2.43327500e-07,3.43750000e-03
-2.43167500e-07,-1.14062500e-02
-2.43007500e-07,-1.40625000e-02
-2.42847500e-07,2.03125000e-03
-2.42687500e-07,1.78125000e-02
-2.42527500e-07,3.90625000e-03
-2.42367500e-07,-2.90625000e-02
-2.42207500e-07,-2.53125000e-02
-2.42047500e-07,1.09375000e-02
-2.41887500e-07,5.31250000e-03
-2.41727500e-07,-2.03125000e-02
-2.41567500e-07,1.96875000e-02
-2.41407500e-07,5.87500000e-02
-2.41247500e-07,8.12500000e-03
-2.41087500e-07,-2.93750000e-02
-2.40927500e-07,1.25000000e-02
-2.40767500e-07,3.01562500e-02
-2.40607500e-07,0.00000000e+00
-2.40447500e-07,-7.34375000e-03
-2.40287500e-07,-1.71875000e-03
-2.40127500e-07,-9.53125000e-03
-2.39967500e-07,-1.65625000e-02
-2.39807500e-07,-2.09375000e-02
-2.39647500e-07,-1.40625000e-02
-2.39487500e-07,1.25000000e-03
-2.39327500e-07,-5.15625000e-03
-2.39167500e-07,-1.25000000e-02
-2.39007500e-07,6.25000000e-03
-2.38847500e-07,9.37500000e-03
-2.38687500e-07,-7.18750000e-03
-2.38527500e-07,3.12500000e-03
-2.38367500e-07,1.43750000e-02
-2.38207500e-07,-1.62500000e-02
-2.38047500e-07,-3.89062500e-02
-2.37887500e-07,-6.56250000e-03
-2.37727500e-07,2.89062500e-02
-2.37567500e-07,1.39062500e-02
-2.37407500e-07,-1.70312500e-02
-2.37247500e-07,-1.64062500e-02
-2.37087500e-07,7.81250000e-04
-2.36927500e-07,3.75000000e-03
-2.36767500e-07,-1.23437500e-02
-2.36607500e-07,-3.12500000e-02
-2.36447500e-07,-2.96875000e-02
-2.36287500e-07,-1.87500000e-02
-2.36127500e-07,-2.37500000e-02
-2.35967500e-07,-2.65625000e-02
-2.35807500e-07,-1.65625000e-02
-2.35647500e-07,-2.12500000e-02
-2.35487500e-07,-2.64062500e-02
-2.35327500e-07,-8.59375000e-03
-2.35167500e-07,-1.40625000e-03
-2.35007500e-07,-1.75000000e-02
-2.34847500e-07,-2.81250000e-02
-2.34687500e-07,-2.37500000e-02
-2.34527500e-07,-4.21875000e-03
-2.34367500e-07,8.43750000e-03
-2.34207500e-07,-1.42187500e-02
-2.34047500e-07,-2.98437500e-02
-2.33887500e-07,-7.96875000e-03
-2.33727500e-07,-1.01562500e-02
-2.33567500e-07,-4.03125000e-02
-2.33407500e-07,-2.68750000e-02
-2.33247500e-07,4.53125000e-03
-2.33087500e-07,-7.81250000e-03
-2.32927500e-07,-2.98437500e-02
-2.32767500e-07,-2.04687500e-02
-2.32607500e-07,-1.25000000e-03
-2.32447500e-07,-4.68750000e-04
-2.32287500e-07,-1.93750000e-02
-2.32127500e-07,-2.57812500e-02
-2.31967500e-07,-3.43750000e-03
-2.31807500e-07,-2.03125000e-03
-2.31647500e-07,-3.32812500e-02
-2.31487500e-07,-2.75000000e-02
-2.31327500e-07,1.28125000e-02
-2.31167500e-07,9.21875000e-03
-2.31007500e-07,-2.68750000e-02
-2.30847500e-07,-3.10937500e-02
-2.30687500e-07,-2.01562500e-02
-2.30527500e-07,-3.37500000e-02
-2.30367500e-07,-4.37500000e-02
-2.30207500e-07,-2.23437500e-02
-2.30047500e-07,-5.78125000e-03
-2.29887500e-07,-2.64062500e-02
-2.29727500e-07,-4.57812500e-02
-2.29567500e-07,-2.32812500e-02
-2.29407500e-07,4.84375000e-03
-2.29247500e-07,-9.06250000e-03
-2.29087500e-07,-3.62500000e-02
-2.28927500e-07,-2.43750000e-02
-2.28767500e-07,8.28125000e-03
-2.28607500e-07,2.03125000e-03
-2.28447500e-07,-4.07812500e-02
-2.28287500e-07,-5.45312500e-02
-2.28127500e-07,-2.26562500e-02
-2.27967500e-07,-7.03125000e-03
-2.27807500e-07,-3.57812500e-02
-2.27647500e-07,-5.56250000e-02
-2.27487500e-07,-3.70312500e-02
-2.27327500e-07,-2.81250000e-02
-2.27167500e-07,-4.79687500e-02
-2.27007500e-07,-4.06250000e-02
-2.26847500e-07,1.25000000e-03
-2.26687500e-07,-1.87500000e-03
-2.26527500e-07,-5.48437500e-02
-2.26367500e-07,-5.93750000e-02
-2.26207500e-07,-7.81250000e-03
-2.26047500e-07,-7.81250000e-04
-2.25887500e-07,-4.25000000e-02
-2.25727500e-07,-4.18750000e-02
-2.25567500e-07,-1.87500000e-03
-2.25407500e-07,1.87500000e-03
-2.25247500e-07,-3.34375000e-02
-2.25087500e-07,-5.60937500e-02
-2.24927500e-07,-3.92187500e-02
-2.24767500e-07,-7.18750000e-03
-2.24607500e-07,-1.73437500e-02
-2.24447500e-07,-6.26562500e-02
-2.24287500e-07,-6.04687500e-02
-2.24127500e-07,-1.98437500e-02
-2.23967500e-07,-2.43750000e-02
-2.23807500e-07,-4.42187500e-02
-2.23647500e-07,-2.29687500e-02
-2.23487500e-07,-1.76562500e-02
-2.23327500e-07,-4.40625000e-02
-2.23167500e-07,-2.73437500e-02
-2.23007500e-07,1.10937500e-02
-2.22847500e-07,-4.21875000e-03
-2.22687500e-07,-4.40625000e-02
-2.22527500e-07,-4.76562500e-02
-2.22367500e-07,-2.46875000e-02
-2.22207500e-07,-1.64062500e-02
-2.22047500e-07,-4.28125000e-02
-2.21887500e-07,-6.46875000e-02
-2.21727500e-07,-3.37500000e-02
-2.21567500e-07,1.56250000e-04
-2.21407500e-07,-2.64062500e-02
-2.21247500e-07,-5.43750000e-02
-2.21087500e-07,-2.56250000e-02
-2.20927500e-07,-7.34375000e-03
-2.20767500e-07,-3.70312500e-02
-2.20607500e-07,-3.84375000e-02
-2.20447500e-07,7.03125000e-03
-2.20287500e-07,1.57812500e-02
-2.20127500e-07,-2.28125000e-02
-2.19967500e-07,-2.73437500e-02
-2.19807500e-07,7.81250000e-04
-2.19647500e-07,-2.53125000e-02
-2.19487500e-07,-8.34375000e-02
-2.19327500e-07,-5.84375000e-02
-2.19167500e-07,1.92187500e-02
-2.19007500e-07,1.64062500e-02
-2.18847500e-07,-3.79687500e-02
-2.18687500e-07,-3.29687500e-02
-2.18527500e-07,-5.62500000e-03
-2.18367500e-07,-1.93750000e-02
-2.18207500e-07,-3.09375000e-02
-2.18047500e-07,-1.79687500e-02
-2.17887500e-07,-1.51562500e-02
-2.17727500e-07,-2.53125000e-02
-2.17567500e-07,-3.39062500e-02
-2.17407500e-07,-2.62500000e-02
-2.17247500e-07,3.90625000e-03
-2.17087500e-07,9.84375000e-03
-2.16927500e-07,-3.28125000e-02
-2.16767500e-07,-5.12500000e-02
-2.16607500e-07,-8.12500000e-03
-2.16447500e-07,6.71875000e-03
-2.16287500e-07,-4.98437500e-02
-2.16127500e-07,-7.18750000e-02
-2.15967500e-07,-1.25000000e-02
-2.15807500e-07,1.23437500e-02
-2.15647500e-07,-3.29687500e-02
-2.15487500e-07,-3.68750000e-02
-2.15327500e-07,-1.56250000e-04
-2.15167500e-07,-1.76562500e-02
-2.15007500e-07,-4.92187500e-02
-2.14847500e-07,-2.48437500e-02
-2.14687500e-07,1.87500000e-03
-2.14527500e-07,-1.35937500e-02
-2.14367500e-07,-3.40625000e-02
-2.14207500e-07,-2.81250000e-02
-2.14047500e-07,-5.93750000e-03
-2.13887500e-07,-9.37500000e-03
-2.13727500e-07,-4.43750000e-02
-2.13567500e-07,-5.23437500e-02
-2.13407500e-07,-2.31250000e-02
-2.13247500e-07,-1.48437500e-02
-2.13087500e-07,-3.45312500e-02
-2.12927500e-07,-4.14062500e-02
-2.12767500e-07,-2.85937500e-02
-2.12607500e-07,-2.73437500e-02
-2.12447500e-07,-5.43750000e-02
