Experiment1/Part2/5.IG,20V,LS_ALL.csv

Model,MSO68B
Channel,CH8
Label,
Waveform Type,ANALOG
Digital Type,None
Horizontal Units,s
Sample Interval,1.60000000e-10
Record Length,7500
Zero Index,1949.16796875
Vertical Units,V
,
ANALOG_Thumbnail,
yOffset,0.000000
yPosition,0.440000

Labels,
TIME,CH8
-3.11866875e-07,-4.35937500e-02
-3.11706875e-07,-7.51562500e-02
-3.11546875e-07,-5.03125000e-02
-3.11386875e-07,-3.32812500e-02
-3.11226875e-07,-6.48437500e-02
-3.11066875e-07,-5.87500000e-02
-3.10906875e-07,-1.35937500e-02
-3.10746875e-07,-6.25000000e-03
-3.10586875e-07,-2.42187500e-02
-3.10426875e-07,-4.23437500e-02
-3.10266875e-07,-5.62500000e-02
-3.10106875e-07,-3.84375000e-02
-3.09946875e-07,-3.07812500e-02
-3.09786875e-07,-7.28125000e-02
-3.09626875e-07,-7.68750000e-02
-3.09466875e-07,-2.37500000e-02
-3.09306875e-07,-1.68750000e-02
-3.09146875e-07,-4.57812500e-02
-3.08986875e-07,-4.01562500e-02
-3.08826875e-07,-3.32812500e-02
-3.08666875e-07,-4.39062500e-02
-3.08506875e-07,-3.21875000e-02
-3.08346875e-07,-1.76562500e-02
-3.08186875e-07,-3.35937500e-02
-3.08026875e-07,-5.31250000e-02
-3.07866875e-07,-5.14062500e-02
-3.07706875e-07,-4.09375000e-02
-3.07546875e-07,-4.43750000e-02
-3.07386875e-07,-6.46875000e-02
-3.07226875e-07,-6.71875000e-02
-3.07066875e-07,-2.96875000e-02
-3.06906875e-07,-4.53125000e-03
-3.06746875e-07,-4.07812500e-02
-3.06586875e-07,-8.03125000e-02
-3.06426875e-07,-5.37500000e-02
-3.06266875e-07,-1.60937500e-02
-3.06106875e-07,-3.34375000e-02
-3.05946875e-07,-5.34375000e-02
-3.05786875e-07,-3.54687500e-02
-3.05626875e-07,-3.10937500e-02
-3.05466875e-07,-5.20312500e-02
-3.05306875e-07,-6.29687500e-02
-3.05146875e-07,-7.32812500e-02
-3.04986875e-07,-8.73437500e-02
-3.04826875e-07,-7.71875000e-02
-3.04666875e-07,-5.39062500e-02
-3.04506875e-07,-5.25000000e-02
-3.04346875e-07,-7.56250000e-02
-3.04186875e-07,-9.54687500e-02
-3.04026875e-07,-7.95312500e-02
-3.03866875e-07,-4.03125000e-02
-3.03706875e-07,-3.68750000e-02
-3.03546875e-07,-7.14062500e-02
-3.03386875e-07,-7.51562500e-02
-3.03226875e-07,-4.09375000e-02
-3.03066875e-07,-3.78125000e-02
-3.02906875e-07,-7.31250000e-02
-3.02746875e-07,-8.45312500e-02
-3.02586875e-07,-6.67187500e-02
-3.02426875e-07,-6.32812500e-02
-3.02266875e-07,-7.25000000e-02
-3.02106875e-07,-6.92187500e-02
-3.01946875e-07,-5.07812500e-02
-3.01786875e-07,-3.14062500e-02
-3.01626875e-07,-4.53125000e-02
-3.01466875e-07,-8.53125000e-02
-3.01306875e-07,-8.17187500e-02
-3.01146875e-07,-4.87500000e-02
-3.00986875e-07,-6.71875000e-02
-3.00826875e-07,-9.04687500e-02
-3.00666875e-07,-6.03125000e-02
-3.00506875e-07,-5.59375000e-02
-3.00346875e-07,-8.90625000e-02
-3.00186875e-07,-7.31250000e-02
-3.00026875e-07,-3.84375000e-02
-2.99866875e-07,-4.75000000e-02
-2.99706875e-07,-6.34375000e-02
-2.99546875e-07,-6.37500000e-02
-2.99386875e-07,-5.59375000e-02
-2.99226875e-07,-4.29687500e-02
-2.99066875e-07,-6.06250000e-02
-2.98906875e-07,-8.81250000e-02
-2.98746875e-07,-6.31250000e-02
-2.98586875e-07,-4.23437500e-02
-2.98426875e-07,-7.60937500e-02
-2.98266875e-07,-8.21875000e-02
-2.98106875e-07,-4.46875000e-02
-2.97946875e-07,-4.03125000e-02
-2.97786875e-07,-6.09375000e-02
-2.97626875e-07,-6.17187500e-02
-2.97466875e-07,-5.03125000e-02
-2.97306875e-07,-4.15625000e-02
-2.97146875e-07,-4.48437500e-02
-2.96986875e-07,-4.64062500e-02
-2.96826875e-07,-2.54687500e-02
-2.96666875e-07,-2.10937500e-02
-2.96506875e-07,-4.95312500e-02
-2.96346875e-07,-5.31250000e-02
-2.96186875e-07,-3.84375000e-02
-2.96026875e-07,-5.37500000e-02
-2.95866875e-07,-5.85937500e-02
-2.95706875e-07,-2.65625000e-02
-2.95546875e-07,-1.78125000e-02
-2.95386875e-07,-4.28125000e-02
-2.95226875e-07,-5.50000000e-02
-2.95066875e-07,-4.35937500e-02
-2.94906875e-07,-2.45312500e-02
-2.94746875e-07,-2.34375000e-02
-2.94586875e-07,-5.20312500e-02
-2.94426875e-07,-6.25000000e-02
-2.94266875e-07,-3.23437500e-02
-2.94106875e-07,-2.59375000e-02
-2.93946875e-07,-5.89062500e-02
-2.93786875e-07,-6.35937500e-02
-2.93626875e-07,-3.71875000e-02
-2.93466875e-07,-2.26562500e-02
-2.93306875e-07,-9.37500000e-03
-2.93146875e-07,-1.56250000e-04
-2.92986875e-07,-2.09375000e-02
-2.92826875e-07,-4.67187500e-02
-2.92666875e-07,-5.89062500e-02
-2.92506875e-07,-5.59375000e-02
-2.92346875e-07,-1.26562500e-02
-2.92186875e-07,1.40625000e-02
-2.92026875e-07,-4.65625000e-02
-2.91866875e-07,-7.67187500e-02
-2.91706875e-07,-2.81250000e-03
-2.91546875e-07,1.46875000e-02
-2.91386875e-07,-5.37500000e-02
-2.91226875e-07,-4.15625000e-02
-2.91066875e-07,2.12500000e-02
-2.90906875e-07,-2.18750000e-03
-2.90746875e-07,-5.26562500e-02
-2.90586875e-07,-4.54687500e-02
-2.90426875e-07,-1.85937500e-02
-2.90266875e-07,-4.37500000e-03
-2.90106875e-07,-7.96875000e-03
-2.89946875e-07,-2.45312500e-02
-2.89786875e-07,-2.25000000e-02
-2.89626875e-07,-1.73437500e-02
-2.89466875e-07,-4.09375000e-02
-2.89306875e-07,-5.26562500e-02
-2.89146875e-07,-3.06250000e-02
-2.88986875e-07,-2.00000000e-02
-2.88826875e-07,-3.73437500e-02
-2.88666875e-07,-5.59375000e-02
-2.88506875e-07,-5.14062500e-02
-2.88346875e-07,-2.68750000e-02
-2.88186875e-07,-1.76562500e-02
-2.88026875e-07,-3.15625000e-02
-2.87866875e-07,-4.37500000e-02
-2.87706875e-07,-5.65625000e-02
-2.87546875e-07,-5.98437500e-02
-2.87386875e-07,-3.15625000e-02
-2.87226875e-07,-1.50000000e-02
-2.87066875e-07,-3.35937500e-02
-2.86906875e-07,-3.57812500e-02
-2.86746875e-07,-2.32812500e-02
-2.86586875e-07,-2.78125000e-02
-2.86426875e-07,-2.25000000e-02
-2.86266875e-07,-1.00000000e-02
-2.86106875e-07,-1.42187500e-02
-2.85946875e-07,-6.09375000e-03
-2.85786875e-07,-2.81250000e-03
-2.85626875e-07,-4.25000000e-02
-2.85466875e-07,-5.28125000e-02
-2.85306875e-07,0.00000000e+00
-2.85146875e-07,1.96875000e-02
-2.84986875e-07,-7.81250000e-03
-2.84826875e-07,-8.59375000e-03
-2.84666875e-07,4.68750000e-04
-2.84506875e-07,-9.84375000e-03
-2.84346875e-07,-4.68750000e-03
-2.84186875e-07,1.71875000e-03
-2.84026875e-07,-2.12500000e-02
-2.83866875e-07,-3.51562500e-02
-2.83706875e-07,-2.39062500e-02
-2.83546875e-07,-1.17187500e-02
-2.83386875e-07,6.87500000e-03
-2.83226875e-07,1.87500000e-02
-2.83066875e-07,-4.06250000e-03
-2.82906875e-07,-2.34375000e-02
-2.82746875e-07,-9.53125000e-03
-2.82586875e-07,-4.68750000e-03
-2.82426875e-07,-1.57812500e-02
-2.82266875e-07,-9.84375000e-03
-2.82106875e-07,-5.15625000e-03
-2.81946875e-07,-1.98437500e-02
-2.81786875e-07,-2.34375000e-02
-2.81626875e-07,-6.71875000e-03
-2.81466875e-07,6.56250000e-03
-2.81306875e-07,6.25000000e-04
-2.81146875e-07,-1.42187500e-02
-2.80986875e-07,9.37500000e-04
-2.80826875e-07,4.06250000e-02
-2.80666875e-07,3.40625000e-02
-2.80506875e-07,-1.64062500e-02
-2.80346875e-07,-3.18750000e-02
-2.80186875e-07,-7.81250000e-03
-2.80026875e-07,5.46875000e-03
-2.79866875e-07,-1.56250000e-04
-2.79706875e-07,-1.04687500e-02
-2.79546875e-07,-1.25000000e-02
-2.79386875e-07,-8.59375000e-03
-2.79226875e-07,-1.59375000e-02
-2.79066875e-07,-1.28125000e-02
-2.78906875e-07,1.04687500e-02
-2.78746875e-07,-3.28125000e-03
-2.78586875e-07,-3.89062500e-02
-2.78426875e-07,-1.60937500e-02
-2.78266875e-07,2.04687500e-02
-2.78106875e-07,-1.56250000e-03
-2.77946875e-07,-1.89062500e-02
-2.77786875e-07,3.75000000e-03
-2.77626875e-07,1.56250000e-04
-2.77466875e-07,-2.93750000e-02
-2.77306875e-07,-2.59375000e-02
-2.77146875e-07,7.81250000e-04
-2.76986875e-07,1.00000000e-02
-2.76826875e-07,-1.71875000e-03
-2.76666875e-07,-1.26562500e-02
-2.76506875e-07,-6.25000000e-03
-2.76346875e-07,9.53125000e-03
-2.76186875e-07,8.28125000e-03
-2.76026875e-07,-1.04687500e-02
-2.75866875e-07,-1.28125000e-02
-2.75706875e-07,4.53125000e-03
-2.75546875e-07,-7.03125000e-03
-2.75386875e-07,-3.92187500e-02
-2.75226875e-07,-2.20312500e-02
-2.75066875e-07,1.78125000e-02
-2.74906875e-07,9.68750000e-03
-2.74746875e-07,0.00000000e+00
-2.74586875e-07,2.35937500e-02
-2.74426875e-07,1.79687500e-02
-2.74266875e-07,-6.40625000e-03
-2.74106875e-07,2.65625000e-03
-2.73946875e-07,3.59375000e-03
-2.73786875e-07,-1.32812500e-02
-2.73626875e-07,-4.37500000e-03
-2.73466875e-07,-5.31250000e-03
-2.73306875e-07,-3.03125000e-02
-2.73146875e-07,-1.82812500e-02
-2.72986875e-07,4.37500000e-03
-2.72826875e-07,-2.14062500e-02
-2.72666875e-07,-3.73437500e-02
-2.72506875e-07,-1.40625000e-03
-2.72346875e-07,1.40625000e-02
-2.72186875e-07,-2.03125000e-02
-2.72026875e-07,-3.51562500e-02
-2.71866875e-07,-2.18750000e-03
-2.71706875e-07,1.76562500e-02
-2.71546875e-07,-7.96875000e-03
-2.71386875e-07,-2.56250000e-02
-2.71226875e-07,-6.25000000e-03
-2.71066875e-07,4.68750000e-04
-2.70906875e-07,-1.70312500e-02
-2.70746875e-07,-8.28125000e-03
-2.70586875e-07,1.96875000e-02
-2.70426875e-07,1.12500000e-02
-2.70266875e-07,-3.18750000e-02
-2.70106875e-07,-5.57812500e-02
-2.69946875e-07,-3.09375000e-02
-2.69786875e-07,6.87500000e-03
-2.69626875e-07,1.56250000e-03
-2.69466875e-07,-2.70312500e-02
-2.69306875e-07,-1.29687500e-02
-2.69146875e-07,1.34375000e-02
-2.68986875e-07,-1.70312500e-02
-2.68826875e-07,-4.28125000e-02
-2.68666875e-07,1.87500000e-03
-2.68506875e-07,1.79687500e-02
-2.68346875e-07,-3.79687500e-02
-2.68186875e-07,-4.06250000e-02
-2.68026875e-07,1.25000000e-02
-2.67866875e-07,2.65625000e-03
-2.67706875e-07,-2.35937500e-02
-2.67546875e-07,8.28125000e-03
-2.67386875e-07,1.90625000e-02
-2.67226875e-07,-1.03125000e-02
-2.67066875e-07,-1.18750000e-02
-2.66906875e-07,-1.12500000e-02
-2.66746875e-07,-2.23437500e-02
-2.66586875e-07,-5.93750000e-03
-2.66426875e-07,-1.07812500e-02
-2.66266875e-07,-5.12500000e-02
-2.66106875e-07,-3.73437500e-02
-2.65946875e-07,4.21875000e-03
-2.65786875e-07,-1.82812500e-02
-2.65626875e-07,-4.10937500e-02
-2.65466875e-07,3.75000000e-03
-2.65306875e-07,2.57812500e-02
-2.65146875e-07,-2.71875000e-02
-2.64986875e-07,-5.42187500e-02
-2.64826875e-07,-8.59375000e-03
-2.64666875e-07,1.07812500e-02
-2.64506875e-07,-2.15625000e-02
-2.64346875e-07,-1.48437500e-02
-2.64186875e-07,1.01562500e-02
-2.64026875e-07,-2.73437500e-02
-2.63866875e-07,-6.04687500e-02
-2.63706875e-07,-2.68750000e-02
-2.63546875e-07,4.21875000e-03
-2.63386875e-07,2.65625000e-03
-2.63226875e-07,-7.81250000e-03
-2.63066875e-07,-3.21875000e-02
-2.62906875e-07,-3.65625000e-02
-2.62746875e-07,-1.37500000e-02
-2.62586875e-07,-3.56250000e-02
-2.62426875e-07,-7.32812500e-02
-2.62266875e-07,-4.31250000e-02
-2.62106875e-07,-1.93750000e-02
-2.61946875e-07,-7.06250000e-02
-2.61786875e-07,-8.67187500e-02
-2.61626875e-07,-2.18750000e-02
-2.61466875e-07,1.71875000e-03
-2.61306875e-07,-4.26562500e-02
-2.61146875e-07,-5.01562500e-02
-2.60986875e-07,-1.81250000e-02
-2.60826875e-07,-2.60937500e-02
-2.60666875e-07,-5.39062500e-02
-2.60506875e-07,-4.46875000e-02
-2.60346875e-07,-2.01562500e-02
-2.60186875e-07,-1.54687500e-02
-2.60026875e-07,-2.81250000e-02
-2.59866875e-07,-3.78125000e-02
-2.59706875e-07,-2.18750000e-02
-2.59546875e-07,-7.96875000e-03
-2.59386875e-07,-3.70312500e-02
-2.59226875e-07,-5.29687500e-02
-2.59066875e-07,-1.73437500e-02
-2.58906875e-07,-1.98437500e-02
-2.58746875e-07,-7.59375000e-02
-2.58586875e-07,-7.12500000e-02
-2.58426875e-07,-1.21875000e-02
-2.58266875e-07,-1.25000000e-02
-2.58106875e-07,-5.42187500e-02
-2.57946875e-07,-4.67187500e-02
-2.57786875e-07,-1.07812500e-02
-2.57626875e-07,-1.06250000e-02
-2.57466875e-07,-3.00000000e-02
-2.57306875e-07,-3.15625000e-02
-2.57146875e-07,-2.90625000e-02
-2.56986875e-07,-3.39062500e-02
-2.56826875e-07,-3.60937500e-02
-2.56666875e-07,-4.43750000e-02
-2.56506875e-07,-4.57812500e-02
-2.56346875e-07,-1.81250000e-02
-2.56186875e-07,-1.89062500e-02
-2.56026875e-07,-6.78125000e-02
-2.55866875e-07,-6.21875000e-02
-2.55706875e-07,-7.50000000e-03
-2.55546875e-07,-2.73437500e-02
-2.55386875e-07,-7.23437500e-02
-2.55226875e-07,-3.12500000e-02
-2.55066875e-07,4.68750000e-04
-2.54906875e-07,-5.48437500e-02
-2.54746875e-07,-7.50000000e-02
-2.54586875e-07,-2.50000000e-02
-2.54426875e-07,-2.75000000e-02
-2.54266875e-07,-7.28125000e-02
-2.54106875e-07,-5.26562500e-02
-2.53946875e-07,-1.14062500e-02
-2.53786875e-07,-3.39062500e-02
-2.53626875e-07,-6.82812500e-02
-2.53466875e-07,-6.09375000e-02
-2.53306875e-07,-4.09375000e-02
-2.53146875e-07,-3.18750000e-02
-2.52986875e-07,-4.32812500e-02
-2.52826875e-07,-6.23437500e-02
-2.52666875e-07,-4.23437500e-02
-2.52506875e-07,-1.12500000e-02
-2.52346875e-07,-3.78125000e-02
-2.52186875e-07,-7.56250000e-02
-2.52026875e-07,-6.34375000e-02
-2.51866875e-07,-5.53125000e-02
-2.51706875e-07,-7.29687500e-02
-2.51546875e-07,-5.46875000e-02
-2.51386875e-07,-1.46875000e-02
-2.51226875e-07,-2.60937500e-02
-2.51066875e-07,-7.87500000e-02
-2.50906875e-07,-1.00156250e-01
-2.50746875e-07,-6.68750000e-02
-2.50586875e-07,-3.35937500e-02
-2.50426875e-07,-4.78125000e-02
-2.50266875e-07,-7.25000000e-02
-2.50106875e-07,-6.50000000e-02
-2.49946875e-07,-5.82812500e-02
-2.49786875e-07,-6.93750000e-02
-2.49626875e-07,-6.12500000e-02
-2.49466875e-07,-4.39062500e-02
-2.49306875e-07,-5.43750000e-02
-2.49146875e-07,-6.92187500e-02
-2.48986875e-07,-5.46875000e-02
-2.48826875e-07,-3.06250000e-02
-2.48666875e-07,-2.96875000e-02
-2.48506875e-07,-4.62500000e-02
-2.48346875e-07,-4.40625000e-02
-2.48186875e-07,-2.54687500e-02
-2.48026875e-07,-4.10937500e-02
-2.47866875e-07,-7.21875000e-02
-2.47706875e-07,-5.09375000e-02
-2.47546875e-07,-1.59375000e-02
-2.47386875e-07,-3.40625000e-02
-2.47226875e-07,-5.79687500e-02
-2.47066875e-07,-4.45312500e-02
-2.46906875e-07,-3.01562500e-02
-2.46746875e-07,-2.68750000e-02
-2.46586875e-07,-2.85937500e-02
-2.46426875e-07,-4.18750000e-02
-2.46266875e-07,-3.95312500e-02
-2.46106875e-07,-2.21875000e-02
-2.45946875e-07,-4.26562500e-02
-2.45786875e-07,-7.29687500e-02
-2.45626875e-07,-4.40625000e-02
-2.45466875e-07,-6.09375000e-03
-2.45306875e-07,-2.85937500e-02
-2.45146875e-07,-5.79687500e-02
-2.44986875e-07,-4.32812500e-02
-2.44826875e-07,-3.06250000e-02
-2.44666875e-07,-4.34375000e-02
-2.44506875e-07,-4.18750000e-02
-2.44346875e-07,-2.29687500e-02
-2.44186875e-07,-1.98437500e-02
-2.44026875e-07,-3.26562500e-02
-2.43866875e-07,-4.00000000e-02
-2.43706875e-07,-3.68750000e-02
-2.43546875e-07,-3.28125000e-02
-2.43386875e-07,-3.90625000e-02
-2.43226875e-07,-4.65625000e-02
-2.43066875e-07,-3.79687500e-02
-2.42906875e-07,-3.23437500e-02
-2.42746875e-07,-4.12500000e-02
-2.42586875e-07,-3.03125000e-02
-2.42426875e-07,-1.25000000e-02
-2.42266875e-07,-3.64062500e-02
-2.42106875e-07,-5.68750000e-02
-2.41946875e-07,-1.78125000e-02
-2.41786875e-07,1.56250000e-02
-2.41626875e-07,-1.39062500e-02
-2.41466875e-07,-5.56250000e-02
-2.41306875e-07,-5.93750000e-02
-2.41146875e-07,-2.90625000e-02
-2.40986875e-07,-3.75000000e-03
-2.40826875e-07,-3.29687500e-02
-2.40666875e-07,-7.89062500e-02
-2.40506875e-07,-5.54687500e-02
-2.40346875e-07,-1.35937500e-02
-2.40186875e-07,-4.01562500e-02
-2.40026875e-07,-6.07812500e-02
-2.39866875e-07,-2.29687500e-02
-2.39706875e-07,-1.93750000e-02
-2.39546875e-07,-5.10937500e-02
-2.39386875e-07,-3.03125000e-02
-2.39226875e-07,-4.84375000e-03
-2.39066875e-07,-4.07812500e-02
-2.38906875e-07,-6.26562500e-02
-2.38746875e-07,-3.53125000e-02
-2.38586875e-07,-2.98437500e-02
-2.38426875e-07,-5.57812500e-02
-2.38266875e-07,-6.62500000e-02
-2.38106875e-07,-5.14062500e-02
-2.37946875e-07,-2.26562500e-02
-2.37786875e-07,-1.51562500e-02
-2.37626875e-07,-5.00000000e-02
-2.37466875e-07,-6.64062500e-02
-2.37306875e-07,-3.95312500e-02
-2.37146875e-07,-4.54687500e-02
-2.36986875e-07,-8.65625000e-02
-2.36826875e-07,-8.04687500e-02
-2.36666875e-07,-4.04687500e-02
-2.36506875e-07,-3.34375000e-02
-2.36346875e-07,-5.12500000e-02
-2.36186875e-07,-6.04687500e-02
-2.36026875e-07,-5.78125000e-02
-2.35866875e-07,-4.75000000e-02
-2.35706875e-07,-3.79687500e-02
-2.35546875e-07,-3.67187500e-02
-2.35386875e-07,-4.29687500e-02
-2.35226875e-07,-5.59375000e-02
-2.35066875e-07,-6.54687500e-02
-2.34906875e-07,-5.81250000e-02
-2.34746875e-07,-3.73437500e-02
-2.34586875e-07,-2.28125000e-02
-2.34426875e-07,-3.26562500e-02
-2.34266875e-07,-5.50000000e-02
-2.34106875e-07,-4.81250000e-02
-2.33946875e-07,-1.67187500e-02
-2.33786875e-07,-2.07812500e-02
-2.33626875e-07,-5.64062500e-02
-2.33466875e-07,-6.04687500e-02
-2.33306875e-07,-4.14062500e-02
-2.33146875e-07,-3.54687500e-02
-2.32986875e-07,-2.00000000e-02
-2.32826875e-07,-4.53125000e-03
-2.32666875e-07,-3.43750000e-02
-2.32506875e-07,-6.82812500e-02
-2.32346875e-07,-5.48437500e-02
-2.32186875e-07,-3.67187500e-02
-2.32026875e-07,-3.96875000e-02
-2.31866875e-07,-3.54687500e-02
-2.31706875e-07,-3.42187500e-02
-2.31546875e-07,-4.50000000e-02
-2.31386875e-07,-4.28125000e-02
-2.31226875e-07,-3.60937500e-02
-2.31066875e-07,-3.42187500e-02
-2.30906875e-07,-1.53125000e-02
-2.30746875e-07,-6.71875000e-03
-2.30586875e-07,-3.92187500e-02
-2.30426875e-07,-4.51562500e-02
-2.30266875e-07,5.00000000e-03
-2.30106875e-07,8.59375000e-03
-2.29946875e-07,-5.09375000e-02
-2.29786875e-07,-4.90625000e-02
-2.29626875e-07,1.10937500e-02
-2.29466875e-07,9.37500000e-03
-2.29306875e-07,-3.37500000e-02
-2.29146875e-07,-2.98437500e-02
-2.28986875e-07,-9.37500000e-03
-2.28826875e-07,-1.60937500e-02
-2.28666875e-07,-2.84375000e-02
-2.28506875e-07,-3.50000000e-02
-2.28346875e-07,-2.90625000e-02
-2.28186875e-07,-1.12500000e-02
-2.28026875e-07,-1.37500000e-02
-2.27866875e-07,-2.62500000e-02
-2.27706875e-07,-1.87500000e-02
-2.27546875e-07,-2.89062500e-02
-2.27386875e-07,-5.65625000e-02
-2.27226875e-07,-3.90625000e-02
-2.27066875e-07,-7.50000000e-03
-2.26906875e-07,-1.73437500e-02
-2.26746875e-07,-2.50000000e-02
-2.26586875e-07,-1.42187500e-02
-2.26426875e-07,-2.40625000e-02
-2.26266875e-07,-2.85937500e-02
-2.26106875e-07,-1.34375000e-02
-2.25946875e-07,-2.15625000e-02
-2.25786875e-07,-3.37500000e-02
-2.25626875e-07,-2.37500000e-02
-2.25466875e-07,-3.68750000e-02
-2.25306875e-07,-5.20312500e-02
-2.25146875e-07,-1.35937500e-02
-2.24986875e-07,4.37500000e-03
-2.24826875e-07,-4.51562500e-02
-2.24666875e-07,-5.48437500e-02
-2.24506875e-07,-4.84375000e-03
-2.24346875e-07,-1.12500000e-02
-2.24186875e-07,-6.37500000e-02
-2.24026875e-07,-5.90625000e-02
-2.23866875e-07,-2.35937500e-02
-2.23706875e-07,-3.01562500e-02
-2.23546875e-07,-4.95312500e-02
-2.23386875e-07,-3.26562500e-02
-2.23226875e-07,2.03125000e-03
-2.23066875e-07,1.21875000e-02
-2.22906875e-07,-1.62500000e-02
-2.22746875e-07,-4.73437500e-02
-2.22586875e-07,-4.01562500e-02
-2.22426875e-07,-2.20312500e-02
-2.22266875e-07,-3.03125000e-02
-2.22106875e-07,-3.32812500e-02
-2.21946875e-07,-8.75000000e-03
-2.21786875e-07,3.28125000e-03
-2.21626875e-07,-9.06250000e-03
-2.21466875e-07,-1.39062500e-02
-2.21306875e-07,-1.00000000e-02
-2.21146875e-07,-1.62500000e-02
-2.20986875e-07,-3.14062500e-02
-2.20826875e-07,-3.62500000e-02
-2.20666875e-07,-1.25000000e-02
-2.20506875e-07,1.18750000e-02
-2.20346875e-07,-1.07812500e-02
-2.20186875e-07,-4.29687500e-02
-2.20026875e-07,-2.48437500e-02
-2.19866875e-07,-4.21875000e-03
-2.19706875e-07,-2.65625000e-02
-2.19546875e-07,-3.60937500e-02
-2.19386875e-07,-1.28125000e-02
-2.19226875e-07,-1.00000000e-02
-2.19066875e-07,-2.60937500e-02
-2.18906875e-07,-2.28125000e-02
-2.18746875e-07,-1.06250000e-02
-2.18586875e-07,-1.67187500e-02
-2.18426875e-07,-4.14062500e-02
-2.18266875e-07,-5.31250000e-02
-2.18106875e-07,-1.90625000e-02
-2.17946875e-07,2.23437500e-02
-2.17786875e-07,3.28125000e-03
-2.17626875e-07,-3.53125000e-02
-2.17466875e-07,-2.04687500e-02
-2.17306875e-07,-4.84375000e-03
-2.17146875e-07,-4.28125000e-02
-2.16986875e-07,-6.03125000e-02
-2.16826875e-07,-2.20312500e-02
-2.16666875e-07,-6.56250000e-03
-2.16506875e-07,-3.04687500e-02
-2.16346875e-07,-2.85937500e-02
-2.16186875e-07,-8.59375000e-03
-2.16026875e-07,-2.18750000e-02
-2.15866875e-07,-4.06250000e-02
-2.15706875e-07,-2.45312500e-02
-2.15546875e-07,-9.84375000e-03
-2.15386875e-07,-2.75000000e-02
-2.15226875e-07,-4.23437500e-02
-2.15066875e-07,-3.35937500e-02
-2.14906875e-07,-2.60937500e-02
-2.14746875e-07,-3.25000000e-02
-2.14586875e-07,-4.17187500e-02
-2.14426875e-07,-3.96875000e-02
-2.14266875e-07,-2.32812500e-02
-2.14106875e-07,-2.00000000e-02
-2.13946875e-07,-4.73437500e-02
-2.13786875e-07,-6.42187500e-02
-2.13626875e-07,-4.70312500e-02
-2.13466875e-07,-4.18750000e-02
-2.13306875e-07,-6.03125000e-02
-2.13146875e-07,-4.90625000e-02
-2.12986875e-07,-1.32812500e-02
